{
  "_id": "CU9dMfuV00LkB3Zo",
  "name": "Aklys",
  "type": "weapon",
  "img": "systems/pf1/icons/items/weapons/aklys.png",
  "data": {
    "description": {
      "value": "<p><strong>Source</strong> <em>Ultimate Equipment pg. 20</em>, <em>Classic Horrors Revisited pg. 8</em>, <em>Adventurer's Armory pg. 2</em>, <em>Ultimate Combat pg. 144</em></p><h3 class=\"framing\"><img src=\"https://www.aonprd.com/images/PathfinderSocietySymbol.gif\" title=\"PFS Legal\" style=\"margin:3px 3px 0px 3px;\">Statistics</h3><p><strong>Cost</strong> 5 gp <strong>Weight</strong> 2 lbs.</p><p><strong>Damage</strong> 1d4 (small), 1d6 (medium); <strong>Critical</strong> x2; <strong>Range</strong> 20 ft.; <strong>Type</strong> B; <strong>Special</strong> performance, trip</p><p><strong>Category</strong> Light; <strong>Proficiency</strong> Exotic</p><p><strong>Weapon Groups</strong> Hammers; Thrown</p><h3 class=\"framing\">Description</h3><p>The aklys is a hooked throwing club with a 20-foot-long cord, usually of woven leather; you can retrieve the aklys after throwing it as a move action. The hook allows you to make trip attacks at range. Some aklyses have holes drilled through them and whistle when flung.</p>"
    },
    "tags": [],
    "weight": 2,
    "price": 5,
    "hp": {
      "max": 2,
      "value": 2
    },
    "hardness": 5,
    "identifiedName": "Aklys",
    "changes": [],
    "contextNotes": [],
    "links": {
      "children": []
    },
    "tag": "aklys",
    "flags": {
      "boolean": [],
      "dictionary": []
    },
    "scriptCalls": [],
    "weaponType": "exotic",
    "weaponData": {
      "damageRoll": "1d6",
      "damageType": "B",
      "range": 20
    }
  },
  "effects": [],
  "folder": null,
  "sort": 0,
  "permission": {
    "default": 0
  },
  "flags": {}
}