{
  "_id": "QiOSpaHKL8KMYmvK",
  "name": "Blast Shot (Siege)",
  "type": "loot",
  "img": "icons/weapons/ammunition/shot-round-blue.webp",
  "data": {
    "description": {
      "value": "<p><strong>Source</strong> <em>Ultimate Combat pg. 164</em></p>\n<h3 class=\"framing\">Statistics</h3>\n<p><strong>Cost</strong> 30 gp <strong>Weight</strong> 25 lbs.</p>\n<p><strong>Category</strong> Ammunition; <strong>Proficiency</strong> Siege Engine</p>\n<h3 class=\"framing\">Description</h3>\n<p>Instead of a single hard ball, this ammunition is a bundle of large pellets, balls, or pieces of scrap metal, propelled a short distance by black powder and attacking all creatures and objects within an area. Both cannons and fiend's mouth cannons can fire this kind of ammunition.</p>\n<p>When such a siege engine fires this ammunition, it hits every creature and object within a <strong>30-foot-cone burst</strong>. The siege engine makes attack rolls against each creature and unattended object in the burst.</p>\n<h3>Mishap</h3>\n<p>It must miss every creature or target to misfire, and a misfire generates the normal effect. It deals its normal damage on a hit, but does not ignore the hardness of objects.</p>"
    },
    "tags": [],
    "weight": 250,
    "price": 30,
    "hp": {
      "max": 1,
      "value": 1
    },
    "hardness": 5,
    "identifiedName": "Blast Shot (Siege)",
    "changes": [],
    "contextNotes": [],
    "links": {
      "children": []
    },
    "tag": "blastShotSiege",
    "flags": {
      "boolean": [],
      "dictionary": []
    },
    "scriptCalls": [],
    "subType": "gear"
  },
  "effects": [],
  "folder": null,
  "sort": 0,
  "permission": {
    "default": 0
  },
  "flags": {}
}