{
  "_id": "O2LhGbHS4g2RRBw1",
  "name": "Boarding Gaff",
  "type": "weapon",
  "img": "systems/pf1/icons/items/weapons/boarding-gaff.png",
  "data": {
    "description": {
      "value": "<p><strong>Source</strong> <em>Adventurer's Armory 2 pg. 8</em>, <em>Pirates of the Inner Sea pg. 19</em></p><h3 class=\"framing\"><img src=\"https://www.aonprd.com/images/PathfinderSocietySymbol.gif\" title=\"PFS Legal\" style=\"margin:3px 3px 0px 3px;\">Statistics</h3><p><strong>Cost</strong> 8 gp <strong>Weight</strong> 8 lbs.</p><p><strong>Damage</strong> 1d4/1d4 (small), 1d6/1d6 (medium); <strong>Critical</strong> x2; <strong>Range</strong> -; <strong>Type</strong> P or S; <strong>Special</strong> double, reach, trip</p><p><strong>Category</strong> Two-Handed; <strong>Proficiency</strong> Exotic</p><p><strong>Weapon Groups</strong> Double; Polearms</p><h3 class=\"framing\">Description</h3><p>A boarding gaff, or gaff hook, is a long pole with a hook for spearing fish. Pirates often add extra, heavier hooks to both ends of boarding gaffs to assist with boarding actions, giving the weapon its common name. A boarding gaff can also be used for fishing.</p>"
    },
    "tags": [],
    "weight": 8,
    "price": 8,
    "hardness": 10,
    "identifiedName": "Boarding Gaff",
    "changes": [],
    "contextNotes": [],
    "links": {
      "children": []
    },
    "tag": "boardingGaff",
    "flags": {
      "boolean": [],
      "dictionary": []
    },
    "scriptCalls": [],
    "weaponType": "exotic",
    "weaponSubtype": "2h",
    "weaponData": {
      "damageRoll": "1d6",
      "damageType": "P or S",
      "critRange": "20",
      "critMult": "2",
      "range": 0
    }
  },
  "effects": [],
  "folder": null,
  "sort": 0,
  "permission": {
    "default": 0
  },
  "flags": {}
}