{
  "_id": "9y3Uo776SKY0Gtel",
  "name": "Bolas Bolts",
  "type": "loot",
  "img": "icons/weapons/ammunition/arrow-simple-brown.webp",
  "data": {
    "description": {
      "value": "<p><strong>Source</strong> <em>Monster Codex pg. 44</em></p><h3 class=\"framing\">Statistics</h3><p><strong>Cost</strong> 20 gp <strong>Weight</strong> 4 lbs.</p><p><strong>Category</strong> Ammunition; <strong>Proficiency</strong> Ammunition</p><h3 class=\"framing\">Description</h3><p>Bolas bolts are bolas-like projectiles used as ammunition for slaver's crossbows. If you hit a target with a bolas bolt fired from a slaver's crossbow, attempt a trip combat maneuver against your target (don't add your Strength bonus when attempting the combat maneuver check). You can't be tripped during your own trip attempt when using a bolas bolt.</p><p></p><p> On a critical hit, instead of dealing extra damage, the bolas bolt ensnares its target. Your target is entangled until it or an ally succeeds at a DC 15 Strength check to break the bolas cords. A light slaver's crossbow can entangle a target up to the same size as its intended wielder, and a heavy slaver's crossbow can entangle a creature up to one size larger. A masterwork bolas bolt or one with an enhancement bonus of at least +1 increases the DC of the Strength check to break the bolas to 20.</p><p></p><p> If the attack trips and entangles a target, the creature cannot move from its square until it breaks free of the bolas cords.</p>"
    },
    "tags": [],
    "weight": 40,
    "price": 20,
    "hp": {
      "max": 1,
      "value": 1
    },
    "hardness": 5,
    "identifiedName": "Bolas Bolts",
    "changes": [],
    "contextNotes": [],
    "links": {
      "children": []
    },
    "tag": "bolasBolts",
    "flags": {
      "boolean": [],
      "dictionary": []
    },
    "scriptCalls": []
  },
  "effects": [],
  "folder": null,
  "sort": 0,
  "permission": {
    "default": 0
  },
  "flags": {}
}