{
  "_id": "wZ0dp1iluJFWh239",
  "name": "Bomb (Siege)",
  "type": "loot",
  "img": "systems/pf1/icons/items/potions/magic-yellow.jpg",
  "data": {
    "description": {
      "value": "<p><strong>Source</strong> <em>Ultimate Combat pg. 164</em></p>\n<h3 class=\"framing\">Statistics</h3>\n<p><strong>Cost</strong> 600 gp <strong>Weight</strong> 30 lbs.</p>\n<p><strong>Category</strong> Ammunition; <strong>Proficiency</strong> Siege Engine</p>\n<h3 class=\"framing\">Description</h3>\n<p>A bomb is a metal canister filled with metal balls and black powder that can be used as ammunition in catapults and trebuchets or carried by two Medium creatures or one Large creature to its destination. A bomb either explodes on impact (if fired from a catapult or trebuchet, or within 3 rounds of a fuse being lit if carried).</p>\n<p>When it explodes, it deals <strong>6d6 points of piercing and bludgeoning</strong> damage to all creatures and objects within <strong>30 feet</strong> of the target square.</p>\n<h3>Mishap</h3>\n<p>On a siege engine mishap, this ammunition explodes before it is launched, dealing its damage to the siege engine and all nearby creatures and wooden objects as if one of the spaces of the siege engine (crew leader's choice) were the target square. It ignores the hardness of wood and stone.</p>"
    },
    "tags": [],
    "weight": 300,
    "price": 600,
    "hp": {
      "max": 1,
      "value": 1
    },
    "hardness": 5,
    "identifiedName": "Bomb (Siege)",
    "changes": [],
    "contextNotes": [],
    "links": {
      "children": []
    },
    "tag": "bombSiege",
    "flags": {
      "boolean": [],
      "dictionary": []
    },
    "scriptCalls": [],
    "subType": "ammo"
  },
  "effects": [],
  "folder": null,
  "sort": 0,
  "permission": {
    "default": 0
  },
  "flags": {}
}