{
  "_id": "pYuWJveZVUQcdUfF",
  "name": "Butterfly Knife",
  "type": "weapon",
  "img": "systems/pf1/icons/items/weapons/butterfly-knife.PNG",
  "data": {
    "description": {
      "value": "<p><strong>Source</strong> <em>Adventurer's Armory pg. 3</em></p><h3 class=\"framing\"><img src=\"https://www.aonprd.com/images/PathfinderSocietySymbol.gif\" title=\"PFS Legal\" style=\"margin:3px 3px 0px 3px;\">Statistics</h3><p><strong>Cost</strong> 5 gp <strong>Weight</strong> 1 lb.</p><p><strong>Damage</strong> 1d3 (small), 1d4 (medium); <strong>Critical</strong> 19-20/x2; <strong>Range</strong> -; <strong>Type</strong> P or S; <strong>Special</strong> -</p><p><strong>Category</strong> Light; <strong>Proficiency</strong> Exotic</p><p><strong>Weapon Groups</strong> Blades, Light</p><h3 class=\"framing\">Description</h3><p>This weapon has a blade concealed between the two halves of the handle that can be brought to bear quickly. If you are proficient with it (or have the Quick Draw feat), you may open it as a free action; a nonproficient user must spend a move action to open it. Otherwise, treat it as a dagger. When it's closed, you gain a +2 bonus on Sleight of Hand checks made to conceal it on your body.</p>"
    },
    "tags": [],
    "weight": 1,
    "price": 5,
    "hp": {
      "max": 2,
      "value": 2
    },
    "hardness": 10,
    "identifiedName": "Butterfly Knife",
    "changes": [],
    "contextNotes": [],
    "links": {
      "children": []
    },
    "tag": "butterflyKnife",
    "flags": {
      "boolean": [],
      "dictionary": []
    },
    "scriptCalls": [],
    "weaponType": "exotic",
    "weaponData": {
      "damageRoll": "1d4",
      "damageType": "P or S",
      "critRange": "19",
      "critMult": "2",
      "range": 0
    }
  },
  "effects": [],
  "folder": null,
  "sort": 0,
  "permission": {
    "default": 0
  },
  "flags": {}
}