{
  "_id": "bTmiY6Bkj2kSPUKV",
  "name": "Dwarven Sphinx Hammer",
  "type": "weapon",
  "img": "systems/pf1/icons/items/weapons/dwarven-sphinx-hammer.PNG",
  "data": {
    "description": {
      "value": "<p><strong>Source</strong> <em>Heroes from the Fringe pg. 8</em></p><h3 class=\"framing\">Statistics</h3><p><strong>Cost</strong> 45 gp <strong>Weight</strong> 8 lbs.</p><p><strong>Damage</strong> 1d8 (small), 1d10 (medium); <strong>Critical</strong> x3; <strong>Range</strong> 20 ft.; <strong>Type</strong> B; <strong>Special</strong> -</p><p><strong>Category</strong> Two-Handed; <strong>Proficiency</strong> Exotic</p><p><strong>Weapon Groups</strong> Hammers; Thrown</p><h3 class=\"framing\">Description</h3><p>The dwarven sphinx hammer is a long-handled hammer with a striking head that is artfully designed to look like a ram-headed criosphinx. Most commonly found among the Pahmet, the dwarven sphinx hammer is balanced for use as both a melee weapon and a thrown weapon.</p>"
    },
    "tags": [],
    "weight": 8,
    "price": 45,
    "hardness": 10,
    "identifiedName": "Dwarven Sphinx Hammer",
    "changes": [],
    "contextNotes": [],
    "links": {
      "children": []
    },
    "tag": "dwarvenSphinxHammer",
    "flags": {
      "boolean": [],
      "dictionary": []
    },
    "scriptCalls": [],
    "weaponType": "exotic",
    "weaponSubtype": "2h",
    "weaponData": {
      "damageRoll": "1d10",
      "damageType": "B",
      "critMult": 3,
      "range": 20
    }
  },
  "effects": [],
  "folder": null,
  "sort": 0,
  "permission": {
    "default": 0
  },
  "flags": {}
}