{
  "_id": "ZDzIeyL6Zc9M6xq5",
  "name": "Dwarven Maulaxe",
  "type": "weapon",
  "img": "systems/pf1/icons/items/weapons/maulaxe-dwarven.png",
  "data": {
    "description": {
      "value": "<p><strong>Source</strong> <em>Adventurer's Armory pg. 3</em>, <em>Pathfinder Campaign Setting pg. 209</em></p><h3 class=\"framing\"><img src=\"https://www.aonprd.com/images/PathfinderSocietySymbol.gif\" title=\"PFS Legal\" style=\"margin:3px 3px 0px 3px;\">Statistics</h3><p><strong>Cost</strong> 25 gp <strong>Weight</strong> 5 lbs.</p><p><strong>Damage</strong> 1d4 (small), 1d6 (medium); <strong>Critical</strong> x3; <strong>Range</strong> 10 ft.; <strong>Type</strong> B or S; <strong>Special</strong> -</p><p><strong>Category</strong> Light; <strong>Proficiency</strong> Exotic</p><h3 class=\"framing\">Description</h3><p>This versatile weapon looks like a heavy-headed axe, but a proficient wielder can use the blunt back of the head to deal bludgeoning damage.</p>"
    },
    "tags": [],
    "weight": 5,
    "price": 25,
    "hp": {
      "max": 2,
      "value": 2
    },
    "hardness": 10,
    "identifiedName": "Dwarven Maulaxe",
    "changes": [],
    "contextNotes": [],
    "links": {
      "children": []
    },
    "tag": "dwarvenMaulaxe",
    "flags": {
      "boolean": [],
      "dictionary": []
    },
    "scriptCalls": [],
    "weaponType": "exotic",
    "weaponData": {
      "damageRoll": "1d6",
      "damageType": "B or S",
      "critMult": 3,
      "range": 10
    }
  },
  "effects": [],
  "folder": null,
  "sort": 0,
  "permission": {
    "default": 0
  },
  "flags": {}
}