{
  "_id": "x1nte1KpHWKsDlww",
  "name": "Dwarven Chain-Flail",
  "type": "weapon",
  "img": "systems/pf1/icons/items/weapons/dwarven-dorn-dergar.png",
  "data": {
    "description": {
      "value": "<p><em>This 10-foot-long chain is weighted at the end by a ball of solid iron the size of a large fist.</em></p>\n<p>By adjusting the slack of the chain, the weapon can be used either with or without reach. Changing between using it as a normal weapon and a reach weapon is a&nbsp;<a href=\"https://www.d20pfsrd.com/gamemastering/combat#TOC-Move-Actions\">move action</a>.</p>"
    },
    "tags": [],
    "weight": 15,
    "price": 50,
    "hardness": 10,
    "changes": [],
    "contextNotes": [],
    "links": {
      "children": []
    },
    "flags": {
      "boolean": [],
      "dictionary": []
    },
    "scriptCalls": [],
    "weaponType": "exotic",
    "weaponSubtype": "2h",
    "weaponData": {
      "damageRoll": "1d10",
      "damageType": "B",
      "critRange": "20",
      "critMult": "2"
    }
  },
  "effects": [],
  "folder": null,
  "sort": 0,
  "permission": {
    "default": 0
  },
  "flags": {}
}