{
  "_id": "PL8jhdKhmnTtHITr",
  "name": "Flight Arrows (20)",
  "type": "loot",
  "img": "icons/weapons/ammunition/arrows-broadhead-white.webp",
  "data": {
    "description": {
      "value": "<p><strong>Source</strong> <em>Ultimate Equipment pg. 22</em>, <em>Advanced Player's Guide pg. 176</em></p>\n<h3 class=\"framing\"><img style=\"margin: 3px 3px 0px 3px;\" title=\"PFS Legal\" src=\"https://www.aonprd.com/images/PathfinderSocietySymbol.gif\" />Statistics</h3>\n<p><strong>Cost</strong> 2 gp <strong>Weight</strong> 3 lbs.</p>\n<p><strong>Category</strong> Ammunition; <strong>Proficiency</strong> Ammunition</p>\n<h3 class=\"framing\">Description</h3>\n<p>These arrows have light shafts and special fletching to give them greater range. A flight arrow's range increment is 20 feet greater with longbows and 10 feet greater with shortbows.</p>\n<p>They deal damage as if one size category smaller.</p>"
    },
    "tags": [],
    "quantity": 20,
    "weight": 30,
    "price": 2,
    "hp": {
      "max": 1,
      "value": 1
    },
    "hardness": 5,
    "identifiedName": "Flight Arrows (20)",
    "changes": [],
    "contextNotes": [],
    "links": {
      "children": []
    },
    "tag": "flightArrows20",
    "flags": {
      "boolean": [],
      "dictionary": []
    },
    "scriptCalls": [],
    "subType": "ammo",
    "equipped": false
  },
  "effects": [],
  "folder": null,
  "sort": 0,
  "permission": {
    "default": 0
  },
  "flags": {}
}