{
  "_id": "IxZC7La61pQSiK1r",
  "name": "Flying Blade",
  "type": "weapon",
  "img": "systems/pf1/icons/items/weapons/flying-blade.png",
  "data": {
    "description": {
      "value": "<p><strong>Source</strong> <em>Ranged Tactics Toolbox pg. 33</em>, <em>Ultimate Combat pg. 144</em>, <em>Ultimate Equipment pg. 20</em></p><h3 class=\"framing\"><img src=\"https://www.aonprd.com/images/PathfinderSocietySymbol.gif\" title=\"PFS Legal\" style=\"margin:3px 3px 0px 3px;\">Statistics</h3><p><strong>Cost</strong> 40 gp <strong>Weight</strong> 12 lbs.</p><p><strong>Damage</strong> 1d10 (small), 1d12 (medium); <strong>Critical</strong> x3; <strong>Range</strong> -; <strong>Type</strong> S; <strong>Special</strong> performance, reach</p><p><strong>Category</strong> Two-Handed; <strong>Proficiency</strong> Exotic</p><p><strong>Weapon Groups</strong> Flails</p><h3 class=\"framing\">Description</h3><p>A flying blade is a large, crescent-shaped blade anchored to a 10-foot chain. You fight with a flying blade by spinning it about your head or by snapping it toward an opponent. Because the flying blade is a clumsy weapon, you receive a -2 penalty on attack rolls with it, but when you make attacks of opportunity provoked by movement, you receive a +2 bonus on attack rolls instead of the penalty.</p>"
    },
    "tags": [],
    "weight": 12,
    "price": 40,
    "hardness": 10,
    "identifiedName": "Flying Blade",
    "changes": [],
    "contextNotes": [],
    "links": {
      "children": []
    },
    "tag": "flyingBlade",
    "flags": {
      "boolean": [],
      "dictionary": []
    },
    "scriptCalls": [],
    "weaponType": "exotic",
    "weaponSubtype": "2h",
    "weaponData": {
      "damageRoll": "1d12",
      "damageType": "S",
      "critMult": 3,
      "range": 0
    }
  },
  "effects": [],
  "folder": null,
  "sort": 0,
  "permission": {
    "default": 0
  },
  "flags": {}
}