{
  "_id": "eD48G3YnHyBYB3LC",
  "name": "Heavy Wrist Launcher",
  "type": "weapon",
  "img": "systems/pf1/icons/items/weapons/wrist-launcher.PNG",
  "data": {
    "description": {
      "value": "<p><strong>Source</strong> <em>Ultimate Intrigue pg. 232</em></p><h3 class=\"framing\">Statistics</h3><p><strong>Cost</strong> 250 gp <strong>Weight</strong> 2 lbs.</p><p><strong>Damage</strong> 1d3 (small), 1d4 (medium); <strong>Critical</strong> 19-20/x2; <strong>Range</strong> 30 ft.; <strong>Type</strong> P; <strong>Special</strong> -</p><p><strong>Category</strong> Ranged; <strong>Proficiency</strong> Exotic</p><h3 class=\"framing\">Description</h3><p>A larger version of the wrist launcher, this device fires a single crossbow bolt instead of a featherweight dart. If you are proficient with hand crossbows, you are also proficient with heavy wrist launchers.</p>"
    },
    "tags": [],
    "weight": 2,
    "price": 250,
    "hp": {
      "max": 5,
      "value": 5
    },
    "hardness": 5,
    "identifiedName": "Heavy Wrist Launcher",
    "changes": [],
    "contextNotes": [],
    "links": {
      "children": []
    },
    "tag": "heavyWristLauncher",
    "flags": {
      "boolean": [],
      "dictionary": []
    },
    "scriptCalls": [],
    "weaponType": "exotic",
    "weaponSubtype": "ranged",
    "weaponData": {
      "damageRoll": "1d4",
      "damageType": "P",
      "critRange": 19,
      "range": 30
    }
  },
  "effects": [],
  "folder": null,
  "sort": 0,
  "permission": {
    "default": 0
  },
  "flags": {}
}