{
  "_id": "fcWE8Nczv4u1s7A5",
  "name": "Lawrence 1917 Flamethrower Fuel Tank",
  "type": "loot",
  "img": "icons/containers/barrels/barrel-reinforced-cherry-red.webp",
  "data": {
    "description": {
      "value": "<p><strong>Source</strong> <em>Pathfinder #71: Rasputin Must Die! pg. 64</em></p><h3 class=\"framing\">Statistics</h3><p><strong>Cost</strong> 50 gp <strong>Weight</strong> 9 lbs.</p><p><strong>Category</strong> Ammunition; <strong>Proficiency</strong> Exotic</p><h3 class=\"framing\">Description</h3><p>This pair of tanks-one filled with oil, and the other a propellant- provides enough flammable material to use a   flamethrower six times.</p>"
    },
    "tags": [],
    "weight": 90,
    "price": 50,
    "hp": {
      "max": 1,
      "value": 1
    },
    "hardness": 5,
    "identifiedName": "Lawrence 1917 Flamethrower Fuel Tank",
    "changes": [],
    "contextNotes": [],
    "links": {
      "children": []
    },
    "tag": "lawrence1917FlamethrowerFuelTank",
    "flags": {
      "boolean": [],
      "dictionary": []
    },
    "scriptCalls": []
  },
  "effects": [],
  "folder": null,
  "sort": 0,
  "permission": {
    "default": 0
  },
  "flags": {}
}