{
  "_id": "bnM8psLOFegcdWg1",
  "name": "Light Repeating Crossbow",
  "type": "weapon",
  "img": "systems/pf1/icons/items/weapons/crossbow-repeating.PNG",
  "data": {
    "description": {
      "value": "<p>This weapon functions identically to a&nbsp;<a href=\"https://www.d20pfsrd.com/equipment/weapons/weapon-descriptions/crossbow-repeating-heavy/\">repeating heavy crossbow</a>, except that its damage, critical, and range values are equivalent to those of a light crossbow instead of a heavy crossbow. Its significantly lighter construction and pull make it both more portable and more useful to those who rely on stealth or speed.</p>"
    },
    "tags": [],
    "weight": 6,
    "price": 250,
    "hp": {
      "max": 5,
      "value": 5
    },
    "hardness": 5,
    "changes": [],
    "contextNotes": [],
    "links": {
      "children": []
    },
    "flags": {
      "boolean": [],
      "dictionary": []
    },
    "scriptCalls": [],
    "weaponType": "exotic",
    "weaponSubtype": "ranged",
    "weaponData": {
      "damageRoll": "1d8",
      "damageType": "P",
      "critRange": "19",
      "critMult": "2",
      "range": 80,
      "maxRangeIncrements": 10
    }
  },
  "effects": [],
  "folder": null,
  "sort": 0,
  "permission": {
    "default": 0
  },
  "flags": {}
}