{
  "_id": "ApkskhKY3okjOqkR",
  "name": "Liquid Ice (Siege)",
  "type": "loot",
  "img": "systems/pf1/icons/items/potions/magic-blue.jpg",
  "data": {
    "description": {
      "value": "<p><strong>Source</strong> <em>Ultimate Combat pg. 164</em></p>\n<h3 class=\"framing\">Statistics</h3>\n<p><strong>Cost</strong> 400 gp <strong>Weight</strong> 20 lbs.</p>\n<p><strong>Category</strong> Ammunition; <strong>Proficiency</strong> Siege Engine</p>\n<h3 class=\"framing\">Description</h3>\n<p>This hard, ceramic canister filled with alchemical liquid ice can be used as ammunition in catapults and trebuchets.</p>\n<p>When it hits its target square, it deals <strong>4d6 points of cold damage</strong> to each creature within 5 feet of the targeting space, and each creature must make a <strong>DC 20 Fortitude save</strong> or become entangled for 1 round.</p>\n<p>Every creature within the area between 5 and 30 feet of the target space must make a DC 20 Fortitude saving throw or take half damage.</p>\n<h3>Mishap</h3>\n<p>On a siege engine mishap, this ammunition explodes before it is launched, dealing its damage to all nearby creatures as if one of the spaces of the siege engine (crew leader's choice) were the target square.</p>"
    },
    "tags": [],
    "weight": 200,
    "price": 400,
    "hp": {
      "max": 1,
      "value": 1
    },
    "hardness": 5,
    "identifiedName": "Liquid Ice (Siege)",
    "changes": [],
    "contextNotes": [],
    "links": {
      "children": []
    },
    "tag": "liquidIceSiege",
    "flags": {
      "boolean": [],
      "dictionary": []
    },
    "scriptCalls": []
  },
  "effects": [],
  "folder": null,
  "sort": 0,
  "permission": {
    "default": 0
  },
  "flags": {}
}