{
  "_id": "Kvx2ZzrmSLQVNDpg",
  "name": "Manople",
  "type": "weapon",
  "img": "systems/pf1/icons/items/weapons/manople.png",
  "data": {
    "description": {
      "value": "<p><strong>Source</strong> <em>Melee Tactics Toolbox pg. 19</em></p><h3 class=\"framing\"><img src=\"https://www.aonprd.com/images/PathfinderSocietySymbol.gif\" title=\"PFS Legal\" style=\"margin:3px 3px 0px 3px;\">Statistics</h3><p><strong>Cost</strong> 17 gp <strong>Weight</strong> 4 lbs.</p><p><strong>Damage</strong> 1d6 (small), 1d8 (medium); <strong>Critical</strong> x2; <strong>Range</strong> -; <strong>Type</strong> P or S; <strong>Special</strong> blocking, disarm</p><p><strong>Category</strong> One-Handed; <strong>Proficiency</strong> Martial</p><p><strong>Weapon Groups</strong> Blades, Light</p><h3 class=\"framing\">Description</h3><p>This rigid, fingerless gauntlet has three blades projecting from the gauntlet's hand. The central blade is straight and double edged, while the side blades are curved like the prongs of a sai. You can't use the hand on which a manople is worn for anything else. A manople takes a full-round action to don, and gives you a +10 bonus to your CMD against disarm attempts.</p>"
    },
    "tags": [],
    "weight": 4,
    "price": 17,
    "hp": {
      "max": 5,
      "value": 5
    },
    "hardness": 10,
    "identifiedName": "Manople",
    "changes": [],
    "contextNotes": [],
    "links": {
      "children": []
    },
    "tag": "manople",
    "flags": {
      "boolean": [],
      "dictionary": []
    },
    "scriptCalls": [],
    "weaponType": "martial",
    "weaponSubtype": "1h",
    "weaponData": {
      "damageRoll": "1d8",
      "damageType": "P or S",
      "range": 0
    }
  },
  "effects": [],
  "folder": null,
  "sort": 0,
  "permission": {
    "default": 0
  },
  "flags": {}
}