{
  "_id": "4SXdTVk6mXoxoJFR",
  "name": "Nine-Section Whip",
  "type": "weapon",
  "img": "systems/pf1/icons/items/weapons/whip.png",
  "data": {
    "description": {
      "value": "<p><strong>Source</strong> <em>Ultimate Equipment pg. 20</em>, <em>Ultimate Combat pg. 133</em></p><h3 class=\"framing\"><img src=\"https://www.aonprd.com/images/PathfinderSocietySymbol.gif\" title=\"PFS Legal\" style=\"margin:3px 3px 0px 3px;\">Statistics</h3><p><strong>Cost</strong> 8 gp <strong>Weight</strong> 3 lbs.</p><p><strong>Damage</strong> 1d6 (small), 1d8 (medium); <strong>Critical</strong> 19-20/x2; <strong>Range</strong> -; <strong>Type</strong> B; <strong>Special</strong> blocking, distracting, monk, trip</p><p><strong>Category</strong> One-Handed; <strong>Proficiency</strong> Exotic</p><p><strong>Weapon Groups</strong> Flails; Monk</p><h3 class=\"framing\">Description</h3><p>The nine-section whip consists of steel bars linked together. The final bar is a 6-inch weighted spike. This weapon can be wielded as a single-handed weapon, a two-handed weapon, or in pairs. Nine-section whips often have colored cloth flags attached to the ends to make them easier to control.</p>"
    },
    "tags": [],
    "weight": 3,
    "price": 8,
    "hp": {
      "max": 5,
      "value": 5
    },
    "hardness": 10,
    "identifiedName": "Nine-Section Whip",
    "changes": [],
    "contextNotes": [],
    "links": {
      "children": []
    },
    "tag": "ninesectionWhip",
    "flags": {
      "boolean": [],
      "dictionary": []
    },
    "scriptCalls": [],
    "weaponType": "exotic",
    "weaponSubtype": "1h",
    "weaponData": {
      "damageRoll": "1d8",
      "damageType": "B",
      "critRange": 19,
      "range": 0
    }
  },
  "effects": [],
  "folder": null,
  "sort": 0,
  "permission": {
    "default": 0
  },
  "flags": {}
}