{
  "_id": "OSMucqGus8xjMxUT",
  "name": "Pronged Bolt",
  "type": "loot",
  "img": "systems/pf1/icons/items/weapons/bolt.PNG",
  "data": {
    "description": {
      "value": "<p><strong>Source</strong>&nbsp;<em>Ranged Tactics Toolbox pg. 19</em></p>\n<h3 class=\"framing\"><img style=\"margin: 3px 3px 0px 3px;\" title=\"PFS Legal\" src=\"https://www.aonprd.com/images/PathfinderSocietySymbol.gif\" />Statistics</h3>\n<p><strong>Cost</strong>&nbsp;2 gp&nbsp;<strong>Weight</strong>&nbsp;3 lbs.</p>\n<p><strong>Category</strong>&nbsp;Ammunition;&nbsp;<strong>Proficiency</strong>&nbsp;Ammunition</p>\n<h3 class=\"framing\">Description</h3>\n<p>Rather than narrowing to a single point, a pronged arrow has a wide face with two points resembling a crescent or V-shape.</p>\n<p>Originally used for hunting game, a pronged arrow deals damage as if&nbsp;<strong>one size category smaller</strong>, but you gain a&nbsp;<strong>+1 bonus on attack rolls</strong>&nbsp;against creatures or objects one or more size categories smaller than you.</p>"
    },
    "tags": [],
    "weight": 0.15,
    "price": 0.1,
    "hp": {
      "max": 1,
      "value": 1
    },
    "hardness": 5,
    "unidentified": {
      "price": 0.1
    },
    "identifiedName": "Pronged Bolt",
    "changes": [],
    "contextNotes": [],
    "links": {
      "children": []
    },
    "flags": {
      "boolean": [],
      "dictionary": []
    },
    "scriptCalls": [],
    "subType": "ammo",
    "equipped": false
  },
  "effects": [],
  "folder": null,
  "sort": 0,
  "permission": {
    "default": 0
  },
  "flags": {}
}