{
  "_id": "N37FFAdWjVV6EolR",
  "name": "Shortspear",
  "type": "weapon",
  "img": "systems/pf1/icons/items/weapons/shortspear.PNG",
  "data": {
    "description": {
      "value": "<p><strong>Source</strong> <em>Ultimate Equipment pg. 17</em>, <em>PRPG Core Rulebook pg. 142</em></p><h3 class=\"framing\"><img src=\"https://www.aonprd.com/images/PathfinderSocietySymbol.gif\" title=\"PFS Legal\" style=\"margin:3px 3px 0px 3px;\">Statistics</h3><p><strong>Cost</strong> 1 gp <strong>Weight</strong> 3 lbs.</p><p><strong>Damage</strong> 1d4 (small), 1d6 (medium); <strong>Critical</strong> x2; <strong>Range</strong> 20 ft.; <strong>Type</strong> P; <strong>Special</strong> -</p><p><strong>Category</strong> One-Handed; <strong>Proficiency</strong> Simple</p><p><strong>Weapon Groups</strong> Spears; Thrown; Tribal</p><h3 class=\"framing\">Description</h3><p>A shortspear is about 3 feet in length, making it a suitable thrown weapon.</p>"
    },
    "tags": [],
    "weight": 3,
    "price": 1,
    "hp": {
      "max": 5,
      "value": 5
    },
    "hardness": 10,
    "identifiedName": "Shortspear",
    "changes": [],
    "contextNotes": [],
    "links": {
      "children": []
    },
    "tag": "shortspear",
    "flags": {
      "boolean": [],
      "dictionary": []
    },
    "scriptCalls": [],
    "weaponSubtype": "1h",
    "weaponData": {
      "damageRoll": "1d6",
      "damageType": "P",
      "range": 20
    }
  },
  "effects": [],
  "folder": null,
  "sort": 0,
  "permission": {
    "default": 0
  },
  "flags": {}
}