{
  "_id": "V2eFtz6QWSP5bipu",
  "name": "Shrillshaft Javelin",
  "type": "weapon",
  "img": "systems/pf1/icons/items/weapons/javelin.PNG",
  "data": {
    "description": {
      "value": "<p><strong>Source</strong> <em>Gnomes of Golarion pg. 22</em></p><h3 class=\"framing\"><img src=\"https://www.aonprd.com/images/PathfinderSocietySymbol.gif\" title=\"PFS Legal\" style=\"margin:3px 3px 0px 3px;\">Statistics</h3><p><strong>Cost</strong> 35 gp <strong>Weight</strong> 3 lbs.</p><p><strong>Damage</strong> 1d4 (small), 1d6 (medium); <strong>Critical</strong> x2; <strong>Range</strong> 30 ft.; <strong>Type</strong> P; <strong>Special</strong> see text</p><p><strong>Category</strong> Ranged; <strong>Proficiency</strong> Exotic</p><h3 class=\"framing\">Description</h3><p>This single-use javelin bears a thunderstone in its haft, just behind the weapon's head. If you hit with one of these javelins, the target takes javelin damage as normal and is the center of the thunderstone's effect. If you miss, roll to see where the javelin lands (as if determining a miss with a splash weapon); that square becomes the center of the thunderstone's effect.</p>"
    },
    "tags": [],
    "weight": 3,
    "price": 35,
    "hp": {
      "max": 5,
      "value": 5
    },
    "hardness": 5,
    "identifiedName": "Shrillshaft Javelin",
    "changes": [],
    "contextNotes": [],
    "links": {
      "children": []
    },
    "tag": "shrillshaftJavelin",
    "flags": {
      "boolean": [],
      "dictionary": []
    },
    "scriptCalls": [],
    "weaponType": "exotic",
    "weaponSubtype": "ranged",
    "weaponData": {
      "damageRoll": "1d6",
      "damageType": "P",
      "range": 30
    }
  },
  "effects": [],
  "folder": null,
  "sort": 0,
  "permission": {
    "default": 0
  },
  "flags": {}
}