{
  "_id": "UWVXKSouid1jDJSm",
  "name": "Sling Bullets (10)",
  "type": "loot",
  "img": "icons/weapons/ammunition/shot-round-blue.webp",
  "data": {
    "description": {
      "value": "<p><strong>Source</strong> <em>Ultimate Equipment pg. 22</em>, <em>PRPG Core Rulebook pg. 142</em></p><h3 class=\"framing\"><img src=\"https://www.aonprd.com/images/PathfinderSocietySymbol.gif\" title=\"PFS Legal\" style=\"margin:3px 3px 0px 3px;\">Statistics</h3><p><strong>Cost</strong> 1 sp <strong>Weight</strong> 5 lbs.</p><p><strong>Category</strong> Ammunition; <strong>Proficiency</strong> Ammunition</p><h3 class=\"framing\">Description</h3><p>Sling bullets are shaped metal balls, designed to be used by a sling or halfling sling staff. Bullets come in a leather pouch that holds 10 bullets.</p>"
    },
    "tags": [],
    "quantity": 10,
    "weight": 50,
    "price": 0.1,
    "hp": {
      "max": 1,
      "value": 1
    },
    "hardness": 5,
    "identifiedName": "Sling Bullet",
    "changes": [],
    "contextNotes": [],
    "links": {
      "children": []
    },
    "tag": "slingBullets10",
    "flags": {
      "boolean": [],
      "dictionary": []
    },
    "scriptCalls": [],
    "subType": "ammo",
    "equipped": false
  },
  "effects": [],
  "folder": null,
  "sort": 0,
  "permission": {
    "default": 0
  },
  "flags": {}
}