{
  "_id": "EVWH7YBTHWhorKm5",
  "name": "Smoke Shot (Siege)",
  "type": "loot",
  "img": "systems/pf1/icons/items/potions/magic-yellow.jpg",
  "data": {
    "description": {
      "value": "<p><strong>Source</strong> <em>Ultimate Combat pg. 164</em></p>\n<h3 class=\"framing\">Statistics</h3>\n<p><strong>Cost</strong> 250 gp <strong>Weight</strong> 20 lbs.</p>\n<p><strong>Category</strong> Ammunition; <strong>Proficiency</strong> Siege Engine</p>\n<h3 class=\"framing\">Description</h3>\n<p>This hard ceramic sphere contains two alchemical substances separated by a thin barrier, much like a smoke pellet in larger form, usable by cannons and fiend's mouth cannons.</p>\n<p>When it hits the targeting space, it deals <strong>2d6 points of damage</strong> to any creature in that space, and the substances mingle and then create an area of foul but harmless yellow smoke radiating 30 feet from the target square.</p>\n<p>Treat the effect as a @Compendium[pf1.spells.g33euis7yi9pwddy]{Fog Cloud} spell.</p>\n<h3>Mishap</h3>\n<p>On a siege engine mishap, the ammunition explodes before it is launched. Its effect is centered on one of the spaces of the siege engine (crew leader's choice).</p>"
    },
    "tags": [],
    "weight": 200,
    "price": 250,
    "hp": {
      "max": 1,
      "value": 1
    },
    "hardness": 5,
    "identifiedName": "Smoke Shot (Siege)",
    "changes": [],
    "contextNotes": [],
    "links": {
      "children": []
    },
    "tag": "smokeShotSiege",
    "flags": {
      "boolean": [],
      "dictionary": []
    },
    "scriptCalls": []
  },
  "effects": [],
  "folder": null,
  "sort": 0,
  "permission": {
    "default": 0
  },
  "flags": {}
}