{
  "_id": "mDJlmENIJf6IpZFc",
  "name": "Spider-Leg Sickle",
  "type": "weapon",
  "img": "systems/pf1/icons/items/weapons/sickle.png",
  "data": {
    "description": {
      "value": "<p><strong>Source</strong> <em>The House on Hook Street pg. 13</em></p><h3 class=\"framing\">Statistics</h3><p><strong>Cost</strong> 15 gp <strong>Weight</strong> 2 lbs.</p><p><strong>Damage</strong> 1d4 (small), 1d6 (medium); <strong>Critical</strong> x2; <strong>Range</strong> -; <strong>Type</strong> P; <strong>Special</strong> trip</p><p><strong>Category</strong> Light; <strong>Proficiency</strong> Simple</p><h3 class=\"framing\">Description</h3><p>This wickedly curved sickle is cast in the form of a segmented spider's leg. It has the same statistics as a normal sickle and can trip opponents, but deals piercing damage rather than slashing damage. The leatherwrapped handle contains a hollow recess that can hold a single dose of poison. Filling the reservoir is a full-round action that carries the usual risks of poisoning yourself. Once filled, the reservoir keeps the blade saturated and viable for up to 2 hours. The first successful attack made with the spider-leg sickle during this time administers and expends the dose of poison. Mog-Lathar's deacons carry masterwork versions of these weapons. The cult uses blue whinnis poison, and within the radius of the <em>dreamstone</em>'s effects the unconsciousness effect may trigger lucid dreaming.</p>"
    },
    "tags": [],
    "weight": 2,
    "price": 15,
    "hp": {
      "max": 2,
      "value": 2
    },
    "hardness": 10,
    "identifiedName": "Spider-Leg Sickle",
    "changes": [],
    "contextNotes": [],
    "links": {
      "children": []
    },
    "tag": "spiderlegSickle",
    "flags": {
      "boolean": [],
      "dictionary": []
    },
    "scriptCalls": [],
    "weaponData": {
      "damageRoll": "1d6",
      "damageType": "P",
      "range": 0
    }
  },
  "effects": [],
  "folder": null,
  "sort": 0,
  "permission": {
    "default": 0
  },
  "flags": {}
}