{
  "_id": "u6Hv3AYMgkAtR7Jm",
  "name": "Spiked Chain",
  "type": "weapon",
  "img": "systems/pf1/icons/items/weapons/spiked-chain.png",
  "data": {
    "description": {
      "value": "<p><strong>Source</strong> <em>Ultimate Equipment pg. 21</em>, <em>PRPG Core Rulebook pg. 143</em></p><h3 class=\"framing\"><img src=\"https://www.aonprd.com/images/PathfinderSocietySymbol.gif\" title=\"PFS Legal\" style=\"margin:3px 3px 0px 3px;\">Statistics</h3><p><strong>Cost</strong> 25 gp <strong>Weight</strong> 10 lbs.</p><p><strong>Damage</strong> 1d6 (small), 2d4 (medium); <strong>Critical</strong> x2; <strong>Range</strong> -; <strong>Type</strong> P; <strong>Special</strong> disarm, trip</p><p><strong>Category</strong> Two-Handed; <strong>Proficiency</strong> Exotic</p><p><strong>Weapon Groups</strong> Flails</p><h3 class=\"framing\">Description</h3><p>A spiked chain is about 4 feet in length and covered in wicked barbs. Some have metal hoops to use as handgrips. You can use the Weapon Finesse feat to apply your Dexterity modifier instead of your Strength modifier to attack rolls with a spiked chain sized for you, even though it isn't a light weapon.</p>"
    },
    "tags": [],
    "weight": 10,
    "price": 25,
    "hardness": 10,
    "identifiedName": "Spiked Chain",
    "changes": [],
    "contextNotes": [],
    "links": {
      "children": []
    },
    "tag": "spikedChain",
    "flags": {
      "boolean": [],
      "dictionary": []
    },
    "scriptCalls": [],
    "weaponType": "exotic",
    "weaponSubtype": "2h",
    "weaponData": {
      "damageRoll": "2d4",
      "damageType": "P",
      "range": 0
    }
  },
  "effects": [],
  "folder": null,
  "sort": 0,
  "permission": {
    "default": 0
  },
  "flags": {}
}