{
  "_id": "fygngW2uhIVwedwz",
  "name": "Taiaha",
  "type": "weapon",
  "img": "icons/weapons/clubs/club-banded-steel.webp",
  "data": {
    "description": {
      "value": "<p><strong>Source</strong> <em>Ultimate Equipment pg. 20</em></p>\n<h3 class=\"framing\"><img style=\"margin: 3px 3px 0px 3px;\" title=\"PFS Legal\" src=\"https://www.aonprd.com/images/PathfinderSocietySymbol.gif\" />Statistics</h3>\n<p><strong>Cost</strong> 10 gp <strong>Weight</strong> 8 lbs.</p>\n<p><strong>Damage</strong> 1d8/1d4 (small), 1d10/1d6 (medium); <strong>Critical</strong> x2/x3; <strong>Range</strong> -; <strong>Type</strong> B or P; <strong>Special</strong> double</p>\n<p><strong>Category</strong> One-Handed; <strong>Proficiency</strong> Exotic</p>\n<p><strong>Weapon Groups</strong> Double; Hammers</p>\n<h3 class=\"framing\">Description</h3>\n<p>The Stone Age taiaha is a long, heavy stick, club-shaped at one end and tipped with a wooden or metal spear point at the other. You wield it with a combination of solid strikes with the club and fending motions with the spear. A taiaha can be wielded as a martial weapon that deals 1d8 points of bludgeoning damage (1d6 if Small) and has a x2 critical.</p>"
    },
    "tags": [],
    "weight": 8,
    "price": 10,
    "hp": {
      "max": 5,
      "value": 5
    },
    "hardness": 10,
    "identifiedName": "Taiaha",
    "changes": [],
    "contextNotes": [],
    "links": {
      "children": []
    },
    "tag": "taiaha",
    "flags": {
      "boolean": [],
      "dictionary": []
    },
    "scriptCalls": [],
    "weaponType": "exotic",
    "weaponSubtype": "1h",
    "weaponData": {
      "damageRoll": "1d10",
      "damageType": "B or P",
      "range": 0
    }
  },
  "effects": [],
  "folder": null,
  "sort": 0,
  "permission": {
    "default": 0
  },
  "flags": {}
}