{
  "_id": "xAxgFvkpvTgGRHZY",
  "name": "Thorn Arrows (20)",
  "type": "loot",
  "img": "icons/weapons/ammunition/arrows-broadhead-white.webp",
  "data": {
    "description": {
      "value": "<p><strong>Source</strong> <em>Conquest of Bloodsworn Vale pg. 31</em></p><h3 class=\"framing\"><img src=\"https://www.aonprd.com/images/ThreeFiveSymbol.gif\" title=\"3.5 Material\" style=\"margin: 3px 3px 0px 3px\">Statistics</h3><p><strong>Cost</strong> 1 gp <strong>Weight</strong> 2 lbs.</p><p><strong>Category</strong> Ammunition; <strong>Proficiency</strong> Ammunition</p><h3 class=\"framing\">Description</h3><p>These small arrows are tipped with a wicked rose thorn and fletched with lacquered rose petals.</p>"
    },
    "tags": [],
    "quantity": 20,
    "weight": 20,
    "price": 1,
    "hp": {
      "max": 1,
      "value": 1
    },
    "hardness": 5,
    "identifiedName": "Thorn Arrows (20)",
    "changes": [],
    "contextNotes": [],
    "links": {
      "children": []
    },
    "tag": "thorns20",
    "flags": {
      "boolean": [],
      "dictionary": []
    },
    "scriptCalls": [],
    "subType": "ammo",
    "equipped": false
  },
  "effects": [],
  "folder": null,
  "sort": 0,
  "permission": {
    "default": 0
  },
  "flags": {}
}