{
  "_id": "i1746993ztqNRZwk",
  "name": "Tiger Fork",
  "type": "weapon",
  "img": "icons/weapons/polearms/trident-silver-red.webp",
  "data": {
    "description": {
      "value": "<p><strong>Source</strong> <em>Ultimate Equipment pg. 19</em>, <em>Ultimate Combat pg. 134</em></p><h3 class=\"framing\"><img src=\"https://www.aonprd.com/images/PathfinderSocietySymbol.gif\" title=\"PFS Legal\" style=\"margin:3px 3px 0px 3px;\">Statistics</h3><p><strong>Cost</strong> 5 gp <strong>Weight</strong> 8 lbs.</p><p><strong>Damage</strong> 1d6 (small), 1d8 (medium); <strong>Critical</strong> x2; <strong>Range</strong> -; <strong>Type</strong> P; <strong>Special</strong> brace, monk</p><p><strong>Category</strong> Two-Handed; <strong>Proficiency</strong> Martial</p><p><strong>Weapon Groups</strong> Monk; Polearms; Spears</p><h3 class=\"framing\">Description</h3><p>This long, tridentlike weapon consists of a three-pronged metal fork set upon an 8-foot-long shaft. It is wielded much like a staff, with the wielder grasping the shaft from the center and jabbing with its forked end. A tiger fork can be set to receive a charge.</p>"
    },
    "tags": [],
    "weight": 8,
    "price": 5,
    "hardness": 10,
    "identifiedName": "Tiger Fork",
    "changes": [],
    "contextNotes": [],
    "links": {
      "children": []
    },
    "tag": "tigerFork",
    "flags": {
      "boolean": [],
      "dictionary": []
    },
    "scriptCalls": [],
    "weaponType": "martial",
    "weaponSubtype": "2h",
    "weaponData": {
      "damageRoll": "1d8",
      "damageType": "P",
      "range": 0
    }
  },
  "effects": [],
  "folder": null,
  "sort": 0,
  "permission": {
    "default": 0
  },
  "flags": {}
}