{
  "_id": "li01iaRoxd4PAmhD",
  "name": "Waveblade",
  "type": "weapon",
  "img": "systems/pf1/icons/items/weapons/waveblade.png",
  "data": {
    "description": {
      "value": "<p><strong>Source</strong> <em>Adventurer's Armory 2 pg. 9</em></p><h3 class=\"framing\">Statistics</h3><p><strong>Cost</strong> 5 gp <strong>Weight</strong> 2 lbs.</p><p><strong>Damage</strong> 1d4 (small), 1d6 (medium); <strong>Critical</strong> 18-20/x2; <strong>Range</strong> -; <strong>Type</strong> P or S; <strong>Special</strong> monk, see text</p><p><strong>Category</strong> Light; <strong>Proficiency</strong> Exotic</p><p><strong>Weapon Groups</strong> Close</p><h3 class=\"framing\">Description</h3><p>Also known as a \"scorpion's tail\" due to its unique, stinger-like shape, this short, double-curved blade has no hilt but features a knuckle guard. You gain a +2 bonus to your CMD against disarm attempts made to disarm you of a waveblade.</p>"
    },
    "tags": [],
    "weight": 2,
    "price": 5,
    "hp": {
      "max": 2,
      "value": 2
    },
    "hardness": 10,
    "identifiedName": "Waveblade",
    "changes": [],
    "contextNotes": [],
    "links": {
      "children": []
    },
    "tag": "waveblade",
    "flags": {
      "boolean": [],
      "dictionary": []
    },
    "scriptCalls": [],
    "weaponType": "exotic",
    "weaponData": {
      "damageRoll": "1d6",
      "damageType": "P or S",
      "critRange": 18,
      "range": 0
    }
  },
  "effects": [],
  "folder": null,
  "sort": 0,
  "permission": {
    "default": 0
  },
  "flags": {}
}