{
  "_id": "OPTlPwKg2NyQAjhe",
  "name": "Whip",
  "type": "weapon",
  "img": "systems/pf1/icons/items/weapons/whip.png",
  "data": {
    "description": {
      "value": "<p><strong>Source</strong> <em>Ultimate Equipment pg. 20</em>, <em>PRPG Core Rulebook pg. 143</em></p><h3 class=\"framing\"><img src=\"https://www.aonprd.com/images/PathfinderSocietySymbol.gif\" title=\"PFS Legal\" style=\"margin:3px 3px 0px 3px;\">Statistics</h3><p><strong>Cost</strong> 1 gp <strong>Weight</strong> 2 lbs.</p><p><strong>Damage</strong> 1d2 (small), 1d3 (medium); <strong>Critical</strong> x2; <strong>Range</strong> -; <strong>Type</strong> S; <strong>Special</strong> disarm, nonlethal, reach, trip</p><p><strong>Category</strong> One-Handed; <strong>Proficiency</strong> Exotic</p><p><strong>Weapon Groups</strong> Flails</p><h3 class=\"framing\">Description</h3><p>A whip deals no damage to any creature with an armor bonus of +1 or higher or a natural armor bonus of +3 or higher. The whip is treated as a melee weapon with a 15-foot reach, though you don't threaten the area into which you can make an attack. In addition, unlike most other weapons with reach, you can use it against foes anywhere within your reach (including adjacent foes).</p><p></p><p> Using a whip provokes an attack of opportunity, just as if you had used a ranged weapon.</p><p></p><p> You can use the Weapon Finesse feat to apply your Dexterity modifier instead of your Strength modifier to attack rolls with a whip sized for you, even though it isn't a light weapon. You can't wield a whip in two hands in order to apply 1-1/2 times your Strength modifier to damage rolls.</p>"
    },
    "tags": [],
    "weight": 2,
    "price": 1,
    "hp": {
      "max": 5,
      "value": 5
    },
    "hardness": 10,
    "identifiedName": "Whip",
    "changes": [],
    "contextNotes": [],
    "links": {
      "children": []
    },
    "tag": "whip",
    "flags": {
      "boolean": [],
      "dictionary": []
    },
    "scriptCalls": [],
    "weaponType": "exotic",
    "weaponSubtype": "1h",
    "weaponData": {
      "damageRoll": "1d3",
      "damageType": "S",
      "critRange": "",
      "critMult": "2",
      "range": 0
    }
  },
  "effects": [],
  "folder": null,
  "sort": 0,
  "permission": {
    "default": 0
  },
  "flags": {}
}