{
  "_id": "TdZEzSBeiQ9BkYNO",
  "name": "Agonizing Wound",
  "type": "feat",
  "img": "systems/pf1/icons/spells/slice-spirit-3.jpg",
  "data": {
    "description": {
      "value": "<p>At 13th level, whenever you cast a spell that deals damage to a creature, you can also make that creature frightened or sickened (your choice) for a number of rounds equal to your Charisma modifier. If you expend two uses of this ability, you can instead have the creature become dazed, nauseated, or panicked for 1 round. The creature can attempt a Will saving throw to negate this effect.</p>\n<p>You can use this ability a number of times per day equal to 3 + your Charisma modifier.</p>\n<p>This is a mind-affecting pain effect.</p>"
    },
    "tags": [],
    "activation": {
      "type": "free"
    },
    "unchainedAction": {
      "activation": {
        "type": "free"
      }
    },
    "duration": {
      "value": "1",
      "units": "round"
    },
    "uses": {
      "per": "day"
    },
    "actionType": "save",
    "damage": {
      "parts": [],
      "critParts": [],
      "nonCritParts": []
    },
    "attackParts": [],
    "ability": {
      "damage": ""
    },
    "save": {
      "dc": "0",
      "type": "will",
      "description": "Will negates"
    },
    "effectNotes": [],
    "attackNotes": [],
    "changes": [],
    "contextNotes": [],
    "links": {
      "children": [],
      "charges": []
    },
    "armorProf": {
      "value": []
    },
    "weaponProf": {
      "value": []
    },
    "flags": {
      "boolean": [],
      "dictionary": []
    },
    "scriptCalls": [],
    "featType": "classFeat",
    "associations": {
      "classes": [
        [
          "Psychic"
        ]
      ]
    },
    "abilityType": "su"
  },
  "effects": [],
  "folder": null,
  "sort": 0,
  "permission": {
    "default": 0
  },
  "flags": {}
}