{
  "_id": "kHXw5V06TkymXxF3",
  "name": "Aura of Protection",
  "type": "feat",
  "img": "systems/pf1/icons/skills/ice_13.jpg",
  "data": {
    "description": {
      "value": "<p>At 8th level, you can emit a 30-foot aura of protection for a number of rounds per day equal to your cleric level. You and your allies within this aura gain a +1 deflection bonus to AC and resistance 5 against all elements (acid, cold, electricity, fire, and sonic). The deflection bonus increases by +1 for every four cleric levels you possess beyond 8th. At 14th level, the resistance against all elements increases to 10. These rounds do not need to be consecutive.</p>"
    },
    "tags": [],
    "activation": {
      "type": "swift"
    },
    "unchainedAction": {
      "activation": {
        "type": "action"
      }
    },
    "duration": {
      "value": "1",
      "units": "round"
    },
    "target": {
      "value": "allies within range"
    },
    "range": {
      "value": "30",
      "units": "ft"
    },
    "uses": {
      "per": "day"
    },
    "measureTemplate": {
      "size": "0"
    },
    "actionType": "",
    "damage": {
      "parts": [],
      "critParts": [],
      "nonCritParts": []
    },
    "attackParts": [],
    "effectNotes": [],
    "attackNotes": [],
    "changes": [],
    "contextNotes": [],
    "links": {
      "children": [],
      "charges": []
    },
    "armorProf": {
      "value": []
    },
    "weaponProf": {
      "value": []
    },
    "flags": {
      "boolean": [],
      "dictionary": []
    },
    "scriptCalls": [],
    "featType": "classFeat",
    "associations": {
      "classes": [
        [
          "Cleric"
        ]
      ]
    },
    "abilityType": "su"
  },
  "effects": [],
  "folder": null,
  "sort": 0,
  "permission": {
    "default": 0
  },
  "flags": {}
}