{
  "_id": "MTA1nKq4f8tYdNb4",
  "name": "Awaken Discontent",
  "type": "feat",
  "img": "systems/pf1/icons/items/inventory/badge-cross.jpg",
  "data": {
    "description": {
      "value": "<p>At 8th level, you can deliver a stirring speech condemning the mistakes of those in power and calling for reform, causing the target of your rhetoric to be affected by @Compendium[pf1.spells.tjog6bufg5b08lvq]{Charm Person}&nbsp;with a caster level equal to your inquisitor level and a save DC of 10 + 1/2 your inquisitor level + your Wisdom modifier. You may use this ability a number of times per day equal to your Wisdom modifier.</p>"
    },
    "tags": [],
    "activation": {
      "type": "standard"
    },
    "unchainedAction": {
      "activation": {
        "cost": 2,
        "type": "action"
      }
    },
    "uses": {
      "per": "day"
    },
    "actionType": "",
    "damage": {
      "parts": [],
      "critParts": [],
      "nonCritParts": []
    },
    "attackParts": [],
    "effectNotes": [],
    "attackNotes": [],
    "changes": [],
    "contextNotes": [],
    "links": {
      "children": [],
      "charges": []
    },
    "armorProf": {
      "value": []
    },
    "weaponProf": {
      "value": []
    },
    "flags": {
      "boolean": [],
      "dictionary": []
    },
    "scriptCalls": [],
    "featType": "classFeat",
    "associations": {
      "classes": [
        [
          "Inquisitor"
        ]
      ]
    },
    "abilityType": "su"
  },
  "effects": [],
  "folder": null,
  "sort": 0,
  "permission": {
    "default": 0
  },
  "flags": {}
}