{
  "_id": "A99UIwWIeHLx4O9m",
  "name": "Body of Ice",
  "type": "feat",
  "img": "systems/pf1/icons/skills/ice_09.jpg",
  "data": {
    "description": {
      "value": "<p>At 8th level, you can transmute your body and equipment to ice for a period of time. It takes a standard action to take on the form of ice, and you can end the transmutation with a free action on your turn. When you take on the form of ice, you are immune to cold and have DR 5/—, but you take twice the normal amount of damage from fire. You can take on the form of ice for a number of rounds per day equal to your cleric level. The rounds need not be consecutive.</p>\n<p>This power replaces the Cold Resistance power of the Water Domain.</p>"
    },
    "tags": [],
    "activation": {
      "type": "standard"
    },
    "unchainedAction": {
      "activation": {
        "cost": 2,
        "type": "action"
      }
    },
    "duration": {
      "value": "1",
      "units": "round"
    },
    "target": {
      "value": "self"
    },
    "range": {
      "units": "personal"
    },
    "uses": {
      "per": "day"
    },
    "measureTemplate": {
      "size": "0"
    },
    "actionType": "",
    "damage": {
      "parts": [],
      "critParts": [],
      "nonCritParts": []
    },
    "attackParts": [],
    "effectNotes": [],
    "attackNotes": [],
    "changes": [],
    "contextNotes": [],
    "links": {
      "children": [],
      "charges": []
    },
    "armorProf": {
      "value": []
    },
    "weaponProf": {
      "value": []
    },
    "flags": {
      "boolean": [],
      "dictionary": []
    },
    "scriptCalls": [],
    "featType": "classFeat",
    "associations": {
      "classes": [
        [
          "Cleric"
        ]
      ]
    },
    "abilityType": "su"
  },
  "effects": [],
  "folder": null,
  "sort": 0,
  "permission": {
    "default": 0
  },
  "flags": {}
}