{
  "_id": "4diLPqggIUsWxR0N",
  "name": "Calming Touch",
  "type": "feat",
  "img": "systems/pf1/icons/skills/light_10.jpg",
  "data": {
    "description": {
      "value": "<p>You can touch a creature as a standard action to heal it of 1d6 points of nonlethal damage + 1 point per cleric level. This touch also removes the fatigued, shaken, and sickened conditions (but has no effect on more severe conditions). You can use this ability a number of times per day equal to 3 + your Wisdom modifier.</p>"
    },
    "tags": [],
    "activation": {
      "type": "standard"
    },
    "unchainedAction": {
      "activation": {
        "cost": 2,
        "type": "action"
      }
    },
    "duration": {
      "units": "inst"
    },
    "target": {
      "value": "creature touched"
    },
    "range": {
      "units": "touch"
    },
    "uses": {
      "per": "day"
    },
    "measureTemplate": {
      "size": "0"
    },
    "actionType": "",
    "damage": {
      "parts": [],
      "critParts": [],
      "nonCritParts": []
    },
    "attackParts": [],
    "effectNotes": [],
    "attackNotes": [],
    "changes": [],
    "contextNotes": [],
    "links": {
      "children": [],
      "charges": []
    },
    "armorProf": {
      "value": []
    },
    "weaponProf": {
      "value": []
    },
    "flags": {
      "boolean": [],
      "dictionary": []
    },
    "scriptCalls": [],
    "featType": "classFeat",
    "associations": {
      "classes": [
        [
          "Cleric"
        ]
      ]
    },
    "abilityType": "sp"
  },
  "effects": [],
  "folder": null,
  "sort": 0,
  "permission": {
    "default": 0
  },
  "flags": {}
}