{
  "_id": "hybEecH3aiZDkjNt",
  "name": "Cleansing Flames",
  "type": "feat",
  "img": "systems/pf1/icons/spells/light-royal-1.jpg",
  "data": {
    "description": {
      "value": "<p>As a swift action, you can take 1d4 points of damage per oracle level to gain a new saving throw against a single ongoing effect. The effect must be one for which you already failed a saving throw. If you succeed, the effect is removed.</p>\n<p>At 7th and 15th levels, you can use this ability one additional time per day.</p>"
    },
    "tags": [],
    "activation": {
      "type": "swift"
    },
    "unchainedAction": {
      "activation": {
        "type": "action"
      }
    },
    "duration": {
      "units": "inst"
    },
    "target": {
      "value": "self"
    },
    "range": {
      "units": "personal"
    },
    "uses": {
      "per": "day"
    },
    "actionType": "",
    "damage": {
      "parts": [],
      "critParts": [],
      "nonCritParts": []
    },
    "attackParts": [],
    "effectNotes": [],
    "attackNotes": [],
    "changes": [],
    "contextNotes": [],
    "links": {
      "children": [],
      "charges": []
    },
    "armorProf": {
      "value": []
    },
    "weaponProf": {
      "value": []
    },
    "flags": {
      "boolean": [],
      "dictionary": []
    },
    "scriptCalls": [],
    "featType": "classFeat",
    "associations": {
      "classes": [
        [
          "Oracle"
        ]
      ]
    },
    "abilityType": "su"
  },
  "effects": [],
  "folder": null,
  "sort": 0,
  "permission": {
    "default": 0
  },
  "flags": {}
}