{
  "_id": "6wCdUOugsM5e7Nt6",
  "name": "Divine Anger",
  "type": "feat",
  "img": "systems/pf1/icons/items/inventory/badge-cross.jpg",
  "data": {
    "description": {
      "value": "<p>At 6th level, you gain the ability to rage like a barbarian. Your effective barbarian level for this ability is your inquisitor level – 3. If you have levels in barbarian, these levels stack when determining the effect of your rage. You do not gain any rage powers from this granted power, though if you have rage powers from another class, you may use them with these rages. You can rage a number of rounds per day equal to your Wisdom bonus, plus 1 round for every inquisitor level above 4th.</p>"
    },
    "tags": [],
    "activation": {
      "type": "free"
    },
    "unchainedAction": {
      "activation": {
        "type": "free"
      }
    },
    "duration": {
      "value": "1",
      "units": "round"
    },
    "target": {
      "value": "self"
    },
    "range": {
      "units": "personal"
    },
    "uses": {
      "per": "day"
    },
    "actionType": "",
    "damage": {
      "parts": [],
      "critParts": [],
      "nonCritParts": []
    },
    "attackParts": [],
    "effectNotes": [],
    "attackNotes": [],
    "changes": [],
    "contextNotes": [],
    "links": {
      "children": [],
      "charges": []
    },
    "armorProf": {
      "value": []
    },
    "weaponProf": {
      "value": []
    },
    "flags": {
      "boolean": [],
      "dictionary": []
    },
    "scriptCalls": [],
    "featType": "classFeat",
    "associations": {
      "classes": [
        [
          "Inquisitor"
        ]
      ]
    },
    "abilityType": "ex"
  },
  "effects": [],
  "folder": null,
  "sort": 0,
  "permission": {
    "default": 0
  },
  "flags": {}
}