{
  "_id": "wbq3RiBXtWCKZLr6",
  "name": "Fiery Soul",
  "type": "feat",
  "img": "systems/pf1/icons/skills/violet_20.jpg",
  "data": {
    "description": {
      "value": "<p>The shaman gains fire resistance 10. In addition, as a standard action she can unleash a 15-foot cone of flame from her mouth, dealing 1d4 points of fire damage per shaman level she possesses. A successful Reflex saving throw halves this damage.</p>\n<p>The shaman can use this ability three times per day, but she must wait 1d4 rounds between each use.</p>"
    },
    "tags": [],
    "activation": {
      "type": "standard"
    },
    "unchainedAction": {
      "activation": {
        "cost": 2,
        "type": "action"
      }
    },
    "duration": {
      "units": "inst"
    },
    "target": {
      "value": "All in cone"
    },
    "range": {
      "value": "15",
      "units": "ft"
    },
    "uses": {
      "per": "day"
    },
    "actionType": "save",
    "damage": {
      "parts": [
        [
          "(@classes.shaman.level)d4",
          "Fire"
        ]
      ],
      "critParts": [],
      "nonCritParts": []
    },
    "attackParts": [],
    "ability": {
      "damage": ""
    },
    "save": {
      "dc": "0",
      "type": "ref",
      "description": "Reflex half"
    },
    "effectNotes": [],
    "attackNotes": [],
    "changes": [],
    "contextNotes": [],
    "links": {
      "children": [],
      "charges": []
    },
    "armorProf": {
      "value": []
    },
    "weaponProf": {
      "value": []
    },
    "flags": {
      "boolean": [],
      "dictionary": []
    },
    "scriptCalls": [],
    "featType": "classFeat",
    "associations": {
      "classes": [
        [
          "Shaman"
        ]
      ]
    },
    "abilityType": "su"
  },
  "effects": [],
  "folder": null,
  "sort": 0,
  "permission": {
    "default": 0
  },
  "flags": {}
}