{
  "_id": "cumNKjhtkfxxT9EP",
  "name": "Form of the Beast",
  "type": "feat",
  "img": "systems/pf1/icons/spells/light-royal-1.jpg",
  "data": {
    "description": {
      "value": "<p>As a standard action, you can assume the form of a Small or Medium animal, as @Compendium[pf1.spells.tjdfluulncmqacc3]{Beast Shape I}.</p>\n<p>At 9th level, you can assume the form of a Tiny or Large animal, as @Compendium[pf1.spells.774kmgcb7ygviht0]{Beast Shape II}.</p>\n<p>At 11th level, you can assume the form of a Diminutive or Huge animal or a Small or Medium magical beast, as @Compendium[pf1.spells.w88ddxpu89qcr5c0]{Beast Shape III}.</p>\n<p>At 13th level, you can assume the form of a Tiny or Large magical beast, as @Compendium[pf1.spells.br37848gchetel0q]{Beast Shape IV}.</p>\n<p>You can use this ability once per day, but the duration is 1 hour/level.</p>\n<p>You must be at least 7th level to select this revelation.</p>"
    },
    "tags": [],
    "activation": {
      "type": "standard"
    },
    "unchainedAction": {
      "activation": {
        "cost": 2,
        "type": "action"
      }
    },
    "duration": {
      "value": "@classes.oracle.level",
      "units": "hour"
    },
    "target": {
      "value": "self"
    },
    "range": {
      "units": "personal"
    },
    "uses": {
      "per": "day"
    },
    "actionType": "",
    "damage": {
      "parts": [],
      "critParts": [],
      "nonCritParts": []
    },
    "attackParts": [],
    "effectNotes": [],
    "attackNotes": [],
    "changes": [],
    "contextNotes": [],
    "links": {
      "children": [],
      "charges": []
    },
    "armorProf": {
      "value": []
    },
    "weaponProf": {
      "value": []
    },
    "flags": {
      "boolean": [],
      "dictionary": []
    },
    "scriptCalls": [],
    "featType": "classFeat",
    "associations": {
      "classes": [
        [
          "Oracle"
        ]
      ]
    },
    "abilityType": "su"
  },
  "effects": [],
  "folder": null,
  "sort": 0,
  "permission": {
    "default": 0
  },
  "flags": {}
}