{
  "_id": "g3DptNZksB9HU80M",
  "name": "Fossil Form",
  "type": "feat",
  "img": "systems/pf1/icons/skills/yellow_29.jpg",
  "data": {
    "description": {
      "value": "<p>At the beginning of your turn as a swift action, you can infuse your flesh with minerals, granting you cumbersome security. Until the beginning of your next turn, you are staggered, gain hardness 2, and gain a +2 bonus on saving throws against petrification. This hardness increases by 2 and your saving throw bonus increases by 1 for every 4 cleric levels you have. You can use this ability a number of times per day equal to 3 + your Wisdom modifier.</p>\n<p>This power replaces the Acid Dart power of the Earth Domain.</p>"
    },
    "tags": [],
    "activation": {
      "type": "swift"
    },
    "unchainedAction": {
      "activation": {
        "type": "action"
      }
    },
    "duration": {
      "value": "1",
      "units": "round"
    },
    "target": {
      "value": "self"
    },
    "range": {
      "units": "personal"
    },
    "uses": {
      "per": "day"
    },
    "measureTemplate": {
      "size": "0"
    },
    "actionType": "",
    "damage": {
      "parts": [],
      "critParts": [],
      "nonCritParts": []
    },
    "attackParts": [],
    "effectNotes": [],
    "attackNotes": [],
    "changes": [],
    "contextNotes": [],
    "links": {
      "children": [],
      "charges": []
    },
    "armorProf": {
      "value": []
    },
    "weaponProf": {
      "value": []
    },
    "flags": {
      "boolean": [],
      "dictionary": []
    },
    "scriptCalls": [],
    "featType": "classFeat",
    "associations": {
      "classes": [
        [
          "Cleric"
        ]
      ]
    },
    "abilityType": "su"
  },
  "effects": [],
  "folder": null,
  "sort": 0,
  "permission": {
    "default": 0
  },
  "flags": {}
}