{
  "_id": "DedAsizvoKxZAlbH",
  "name": "Healing Fire",
  "type": "feat",
  "img": "systems/pf1/icons/spells/heal-royal-3.jpg",
  "data": {
    "description": {
      "value": "<p>At 15th level, you can&nbsp;<a href=\"https://www.d20pfsrd.com/classes/core-classes/cleric\">channel energy</a>&nbsp;twice per day as a cleric of half your level. Instead of using this ability to damage undead, you can convert the positive energy to flame and deal an equivalent amount of fire damage instead.</p>"
    },
    "tags": [],
    "activation": {
      "type": "standard"
    },
    "unchainedAction": {
      "activation": {
        "cost": 2,
        "type": "action"
      }
    },
    "duration": {
      "units": "inst"
    },
    "target": {
      "value": "30-ft. redius burst"
    },
    "range": {
      "units": "seeText"
    },
    "uses": {
      "per": "day"
    },
    "measureTemplate": {
      "size": "0"
    },
    "actionType": "heal",
    "damage": {
      "parts": [
        [
          "1d6 + (floor(@classes.sorcerer.level / 4))d6",
          ""
        ]
      ],
      "critParts": [],
      "nonCritParts": []
    },
    "attackParts": [],
    "ability": {
      "damage": ""
    },
    "save": {
      "dc": "0"
    },
    "effectNotes": [],
    "attackNotes": [],
    "changes": [],
    "contextNotes": [],
    "links": {
      "children": [],
      "charges": []
    },
    "armorProf": {
      "value": []
    },
    "weaponProf": {
      "value": []
    },
    "flags": {
      "boolean": [],
      "dictionary": []
    },
    "scriptCalls": [],
    "featType": "classFeat",
    "associations": {
      "classes": [
        [
          "Sorcerer"
        ]
      ]
    },
    "abilityType": "su"
  },
  "effects": [],
  "folder": null,
  "sort": 0,
  "permission": {
    "default": 0
  },
  "flags": {}
}