{
  "_id": "XjdctYm8hBkALI2K",
  "name": "Major Magic",
  "type": "feat",
  "img": "systems/pf1/icons/items/weapons/dagger.PNG",
  "data": {
    "description": {
      "value": "<p>A rogue with this talent gains the ability to cast a 1st-level spell from the sorcerer/wizard spell list two times a day as a spell-like ability. The caster level for this ability is equal to the rogue's level. The save DC for this spell is 11 + the rogue's Intelligence modifier. The rogue must have an Intelligence of at least 11 to select this talent. A rogue must have the minor magic rogue talent before choosing this talent.</p>"
    },
    "tags": [],
    "activation": {
      "type": "passive"
    },
    "unchainedAction": {
      "activation": {
        "type": "passive"
      }
    },
    "uses": {
      "per": "day"
    },
    "measureTemplate": {
      "size": "0"
    },
    "actionType": "",
    "damage": {
      "parts": [],
      "critParts": [],
      "nonCritParts": []
    },
    "attackParts": [],
    "effectNotes": [],
    "attackNotes": [],
    "changes": [],
    "contextNotes": [],
    "links": {
      "children": [],
      "charges": []
    },
    "armorProf": {
      "value": []
    },
    "weaponProf": {
      "value": []
    },
    "flags": {
      "boolean": [],
      "dictionary": []
    },
    "scriptCalls": [],
    "featType": "classFeat",
    "associations": {
      "classes": [
        [
          "Rogue"
        ]
      ]
    },
    "abilityType": "sp"
  },
  "effects": [],
  "folder": null,
  "sort": 0,
  "permission": {
    "default": 0
  },
  "flags": {}
}