{
  "_id": "MqNae3P60RSFGl6v",
  "name": "Mental Placidity",
  "type": "feat",
  "img": "systems/pf1/icons/spells/slice-spirit-3.jpg",
  "data": {
    "description": {
      "value": "<p>As an immediate action, you can gain a +2 bonus on a Will saving throw you are about to attempt. This bonus increases to +4 against an enchantment spell or effect. Any ally who attempts a saving throw against the same effect gains a +1 bonus on the Will save, or a +2 bonus if the effect is an enchantment. If you succeed at the saving throw, you regain 1 point in your phrenic pool.</p>\n<p>You can use this ability a number of times per day equal to your Wisdom modifier.</p>"
    },
    "tags": [],
    "activation": {
      "type": "immediate"
    },
    "unchainedAction": {
      "activation": {
        "type": "reaction"
      }
    },
    "uses": {
      "per": "day"
    },
    "actionType": "",
    "damage": {
      "parts": [],
      "critParts": [],
      "nonCritParts": []
    },
    "attackParts": [],
    "effectNotes": [],
    "attackNotes": [],
    "changes": [],
    "contextNotes": [],
    "links": {
      "children": [],
      "charges": []
    },
    "armorProf": {
      "value": []
    },
    "weaponProf": {
      "value": []
    },
    "flags": {
      "boolean": [],
      "dictionary": []
    },
    "scriptCalls": [],
    "featType": "classFeat",
    "associations": {
      "classes": [
        [
          "Psychic"
        ]
      ]
    },
    "abilityType": "su"
  },
  "effects": [],
  "folder": null,
  "sort": 0,
  "permission": {
    "default": 0
  },
  "flags": {}
}