{
  "_id": "oApi2Ju7Di2GD65T",
  "name": "Night Terror",
  "type": "feat",
  "img": "systems/pf1/icons/spells/light-royal-1.jpg",
  "data": {
    "description": {
      "value": "<p>You send your spirit to torment another being’s dreams. Once per day, you may target a creature with the effects of a @Compendium[pf1.spells.siv3ub7hbmcklf8c]{Nightmare} spell. Instead of the spell’s normal damage, you make a full attack, using your Charisma modifier in place of your Strength modifier, against the victim’s touch AC. You deal 1d10 damage for each successful hit.</p>\n<p>You must be at least 11th level before selecting this revelation.</p>"
    },
    "tags": [],
    "activation": {
      "type": "full"
    },
    "unchainedAction": {
      "activation": {
        "cost": 3,
        "type": "action"
      }
    },
    "uses": {
      "per": "day"
    },
    "actionType": "",
    "damage": {
      "parts": [],
      "critParts": [],
      "nonCritParts": []
    },
    "attackParts": [],
    "effectNotes": [],
    "attackNotes": [],
    "changes": [],
    "contextNotes": [],
    "links": {
      "children": [],
      "charges": []
    },
    "armorProf": {
      "value": []
    },
    "weaponProf": {
      "value": []
    },
    "flags": {
      "boolean": [],
      "dictionary": []
    },
    "scriptCalls": [],
    "featType": "classFeat",
    "associations": {
      "classes": [
        [
          "Oracle"
        ]
      ]
    },
    "abilityType": "su"
  },
  "effects": [],
  "folder": null,
  "sort": 0,
  "permission": {
    "default": 0
  },
  "flags": {}
}