{
  "_id": "Sz91JDHKwpkRfCNW",
  "name": "Paragon of Battle",
  "type": "feat",
  "img": "systems/pf1/icons/skills/violet_20.jpg",
  "data": {
    "description": {
      "value": "<p>As a standard action, the shaman assumes a form that combines the effects of @Compendium[pf1.spells.jnlr9cuepka1l26e]{Enlarge Person} and @Compendium[pf1.spells.tu4khwqbkcnel7zq]{Deadly Juggernaut} for 1 minute or until dismissed.</p>\n<p>The shaman can use this ability a number of times per day equal to 3 + her Charisma modifier.</p>"
    },
    "tags": [],
    "activation": {
      "type": "standard"
    },
    "unchainedAction": {
      "activation": {
        "cost": 2,
        "type": "action"
      }
    },
    "duration": {
      "value": "1",
      "units": "minute"
    },
    "target": {
      "value": "self"
    },
    "range": {
      "units": "personal"
    },
    "uses": {
      "per": "day"
    },
    "actionType": "",
    "damage": {
      "parts": [],
      "critParts": [],
      "nonCritParts": []
    },
    "attackParts": [],
    "effectNotes": [],
    "attackNotes": [],
    "changes": [],
    "contextNotes": [],
    "links": {
      "children": [],
      "charges": []
    },
    "armorProf": {
      "value": []
    },
    "weaponProf": {
      "value": []
    },
    "flags": {
      "boolean": [],
      "dictionary": []
    },
    "scriptCalls": [],
    "featType": "classFeat",
    "associations": {
      "classes": [
        [
          "Shaman"
        ]
      ]
    },
    "abilityType": "su"
  },
  "effects": [],
  "folder": null,
  "sort": 0,
  "permission": {
    "default": 0
  },
  "flags": {}
}