{
  "_id": "h0g0oAk2tYb1nrIL",
  "name": "Spirit Touch",
  "type": "feat",
  "img": "systems/pf1/icons/skills/light_05.jpg",
  "data": {
    "description": {
      "value": "<p>At 6th level, as a swift action, you can give your natural weapons or any weapons you wield the&nbsp;ghost touch&nbsp;weapon special ability. You can use this power a number of rounds per day equal to your cleric level. These rounds need not be consecutive.</p>\n<p>This power replaces the Death's Embrace power of the Death Domain or the Ward Against Death power of the Repose Domain.</p>"
    },
    "tags": [],
    "activation": {
      "type": "swift"
    },
    "unchainedAction": {
      "activation": {
        "type": "action"
      }
    },
    "duration": {
      "value": "1",
      "units": "round"
    },
    "target": {
      "value": "held weapon"
    },
    "range": {
      "units": "personal"
    },
    "uses": {
      "per": "day"
    },
    "measureTemplate": {
      "size": "0"
    },
    "actionType": "",
    "damage": {
      "parts": [],
      "critParts": [],
      "nonCritParts": []
    },
    "attackParts": [],
    "effectNotes": [],
    "attackNotes": [],
    "changes": [],
    "contextNotes": [],
    "links": {
      "children": [],
      "charges": []
    },
    "armorProf": {
      "value": []
    },
    "weaponProf": {
      "value": []
    },
    "flags": {
      "boolean": [],
      "dictionary": []
    },
    "scriptCalls": [],
    "featType": "classFeat",
    "associations": {
      "classes": [
        [
          "Cleric"
        ]
      ]
    },
    "abilityType": "su"
  },
  "effects": [],
  "folder": null,
  "sort": 0,
  "permission": {
    "default": 0
  },
  "flags": {}
}