{
  "_id": "XUOPtvbd4TYsTXff",
  "name": "Sudden Shift",
  "type": "feat",
  "img": "systems/pf1/icons/skills/violet_10.jpg",
  "data": {
    "description": {
      "value": "<p>In the blink of an eye, you can appear somewhere else. As an immediate action, after you are missed by a melee attack, you can teleport up to 10 feet to a space that you can see. This space must be inside the reach of the creature that attacked you. You can use this power a number of times each day equal to 3 + your Wisdom modifier.</p>\n<p>This power replaces the Copycat power of the Trickery Domain.</p>"
    },
    "tags": [],
    "activation": {
      "type": "immediate"
    },
    "unchainedAction": {
      "activation": {
        "type": "reaction"
      }
    },
    "duration": {
      "units": "inst"
    },
    "target": {
      "value": "self"
    },
    "range": {
      "units": "personal"
    },
    "uses": {
      "per": "day"
    },
    "measureTemplate": {
      "size": "0"
    },
    "actionType": "",
    "damage": {
      "parts": [],
      "critParts": [],
      "nonCritParts": []
    },
    "attackParts": [],
    "effectNotes": [],
    "attackNotes": [],
    "changes": [],
    "contextNotes": [],
    "links": {
      "children": [],
      "charges": []
    },
    "armorProf": {
      "value": []
    },
    "weaponProf": {
      "value": []
    },
    "flags": {
      "boolean": [],
      "dictionary": []
    },
    "scriptCalls": [],
    "featType": "classFeat",
    "associations": {
      "classes": [
        [
          "Cleric"
        ]
      ]
    },
    "abilityType": "sp"
  },
  "effects": [],
  "folder": null,
  "sort": 0,
  "permission": {
    "default": 0
  },
  "flags": {}
}