{
  "_id": "JsAjDlSmJKFlWKeW",
  "name": "Thief of the Gods",
  "type": "feat",
  "img": "systems/pf1/icons/skills/yellow_09.jpg",
  "data": {
    "description": {
      "value": "<p>At 8th level, when you make a Disable Device or Sleight of Hand check, you can roll twice and take the higher result. Using this ability is a free action. You can use this ability once per day at 8th level, plus one additional time per day for every 2 levels beyond 8th.</p>\n<p>This power replaces the Master's Illusion power of the Trickery Domain.</p>"
    },
    "tags": [],
    "activation": {
      "type": "free"
    },
    "unchainedAction": {
      "activation": {
        "type": "free"
      }
    },
    "duration": {
      "units": "inst"
    },
    "target": {
      "value": "self"
    },
    "range": {
      "units": "personal"
    },
    "uses": {
      "per": "day"
    },
    "measureTemplate": {
      "size": "0"
    },
    "actionType": "",
    "damage": {
      "parts": [],
      "critParts": [],
      "nonCritParts": []
    },
    "attackParts": [],
    "effectNotes": [],
    "attackNotes": [],
    "changes": [],
    "contextNotes": [],
    "links": {
      "children": [],
      "charges": []
    },
    "armorProf": {
      "value": []
    },
    "weaponProf": {
      "value": []
    },
    "flags": {
      "boolean": [],
      "dictionary": []
    },
    "scriptCalls": [],
    "featType": "classFeat",
    "associations": {
      "classes": [
        [
          "Cleric"
        ]
      ]
    },
    "abilityType": "su"
  },
  "effects": [],
  "folder": null,
  "sort": 0,
  "permission": {
    "default": 0
  },
  "flags": {}
}