{
  "_id": "kMFRrcheXCSkomnq",
  "name": "Tribal Bond",
  "type": "feat",
  "img": "systems/pf1/icons/skills/violet_20.jpg",
  "data": {
    "description": {
      "value": "<p>The shaman and her tribe share a transcendent bond. Once per day when she communes with her spirit animal to regain spells, the shaman can select a number of creatures equal to half her shaman level to serve as her honorary tribe. These creatures can constantly communicate with each other, as @Compendium[pf1.spells.zuqlok69lapqc6lg]{Telepathic Bond}.</p>"
    },
    "tags": [],
    "activation": {
      "type": "special"
    },
    "unchainedAction": {
      "activation": {
        "type": "special"
      }
    },
    "uses": {
      "per": "day"
    },
    "actionType": "",
    "damage": {
      "parts": [],
      "critParts": [],
      "nonCritParts": []
    },
    "attackParts": [],
    "effectNotes": [],
    "attackNotes": [],
    "changes": [],
    "contextNotes": [],
    "links": {
      "children": [],
      "charges": []
    },
    "armorProf": {
      "value": []
    },
    "weaponProf": {
      "value": []
    },
    "flags": {
      "boolean": [],
      "dictionary": []
    },
    "scriptCalls": [],
    "featType": "classFeat",
    "associations": {
      "classes": [
        [
          "Shaman"
        ]
      ]
    },
    "abilityType": "sp"
  },
  "effects": [],
  "folder": null,
  "sort": 0,
  "permission": {
    "default": 0
  },
  "flags": {}
}