{
  "_id": "LY6y8GWhXzK8wDDZ",
  "name": "Wooden Fist",
  "type": "feat",
  "img": "systems/pf1/icons/skills/green_31.jpg",
  "data": {
    "description": {
      "value": "<p>As a free action, your hands can become as hard as wood, covered in tiny thorns. While you have wooden fists, your unarmed strikes do not provoke attacks of opportunity, deal lethal damage, and gain a bonus on damage rolls equal to 1/2 your cleric level (minimum +1). You can use this ability for a number of rounds per day equal to 3 + your Wisdom modifier. These rounds do not need to be consecutive.</p>"
    },
    "tags": [],
    "activation": {
      "type": "free"
    },
    "unchainedAction": {
      "activation": {
        "type": "free"
      }
    },
    "duration": {
      "value": "1",
      "units": "round"
    },
    "target": {
      "value": "self"
    },
    "range": {
      "units": "personal"
    },
    "uses": {
      "per": "day"
    },
    "measureTemplate": {
      "size": "0"
    },
    "actionType": "",
    "damage": {
      "parts": [],
      "critParts": [],
      "nonCritParts": []
    },
    "attackParts": [],
    "effectNotes": [],
    "attackNotes": [],
    "changes": [],
    "contextNotes": [],
    "links": {
      "children": [],
      "charges": []
    },
    "armorProf": {
      "value": []
    },
    "weaponProf": {
      "value": []
    },
    "flags": {
      "boolean": [],
      "dictionary": []
    },
    "scriptCalls": [],
    "featType": "classFeat",
    "associations": {
      "classes": [
        [
          "Cleric"
        ]
      ]
    },
    "abilityType": "su"
  },
  "effects": [],
  "folder": null,
  "sort": 0,
  "permission": {
    "default": 0
  },
  "flags": {}
}