{
  "_id": "5Uih99H8c4Ed1mmz",
  "name": "Wood Sight",
  "type": "feat",
  "img": "systems/pf1/icons/spells/light-royal-1.jpg",
  "data": {
    "description": {
      "value": "<p>As a move action, you can alter your vision to see through underbrush and plant growth that would normally grant concealment, up to a range of 60 feet (though darkness and other obstacles still may block your sight).</p>\n<p>At 7th level, you can use this ability to see through wood or other plant material as easily as if it were transparent glass, penetrating a number of feet of wood equal to your oracle level.</p>\n<p>You can use this ability a number of rounds per day equal to your oracle level, but these rounds do not need to be consecutive.</p>"
    },
    "tags": [],
    "activation": {
      "type": "move"
    },
    "duration": {
      "value": "1",
      "units": "round"
    },
    "target": {
      "value": "self"
    },
    "range": {
      "units": "personal"
    },
    "uses": {
      "per": "day"
    },
    "actionType": "",
    "damage": {
      "parts": [],
      "critParts": [],
      "nonCritParts": []
    },
    "attackParts": [],
    "effectNotes": [],
    "attackNotes": [],
    "changes": [],
    "contextNotes": [],
    "links": {
      "children": [],
      "charges": []
    },
    "armorProf": {
      "value": []
    },
    "weaponProf": {
      "value": []
    },
    "flags": {
      "boolean": [],
      "dictionary": []
    },
    "scriptCalls": [],
    "featType": "classFeat",
    "associations": {
      "classes": [
        [
          "Oracle"
        ]
      ]
    },
    "abilityType": "su"
  },
  "effects": [],
  "folder": null,
  "sort": 0,
  "permission": {
    "default": 0
  },
  "flags": {}
}