{
  "_id": "NFKWBuOrvJAz5Yxn",
  "name": "Wound Warp",
  "type": "feat",
  "img": "systems/pf1/icons/spells/rip-magenta-3.jpg",
  "data": {
    "description": {
      "value": "<p>At 15th level, you gain the ability to travel across the battlefield by literally erupting from the fatal wounds of deceased creatures. As a&nbsp;<a href=\"https://www.d20pfsrd.com/gamemastering/combat#TOC-Standard-Actions\">standard action</a>&nbsp;once per day, you can&nbsp;<a href=\"https://www.d20pfsrd.com/magic/all-spells/t/teleport\">teleport</a>&nbsp;to an unoccupied square adjacent to any&nbsp;<a href=\"https://www.d20pfsrd.com/gamemastering/conditions#TOC-Dead\">dead</a>&nbsp;creature within 10 feet per&nbsp;<a href=\"https://www.d20pfsrd.com/magic#TOC-Caster-Level\">caster level</a>. Any creatures adjacent to the square you&nbsp;<a href=\"https://www.d20pfsrd.com/magic/all-spells/t/teleport\">teleport</a>&nbsp;to take 4d6 points of acid damage as you burst into being and shower them with acidic bile. Creatures that make successful&nbsp;<a href=\"https://www.d20pfsrd.com/gamemastering/combat#TOC-Reflex\">Reflex</a>&nbsp;saves (DC 10 + 1/2 your&nbsp;<a href=\"https://www.d20pfsrd.com/classes/core-classes/sorcerer\">sorcerer</a>&nbsp;level + your&nbsp;<a href=\"https://www.d20pfsrd.com/basics-ability-scores/ability-scores#TOC-Charisma-Cha-\">Charisma</a>&nbsp;modifier) take half damage. This ability otherwise functions like @Compendium[pf1.spells.ojwg1ki98tq8xyh9]{Dimension Door}. At 20th level, you can use this ability twice per day.</p>"
    },
    "tags": [],
    "activation": {
      "type": "standard"
    },
    "unchainedAction": {
      "activation": {
        "cost": 2,
        "type": "action"
      }
    },
    "target": {
      "value": "self"
    },
    "range": {
      "value": "10 * @classes.sorcerer.level",
      "units": "spec"
    },
    "uses": {
      "per": "day"
    },
    "measureTemplate": {
      "size": "0"
    },
    "actionType": "",
    "damage": {
      "parts": [],
      "critParts": [],
      "nonCritParts": []
    },
    "attackParts": [],
    "effectNotes": [],
    "attackNotes": [],
    "changes": [],
    "contextNotes": [],
    "links": {
      "children": [],
      "charges": []
    },
    "armorProf": {
      "value": []
    },
    "weaponProf": {
      "value": []
    },
    "flags": {
      "boolean": [],
      "dictionary": []
    },
    "scriptCalls": [],
    "featType": "classFeat",
    "associations": {
      "classes": [
        [
          "Sorcerer"
        ]
      ]
    },
    "abilityType": "sp"
  },
  "effects": [],
  "folder": null,
  "sort": 0,
  "permission": {
    "default": 0
  },
  "flags": {}
}