{
  "_id": "rC60w1K3kSVVfRxi",
  "name": "Rabisu",
  "type": "npc",
  "img": "systems/pf1/icons/skills/green_10.jpg",
  "data": {
    "abilities": {
      "str": {
        "value": 21
      },
      "dex": {
        "value": 24
      },
      "con": {
        "value": 24
      },
      "int": {
        "value": 19
      },
      "wis": {
        "value": 21
      },
      "cha": {
        "value": 22
      }
    },
    "attributes": {
      "naturalAC": "+7",
      "cmdNotes": "34 vs. grapple",
      "hp": {
        "value": 153
      },
      "speed": {
        "land": {
          "base": 40
        },
        "fly": {
          "base": 60,
          "maneuverability": "good"
        }
      },
      "spells": {
        "usedSpellbooks": [
          "spelllike"
        ],
        "spellbooks": {
          "spelllike": {
            "altName": "Spell-like Abilities",
            "cl": {
              "formula": "-2"
            },
            "concentrationFormula": "-6",
            "concentrationNotes": "sbc | Total in statblock was +0, adjust as needed.",
            "clNotes": "sbc | Total in statblock was CL 12, adjust as needed.",
            "autoSpellLevelCalculation": false,
            "autoSpellLevels": false,
            "arcaneSpellFailure": false,
            "domainSlotValue": 0
          }
        }
      }
    },
    "details": {
      "alignment": "ce",
      "cr": {
        "base": 11
      }
    },
    "skills": {
      "acr": {
        "rank": 14
      },
      "dis": {
        "rank": 14
      },
      "esc": {
        "rank": 14
      },
      "fly": {
        "rank": 18
      },
      "int": {
        "rank": 14
      },
      "kna": {
        "rank": 14
      },
      "per": {
        "rank": 14
      },
      "sen": {
        "rank": 14
      },
      "ste": {
        "rank": 28
      },
      "sur": {
        "rank": 14
      }
    },
    "traits": {
      "senses": "low-light vision, scent, see in darkness; Perception +22",
      "dr": "10/cold iron and magic",
      "eres": "Cold 10;Electricity 10;",
      "languages": {
        "value": [
          "aklo",
          "auran",
          "common"
        ]
      },
      "di": {
        "value": [
          "fire"
        ]
      },
      "dv": {
        "value": [],
        "custom": "Suceptible To Salt"
      },
      "ci": {
        "value": [
          "bleed",
          "fear"
        ]
      },
      "stature": ""
    }
  },
  "token": {
    "name": "Rabisu",
    "displayName": 20,
    "actorLink": false,
    "width": 1,
    "height": 1,
    "scale": 1,
    "mirrorX": false,
    "mirrorY": false,
    "lockRotation": false,
    "rotation": 0,
    "alpha": 1,
    "vision": false,
    "dimSight": 0,
    "brightSight": 0,
    "dimLight": 0,
    "brightLight": 0,
    "sightAngle": 0,
    "lightAngle": 0,
    "lightAlpha": 0.25,
    "lightAnimation": {
      "speed": 5,
      "intensity": 5
    },
    "disposition": -1,
    "displayBars": 20,
    "bar1": {
      "attribute": null
    },
    "bar2": {
      "attribute": null
    },
    "flags": {
      "pf1": {
        "lowLightVision": true
      }
    },
    "randomImg": false,
    "img": "systems/pf1/icons/skills/green_10.jpg"
  },
  "items": [
    {
      "_id": "0jjH2XJVd6dzlaSm",
      "name": "Fey (Earth)",
      "type": "class",
      "img": "systems/pf1/icons/skills/green_10.jpg",
      "data": {
        "description": {
          "value": "<p>A fey is a creature with supernatural abilities and connections to nature or to some other force or place. Fey are usually human-shaped.</p>\n<h2><span id=\"Features\">Features</span></h2>\n<p>A fey has the following features.</p>\n<ul>\n<li>d6 Hit Die.</li>\n<li>Base attack bonus equal to 1/2 total Hit Dice (slow progression).</li>\n<li>Good&nbsp;<a href=\"https://www.d20pfsrd.com/gamemastering/combat#TOC-Reflex\">Reflex</a>&nbsp;and&nbsp;<a href=\"https://www.d20pfsrd.com/gamemastering/combat#TOC-Will\">Will</a>&nbsp;Saves.</li>\n<li>Skill points equal to 6 + Int modifier (minimum 1) per Hit Die. The following are class skills for fey: <a href=\"https://www.d20pfsrd.com/skills/acrobatics\">Acrobatics</a>, <a href=\"https://www.d20pfsrd.com/skills/bluff\">Bluff</a>, <a href=\"https://www.d20pfsrd.com/skills/climb\">Climb</a>, <a href=\"https://www.d20pfsrd.com/skills/craft\">Craft</a>, <a href=\"https://www.d20pfsrd.com/skills/diplomacy\">Diplomacy</a>, <a href=\"https://www.d20pfsrd.com/skills/disguise\">Disguise</a>, <a href=\"https://www.d20pfsrd.com/skills/escape-artist\">Escape Artist</a>, <a href=\"https://www.d20pfsrd.com/skills/fly\">Fly</a>, <a href=\"https://www.d20pfsrd.com/skills/knowledge\">Knowledge</a>&nbsp;(geography), <a href=\"https://www.d20pfsrd.com/skills/knowledge\">Knowledge</a>&nbsp;(local), <a href=\"https://www.d20pfsrd.com/skills/knowledge\">Knowledge</a>&nbsp;(nature), <a href=\"https://www.d20pfsrd.com/skills/perception\">Perception</a>, <a href=\"https://www.d20pfsrd.com/skills/perform\">Perform</a>, <a href=\"https://www.d20pfsrd.com/skills/sense-motive\">Sense Motive</a>, <a href=\"https://www.d20pfsrd.com/skills/sleight-of-hand\">Sleight of Hand</a>, <a href=\"https://www.d20pfsrd.com/skills/stealth\">Stealth</a>, <a href=\"https://www.d20pfsrd.com/skills/swim\">Swim</a>, <a href=\"https://www.d20pfsrd.com/skills/use-magic-device\">Use Magic Device</a>.</li>\n</ul>\n<h2>Traits</h2>\n<p>A fey possesses the following traits (unless otherwise noted in a creature’s entry).</p>\n<ul>\n<li><a href=\"https://www.d20pfsrd.com/gamemastering/special-abilities#TOC-Low-Light-Vision\">Low-light vision</a>.</li>\n<li>Proficient with all simple weapons and any weapons mentioned in its entry.</li>\n<li>Proficient with whatever type of armor (light, medium, or heavy) it is described as wearing, as well as all lighter types. Fey not indicated as wearing armor are not proficient with armor. Fey are proficient with shields if they are proficient with any form of armor.</li>\n<li>Fey breathe, eat, and sleep.</li>\n</ul>"
        },
        "tags": [],
        "changes": [],
        "links": "",
        "tag": "fey",
        "useCustomTag": true,
        "armorProf": {
          "value": []
        },
        "weaponProf": {
          "value": []
        },
        "flags": {
          "boolean": [],
          "dictionary": []
        },
        "scriptCalls": [],
        "classType": "racial",
        "level": 14,
        "hd": 6,
        "hp": 55,
        "skillsPerLevel": 6,
        "savingThrows": {
          "ref": {
            "value": "high"
          },
          "will": {
            "value": "high"
          }
        },
        "classSkills": {
          "acr": true,
          "apr": false,
          "art": false,
          "blf": true,
          "clm": true,
          "crf": true,
          "dip": true,
          "dev": false,
          "dis": true,
          "esc": true,
          "fly": true,
          "han": false,
          "hea": false,
          "int": false,
          "kar": false,
          "kdu": false,
          "ken": false,
          "kge": true,
          "khi": false,
          "klo": true,
          "kna": true,
          "kno": false,
          "kpl": false,
          "kre": false,
          "lin": false,
          "lor": false,
          "per": true,
          "prf": true,
          "pro": false,
          "rid": false,
          "sen": true,
          "slt": true,
          "spl": false,
          "ste": true,
          "sur": false,
          "swm": true,
          "umd": true
        }
      },
      "effects": [],
      "folder": null,
      "sort": 0,
      "permission": {
        "default": 0
      },
      "flags": {}
    },
    {
      "_id": "l6hu3jswxqpanuyi",
      "name": "Race: Fey",
      "type": "race",
      "img": "systems/pf1/icons/skills/green_10.jpg",
      "data": {
        "description": {
          "value": "sbc | As no playable race was found a placeholder was generated."
        },
        "tags": [],
        "changes": [],
        "contextNotes": [],
        "links": {
          "children": []
        },
        "armorProf": {
          "value": []
        },
        "weaponProf": {
          "value": []
        },
        "flags": {
          "boolean": [],
          "dictionary": []
        },
        "scriptCalls": [],
        "creatureType": "fey",
        "subTypes": [
          [
            ""
          ]
        ]
      },
      "effects": [],
      "folder": null,
      "sort": 0,
      "permission": {
        "default": 0
      },
      "flags": {}
    },
    {
      "_id": "0i877ur4u5sco1i7",
      "name": "Sense: Low-light Vision",
      "type": "feat",
      "img": "systems/pf1/icons/skills/shadow_11.jpg",
      "data": {
        "description": {
          "value": "A creature with low-light vision can see twice as far as a human in starlight, moonlight, torchlight, and similar conditions of dim light. It retains the ability to distinguish color and detail under these conditions."
        },
        "tags": [],
        "damage": {
          "parts": [],
          "critParts": [],
          "nonCritParts": []
        },
        "attackParts": [],
        "effectNotes": [],
        "attackNotes": [],
        "changes": [],
        "contextNotes": [],
        "links": {
          "children": [],
          "charges": []
        },
        "tag": "senseLowlightVision",
        "armorProf": {
          "value": []
        },
        "weaponProf": {
          "value": []
        },
        "flags": {
          "boolean": [],
          "dictionary": []
        },
        "scriptCalls": [],
        "featType": "racial",
        "associations": {
          "classes": []
        },
        "abilityType": "ex"
      },
      "effects": [],
      "folder": null,
      "sort": 0,
      "permission": {
        "default": 0
      },
      "flags": {}
    },
    {
      "_id": "qncebf6v09eyrpwu",
      "name": "Sense: Scent",
      "type": "feat",
      "img": "systems/pf1/icons/skills/blue_29.jpg",
      "data": {
        "description": {
          "value": "This special quality allows a creature to detect approaching enemies, sniff out hidden foes, and track by sense of smell. Creatures with the scent ability can identify familiar odors just as humans do familiar sights.<br><br>\n                The creature can detect opponents within 30 feet by sense of smell. If the opponent is upwind, the range increases to 60 feet; if downwind, it drops to 15 feet. Strong scents, such as smoke or rotting garbage, can be detected at twice the ranges noted above. Overpowering scents, such as skunk musk or troglodyte stench, can be detected at triple normal range.<br><br>\n                When a creature detects a scent, the exact location of the source is not revealed—only its presence somewhere within range. The creature can take a move action to note the direction of the scent. When the creature is within 5 feet of the source, it pinpoints the source’s location.<br><br>\n                A creature with the scent ability can follow tracks by smell, making a Wisdom (or Survival) check to find or follow a track. The typical DC for a fresh trail is 10 (no matter what kind of surface holds the scent). This DC increases or decreases depending on how strong the quarry’s odor is, the number of creatures, and the age of the trail. For each hour that the trail is cold, the DC increases by 2. The ability otherwise follows the rules for the Survival skill. Creatures tracking by scent ignore the effects of surface conditions and poor visibility."
        },
        "tags": [],
        "damage": {
          "parts": [],
          "critParts": [],
          "nonCritParts": []
        },
        "attackParts": [],
        "effectNotes": [],
        "attackNotes": [],
        "changes": [],
        "contextNotes": [],
        "links": {
          "children": [],
          "charges": []
        },
        "tag": "senseScent",
        "armorProf": {
          "value": []
        },
        "weaponProf": {
          "value": []
        },
        "flags": {
          "boolean": [],
          "dictionary": []
        },
        "scriptCalls": [],
        "featType": "racial",
        "associations": {
          "classes": []
        },
        "abilityType": "ex"
      },
      "effects": [],
      "folder": null,
      "sort": 0,
      "permission": {
        "default": 0
      },
      "flags": {}
    },
    {
      "_id": "c05yxm6mu98cl4dx",
      "name": "Sense: See In Darkness",
      "type": "feat",
      "img": "systems/pf1/icons/skills/shadow_17.jpg",
      "data": {
        "description": {
          "value": "Members of this race can see perfectly in darkness of any kind, including that created by spells such as deeper darkness."
        },
        "tags": [],
        "damage": {
          "parts": [],
          "critParts": [],
          "nonCritParts": []
        },
        "attackParts": [],
        "effectNotes": [],
        "attackNotes": [],
        "changes": [],
        "contextNotes": [],
        "links": {
          "children": [],
          "charges": []
        },
        "tag": "senseSeeInDarkness",
        "armorProf": {
          "value": []
        },
        "weaponProf": {
          "value": []
        },
        "flags": {
          "boolean": [],
          "dictionary": []
        },
        "scriptCalls": [],
        "featType": "racial",
        "associations": {
          "classes": []
        },
        "abilityType": "su"
      },
      "effects": [],
      "folder": null,
      "sort": 0,
      "permission": {
        "default": 0
      },
      "flags": {}
    },
    {
      "_id": "nhf840nm9re34ozb",
      "name": "Ability Focus",
      "type": "feat",
      "img": "systems/pf1/icons/skills/yellow_36.jpg",
      "data": {
        "description": {
          "value": "sbc | As Ability Focus could not be found in any compendium, a placeholder was generated."
        },
        "tags": [],
        "damage": {
          "parts": [],
          "critParts": [],
          "nonCritParts": []
        },
        "attackParts": [],
        "effectNotes": [],
        "attackNotes": [],
        "changes": [],
        "contextNotes": [],
        "links": {
          "children": [],
          "charges": []
        },
        "armorProf": {
          "value": []
        },
        "weaponProf": {
          "value": []
        },
        "flags": {
          "boolean": [],
          "dictionary": []
        },
        "scriptCalls": [],
        "associations": {
          "classes": []
        }
      },
      "effects": [],
      "folder": null,
      "sort": 0,
      "permission": {
        "default": 0
      },
      "flags": {}
    },
    {
      "_id": "u7rGDZUL296QIuA0",
      "name": "Combat Casting",
      "type": "feat",
      "img": "systems/pf1/icons/feats/combat-casting.jpg",
      "data": {
        "description": {
          "value": "\n                <i>You are adept at spellcasting when threatened or distracted.</i>\n                <br />\n                <br />\n                \n                <p><b>Benefits</b></p>\n                <p><p class=\"stat-block-1\"> You get a +4 bonus on concentration checks made to cast a spell or use a spell-like ability when casting on the defensive or while grappled.</p></p>\n                \n            \n            "
        },
        "tags": [
          [
            "General"
          ],
          [
            "Magic"
          ],
          [
            "Defensive"
          ]
        ],
        "measureTemplate": {
          "size": "0"
        },
        "actionType": "",
        "damage": {
          "parts": [],
          "critParts": [],
          "nonCritParts": []
        },
        "attackParts": [],
        "effectNotes": [],
        "attackNotes": [],
        "changes": [],
        "contextNotes": [],
        "links": {
          "children": [],
          "charges": []
        },
        "tag": "combatCasting",
        "armorProf": {
          "value": []
        },
        "weaponProf": {
          "value": []
        },
        "flags": {
          "boolean": [],
          "dictionary": []
        },
        "scriptCalls": [],
        "associations": {
          "classes": []
        }
      },
      "effects": [],
      "folder": null,
      "sort": 0,
      "permission": {
        "default": 0
      },
      "flags": {}
    },
    {
      "_id": "JreaiTHdyWFNj3Tb",
      "name": "Dodge",
      "type": "feat",
      "img": "systems/pf1/icons/feats/dodge.jpg",
      "data": {
        "description": {
          "value": "\n                <i>Your training and reflexes allow you to react swiftly to avoid an opponents' attacks.</i>\n                <br />\n                <br />\n                \n                <p><b>Prerequisites</b></p>\n                <p> Dex 13.</p>\n                \n            <br />\n                <p><b>Benefits</b></p>\n                <p><p class=\"stat-block-1\"> You gain a +1 dodge bonus to your AC. A condition that makes you lose your Dex bonus to AC also makes you lose the benefits of this feat.</p></p>\n                \n            \n            "
        },
        "tags": [
          [
            "Combat"
          ],
          [
            "Defensive"
          ]
        ],
        "measureTemplate": {
          "size": "0"
        },
        "actionType": "",
        "damage": {
          "parts": [],
          "critParts": [],
          "nonCritParts": []
        },
        "attackParts": [],
        "effectNotes": [],
        "attackNotes": [],
        "changes": [
          {
            "_id": "9onhsept",
            "formula": "1",
            "operator": "add",
            "subTarget": "ac",
            "modifier": "dodge",
            "priority": 0,
            "value": 0,
            "target": "ac"
          }
        ],
        "contextNotes": [],
        "links": {
          "children": [],
          "charges": []
        },
        "tag": "dodge",
        "armorProf": {
          "value": []
        },
        "weaponProf": {
          "value": []
        },
        "flags": {
          "boolean": [],
          "dictionary": []
        },
        "scriptCalls": [],
        "associations": {
          "classes": []
        }
      },
      "effects": [],
      "folder": null,
      "sort": 0,
      "permission": {
        "default": 0
      },
      "flags": {}
    },
    {
      "_id": "dejysj2z3bs2ecaf",
      "name": "Quicken Spell-like Ability (invisibility",
      "type": "feat",
      "img": "systems/pf1/icons/skills/yellow_36.jpg",
      "data": {
        "description": {
          "value": "sbc | As Quicken Spell-Like Ability (invisibility could not be found in any compendium, a placeholder was generated."
        },
        "tags": [],
        "damage": {
          "parts": [],
          "critParts": [],
          "nonCritParts": []
        },
        "attackParts": [],
        "effectNotes": [],
        "attackNotes": [],
        "changes": [],
        "contextNotes": [],
        "links": {
          "children": [],
          "charges": []
        },
        "armorProf": {
          "value": []
        },
        "weaponProf": {
          "value": []
        },
        "flags": {
          "boolean": [],
          "dictionary": []
        },
        "scriptCalls": [],
        "associations": {
          "classes": []
        }
      },
      "effects": [],
      "folder": null,
      "sort": 0,
      "permission": {
        "default": 0
      },
      "flags": {}
    },
    {
      "_id": "btou2aam0qdhbl55",
      "name": "Ray Of Enfeeblement)",
      "type": "feat",
      "img": "systems/pf1/icons/skills/yellow_36.jpg",
      "data": {
        "description": {
          "value": "sbc | As ray of enfeeblement) could not be found in any compendium, a placeholder was generated."
        },
        "tags": [],
        "damage": {
          "parts": [],
          "critParts": [],
          "nonCritParts": []
        },
        "attackParts": [],
        "effectNotes": [],
        "attackNotes": [],
        "changes": [],
        "contextNotes": [],
        "links": {
          "children": [],
          "charges": []
        },
        "armorProf": {
          "value": []
        },
        "weaponProf": {
          "value": []
        },
        "flags": {
          "boolean": [],
          "dictionary": []
        },
        "scriptCalls": [],
        "associations": {
          "classes": []
        }
      },
      "effects": [],
      "folder": null,
      "sort": 0,
      "permission": {
        "default": 0
      },
      "flags": {}
    },
    {
      "_id": "7zJTztNW7hdaqjKc",
      "name": "Skill Focus",
      "type": "feat",
      "img": "systems/pf1/icons/feats/skill-focus.jpg",
      "data": {
        "description": {
          "value": "\n                <i>Choose a skill. You are particularly adept at that skill.</i>\n                <br />\n                <br />\n                \n                <p><b>Benefits</b></p>\n                <p><p class=\"stat-block-1\"> You get a +3 bonus on all checks involving the chosen skill. If you have 10 or more ranks in that skill, this bonus increases to +6.</p></p>\n                \n            <br />\n                <p><b>Special</b></p>\n                <p><p class=\"stat-block-1\"> You can gain this feat multiple times. Its effects do not stack. Each time you take the feat, it applies to a new skill.</p></p>\n                \n            \n            "
        },
        "tags": [
          [
            "General"
          ],
          [
            "Skill"
          ]
        ],
        "measureTemplate": {
          "size": "0"
        },
        "actionType": "",
        "damage": {
          "parts": [],
          "critParts": [],
          "nonCritParts": []
        },
        "attackParts": [],
        "effectNotes": [],
        "attackNotes": [],
        "changes": [],
        "contextNotes": [],
        "links": {
          "children": [],
          "charges": []
        },
        "tag": "skillFocus",
        "armorProf": {
          "value": []
        },
        "weaponProf": {
          "value": []
        },
        "flags": {
          "boolean": [],
          "dictionary": []
        },
        "scriptCalls": [],
        "associations": {
          "classes": []
        }
      },
      "effects": [],
      "folder": null,
      "sort": 0,
      "permission": {
        "default": 0
      },
      "flags": {}
    },
    {
      "_id": "vWiTqHC4Y3Xn1Pme",
      "name": "Weapon Finesse",
      "type": "feat",
      "img": "systems/pf1/icons/feats/weapon-finesse.jpg",
      "data": {
        "description": {
          "value": "\n                <i>You are trained in using your agility in melee combat, as opposed to brute strength.</i>\n                <br />\n                <br />\n                \n                <p><b>Benefits</b></p>\n                <p><p class=\"stat-block-1\"> With a light weapon, rapier, whip, or spiked chain made for a creature of your size category, you may use your Dexterity modifier instead of your Strength modifier on attack rolls. If you carry a shield, its armor check penalty applies to your attack rolls.</p></p>\n                \n            <br />\n                <p><b>Special</b></p>\n                <p><p class=\"stat-block-1\"> Natural weapons are considered light weapons.</p></p>\n                \n            \n            "
        },
        "tags": [
          [
            "Combat"
          ],
          [
            "Weapon"
          ]
        ],
        "measureTemplate": {
          "size": "0"
        },
        "actionType": "",
        "damage": {
          "parts": [],
          "critParts": [],
          "nonCritParts": []
        },
        "attackParts": [],
        "effectNotes": [],
        "attackNotes": [],
        "changes": [],
        "contextNotes": [],
        "links": {
          "children": [],
          "charges": []
        },
        "tag": "weaponFinesse",
        "armorProf": {
          "value": []
        },
        "weaponProf": {
          "value": []
        },
        "flags": {
          "boolean": [],
          "dictionary": []
        },
        "scriptCalls": [],
        "associations": {
          "classes": []
        }
      },
      "effects": [],
      "folder": null,
      "sort": 0,
      "permission": {
        "default": 0
      },
      "flags": {}
    },
    {
      "_id": "n250dFlbykAIAg5Z",
      "name": "Weapon Focus",
      "type": "feat",
      "img": "systems/pf1/icons/feats/weapon-focus.jpg",
      "data": {
        "description": {
          "value": "\n                <i>Choose one type of weapon. You can also choose unarmed strike or grapple (or ray, if you are a spellcaster) as your weapon for the purposes of this feat.</i>\n                <br />\n                <br />\n                \n                <p><b>Prerequisites</b></p>\n                <p> Proficiency with selected weapon, base attack bonus +1.</p>\n                \n            <br />\n                <p><b>Benefits</b></p>\n                <p><p class=\"stat-block-1\"> You gain a +1 bonus on all attack rolls you make using the selected weapon.</p></p>\n                \n            <br />\n                <p><b>Special</b></p>\n                <p><p class=\"stat-block-1\"> You can gain this feat multiple times. Its effects do not stack. Each time you take the feat, it applies to a new type of weapon.</p></p>\n                \n            \n            "
        },
        "tags": [
          [
            "Combat"
          ],
          [
            "Weapon"
          ],
          [
            "Offensive"
          ]
        ],
        "measureTemplate": {
          "size": "0"
        },
        "actionType": "",
        "damage": {
          "parts": [],
          "critParts": [],
          "nonCritParts": []
        },
        "attackParts": [],
        "effectNotes": [],
        "attackNotes": [],
        "changes": [],
        "contextNotes": [],
        "links": {
          "children": [],
          "charges": []
        },
        "tag": "weaponFocus",
        "armorProf": {
          "value": []
        },
        "weaponProf": {
          "value": []
        },
        "flags": {
          "boolean": [],
          "dictionary": []
        },
        "scriptCalls": [],
        "associations": {
          "classes": []
        }
      },
      "effects": [],
      "folder": null,
      "sort": 0,
      "permission": {
        "default": 0
      },
      "flags": {}
    },
    {
      "_id": "g29dbyglxxeao1yf",
      "name": "Special Quality: Blood Frenzy",
      "type": "feat",
      "img": "systems/pf1/icons/skills/yellow_36.jpg",
      "data": {
        "description": {
          "value": "sbc | Placeholder for Special Qualities, which in most statblocks are listed under SQ in the statistics block, but described in the Special Abilities. Remove duplicates as needed!"
        },
        "tags": [],
        "damage": {
          "parts": [],
          "critParts": [],
          "nonCritParts": []
        },
        "attackParts": [],
        "effectNotes": [],
        "attackNotes": [],
        "changes": [],
        "contextNotes": [],
        "links": {
          "children": [],
          "charges": []
        },
        "armorProf": {
          "value": []
        },
        "weaponProf": {
          "value": []
        },
        "flags": {
          "boolean": [],
          "dictionary": []
        },
        "scriptCalls": [],
        "featType": "misc",
        "associations": {
          "classes": []
        }
      },
      "effects": [],
      "folder": null,
      "sort": 0,
      "permission": {
        "default": 0
      },
      "flags": {}
    },
    {
      "_id": "cobdvzdd9lc4cvep",
      "name": "Bite",
      "type": "attack",
      "img": "systems/pf1/icons/items/inventory/monster-head.jpg",
      "data": {
        "tags": [],
        "activation": {
          "type": "attack"
        },
        "unchainedAction": {
          "activation": {
            "type": "attack"
          }
        },
        "duration": {
          "units": "inst"
        },
        "range": {
          "value": "",
          "units": "melee"
        },
        "attackName": "Bite",
        "actionType": "mwak",
        "attackBonus": "5",
        "damage": {
          "parts": [
            [
              "1d6+3",
              "B, P and S"
            ]
          ],
          "critParts": [],
          "nonCritParts": []
        },
        "attackParts": [],
        "ability": {
          "attack": "str",
          "damage": "str"
        },
        "effectNotes": [
          "blood drain"
        ],
        "attackNotes": [
          "bite +17 (1d6+8 plus blood drain)"
        ],
        "links": {
          "children": [],
          "charges": [],
          "ammunition": []
        },
        "flags": {
          "boolean": [],
          "dictionary": []
        },
        "scriptCalls": [],
        "attackType": "natural",
        "conditionals": []
      },
      "effects": [],
      "folder": null,
      "sort": 0,
      "permission": {
        "default": 0
      },
      "flags": {}
    },
    {
      "_id": "1opfzy9psth2inep",
      "name": "Claws",
      "type": "attack",
      "img": "systems/pf1/icons/items/inventory/monster-paw-bear.jpg",
      "data": {
        "tags": [],
        "activation": {
          "type": "attack"
        },
        "unchainedAction": {
          "activation": {
            "type": "attack"
          }
        },
        "duration": {
          "units": "inst"
        },
        "range": {
          "value": "",
          "units": "melee"
        },
        "attackName": "Claws",
        "actionType": "mwak",
        "attackBonus": "6",
        "damage": {
          "parts": [
            [
              "1d4+3",
              "B and S"
            ]
          ],
          "critParts": [],
          "nonCritParts": []
        },
        "attackParts": [
          [
            "0",
            "Claws: 1"
          ],
          [
            "0",
            "Claws: 2"
          ],
          [
            "0",
            "Claws: 3"
          ]
        ],
        "ability": {
          "attack": "str",
          "damage": "str"
        },
        "effectNotes": [
          "grab"
        ],
        "attackNotes": [
          "4 claws +18 (1d4+8 plus grab)"
        ],
        "links": {
          "children": [],
          "charges": [],
          "ammunition": []
        },
        "flags": {
          "boolean": [],
          "dictionary": []
        },
        "scriptCalls": [],
        "attackType": "natural",
        "conditionals": []
      },
      "effects": [],
      "folder": null,
      "sort": 0,
      "permission": {
        "default": 0
      },
      "flags": {}
    },
    {
      "_id": "zfnv8z3eb3hvdkcw",
      "name": "Special Attack: Blood Drain (1d2 Constitution)",
      "type": "attack",
      "img": "systems/pf1/icons/skills/yellow_36.jpg",
      "data": {
        "description": {
          "value": "sbc | Placeholder for Special Attacks, which in most statblocks are listed under 'Special Attacks' in the statistics block, but are described in the 'Special Abilities' block. Remove duplicates as needed!"
        },
        "tags": [],
        "damage": {
          "parts": [],
          "critParts": [],
          "nonCritParts": []
        },
        "attackParts": [],
        "effectNotes": [],
        "attackNotes": [],
        "links": {
          "children": [],
          "charges": [],
          "ammunition": []
        },
        "flags": {
          "boolean": [],
          "dictionary": []
        },
        "scriptCalls": [],
        "attackType": "misc",
        "conditionals": []
      },
      "effects": [],
      "folder": null,
      "sort": 0,
      "permission": {
        "default": 0
      },
      "flags": {}
    },
    {
      "_id": "f85ffgfwmfdoi2e3",
      "name": "Constant: Greater Magic Fang",
      "type": "spell",
      "img": "systems/pf1/icons/skills/yellow_36.jpg",
      "data": {
        "description": {
          "value": "sbc | As greater magic fang could not be found in any compendium, a placeholder was generated."
        },
        "tags": [],
        "damage": {
          "parts": [],
          "critParts": [],
          "nonCritParts": []
        },
        "attackParts": [],
        "effectNotes": [],
        "attackNotes": [],
        "links": {
          "children": []
        },
        "flags": {
          "boolean": [],
          "dictionary": []
        },
        "scriptCalls": [],
        "learnedAt": {
          "class": [],
          "domain": [],
          "subDomain": [],
          "elementalSchool": [],
          "bloodline": []
        },
        "conditionals": [],
        "spellbook": "spelllike",
        "atWill": true
      },
      "effects": [],
      "folder": null,
      "sort": 0,
      "permission": {
        "default": 0
      },
      "flags": {}
    },
    {
      "_id": "h1ankl1l77kmnpke",
      "name": "Command Undead",
      "type": "spell",
      "img": "systems/pf1/icons/misc/magic-swirl.png",
      "data": {
        "description": {
          "value": "<div class=\"spell-description\">\n  <p>\n    <strong>School</strong>&nbsp;necromancy;\n    <strong>Level</strong>&nbsp;sorcerer/wizard 2;\n    \n    <strong>Subdomain</strong>&nbsp;Inevitable 3;\n    \n    \n  </p>\n  <p>\n    <strong>Casting Time</strong>&nbsp;1 standard action<br>\n    <strong>Components</strong>&nbsp;V, S, M (a shred of raw meat and a splinter of bone)<br>\n  </p>\n  <p>\n    <strong>Range</strong>&nbsp;close (25 ft. + 5 ft./2 levels)<br>\n    \n    <strong>Targets</strong>&nbsp;one undead creature<br>\n    \n    <strong>Duration</strong>&nbsp;1 day/level<br>\n    <strong>Saving Throw</strong>&nbsp;Will negates; see text;&nbsp;<strong>Spell Resistance</strong>&nbsp;yes<br>\n  </p>\n  <h2>Description</h2>\n  <p>This spell allows you a degree of control over an undead creature. If the subject is intelligent, it perceives your words and actions favorably (treat its attitude as friendly). It will not attack you while the spell lasts. You can give the subject orders, but you must win an opposed Charisma check to convince it to do anything it wouldn't ordinarily do. Retries are not allowed. An intelligent commanded undead never obeys suicidal or obviously harmful orders, but it might be convinced that something very dangerous is worth doing.</p><p>A nonintelligent undead creature gets no saving throw against this spell. When you control a mindless being, you can communicate only basic commands, such as \"come here,\" \"go there,\" \"fight,\" \"stand still,\" and so on. Nonintelligent undead won't resist suicidal or obviously harmful orders.</p><p>Any act by you or your apparent allies that threatens the commanded undead (regardless of its Intelligence) breaks the spell.</p><p>Your commands are not telepathic. The undead creature must be able to hear you.</p>\n</div>\n"
        },
        "tags": [],
        "activation": {
          "type": "standard"
        },
        "unchainedAction": {
          "activation": {
            "cost": 2,
            "type": "action"
          }
        },
        "target": {
          "value": "one undead creature"
        },
        "range": {
          "units": "close"
        },
        "uses": {
          "per": ""
        },
        "measureTemplate": {
          "size": "0"
        },
        "actionType": "spellsave",
        "damage": {
          "parts": [],
          "critParts": [],
          "nonCritParts": []
        },
        "attackParts": [],
        "ability": {
          "attack": "",
          "damage": ""
        },
        "save": {
          "dc": "0",
          "type": "will",
          "description": "Will negates; see text"
        },
        "effectNotes": [],
        "attackNotes": [],
        "links": {
          "children": []
        },
        "flags": {
          "boolean": [],
          "dictionary": []
        },
        "scriptCalls": [],
        "learnedAt": {
          "class": [
            [
              "sorcerer/wizard",
              2
            ]
          ],
          "domain": [],
          "subDomain": [
            [
              "Inevitable",
              3
            ]
          ],
          "elementalSchool": [],
          "bloodline": []
        },
        "level": 2,
        "school": "nec",
        "conditionals": [],
        "components": {
          "verbal": true,
          "somatic": true,
          "material": true
        },
        "materials": {
          "value": "a shred of raw meat and a splinter of bone"
        },
        "spellbook": "spelllike",
        "preparation": {
          "preparedAmount": 1,
          "maxAmount": 1
        },
        "atWill": true,
        "shortDescription": "<p>This spell allows you a degree of control over an undead creature. If the subject is intelligent, it perceives your words and actions favorably (treat its attitude as friendly). It will not attack you while the spell lasts. You can give the subject orders, but you must win an opposed Charisma check to convince it to do anything it wouldn't ordinarily do. Retries are not allowed. An intelligent commanded undead never obeys suicidal or obviously harmful orders, but it might be convinced that something very dangerous is worth doing.</p><p>A nonintelligent undead creature gets no saving throw against this spell. When you control a mindless being, you can communicate only basic commands, such as \"come here,\" \"go there,\" \"fight,\" \"stand still,\" and so on. Nonintelligent undead won't resist suicidal or obviously harmful orders.</p><p>Any act by you or your apparent allies that threatens the commanded undead (regardless of its Intelligence) breaks the spell.</p><p>Your commands are not telepathic. The undead creature must be able to hear you.</p>",
        "spellDuration": "1 day/level"
      },
      "effects": [],
      "folder": null,
      "sort": 0,
      "permission": {
        "default": 0
      },
      "flags": {}
    },
    {
      "_id": "oylikodnyku2zewu",
      "name": "Invisibility",
      "type": "spell",
      "img": "systems/pf1/icons/misc/magic-swirl.png",
      "data": {
        "description": {
          "value": "<div class=\"spell-description\">\n  <p>\n    <strong>School</strong>&nbsp;illusion&nbsp;(glamer);\n    <strong>Level</strong>&nbsp;adept 2, alchemist 2, antipaladin 2, bard 2, inquisitor 2, magus 2, medium 2, mesmerist 2, occultist 2, psychic 2, sorcerer/wizard 2, spiritualist 2, summoner 2, unchained Summoner 2;\n    <strong>Domain</strong>&nbsp;Trickery 2;\n    \n    \n    <strong>Bloodline</strong>&nbsp;Arcane 2, Djinni 2, Oni 2, Rakshasa 2;\n  </p>\n  <p>\n    <strong>Casting Time</strong>&nbsp;1 standard action<br>\n    <strong>Components</strong>&nbsp;V, S, M/DF (an eyelash encased in gum arabic)<br>\n  </p>\n  <p>\n    <strong>Range</strong>&nbsp;personal<br>\n    \n    <strong>Targets</strong>&nbsp;you or a creature or object weighing no more than 100 lbs./level<br>\n    \n    <strong>Duration</strong>&nbsp;1 min./level (D)<br>\n    \n  </p>\n  <h2>Description</h2>\n  <p>The creature or object touched becomes invisible. If the recipient is a creature carrying gear, that vanishes, too. If you cast the spell on someone else, neither you nor your allies can see the subject, unless you can normally see invisible things or you employ magic to do so.</p><p>Items dropped or put down by an invisible creature become visible; items picked up disappear if tucked into the clothing or pouches worn by the creature. Light, however, never becomes invisible, although a source of light can become so (thus, the effect is that of a light with no visible source). Any part of an item that the subject carries but that extends more than 10 feet from it becomes visible.</p><p>Of course, the subject is not magically silenced, and certain other conditions can render the recipient detectable (such as swimming in water or stepping in a puddle). If a check is required, a stationary invisible creature has a +40 bonus on its Stealth checks. This bonus is reduced to +20 if the creature is moving. The spell ends if the subject attacks any creature. For purposes of this spell, an attack includes any spell targeting a foe or whose area or effect includes a foe. Exactly who is a foe depends on the invisible character's perceptions. Actions directed at unattended objects do not break the spell. Causing harm indirectly is not an attack. Thus, an invisible being can open doors, talk, eat, climb stairs, summon monsters and have them attack, cut the ropes holding a rope bridge while enemies are on the bridge, remotely trigger traps, open a portcullis to release attack dogs, and so forth. If the subject attacks directly, however, it immediately becomes visible along with all its gear.</p><p>Spells such as <i>bless</i> that specifically affect allies but not foes are not attacks for this purpose, even when they include foes in their area.</p><p><i>Invisibility</i> can be made permanent (on objects only) with a <i>permanency</i> spell.</p>\n</div>\n"
        },
        "tags": [],
        "activation": {
          "type": "standard"
        },
        "unchainedAction": {
          "activation": {
            "cost": 2,
            "type": "action"
          }
        },
        "target": {
          "value": "you or a creature or object weighing no more than 100 lbs./level"
        },
        "range": {
          "units": "personal"
        },
        "uses": {
          "value": 3,
          "per": "day"
        },
        "measureTemplate": {
          "size": "0"
        },
        "actionType": "spellsave",
        "damage": {
          "parts": [],
          "critParts": [],
          "nonCritParts": []
        },
        "attackParts": [],
        "ability": {
          "attack": "",
          "damage": ""
        },
        "save": {
          "dc": "0",
          "type": "will",
          "description": "Will negates (harmless) or Will negates (harmless, object)"
        },
        "effectNotes": [],
        "attackNotes": [],
        "links": {
          "children": []
        },
        "flags": {
          "boolean": [],
          "dictionary": []
        },
        "scriptCalls": [],
        "learnedAt": {
          "class": [
            [
              "sorcerer/wizard",
              2
            ],
            [
              "bard",
              2
            ],
            [
              "alchemist",
              2
            ],
            [
              "summoner",
              2
            ],
            [
              "inquisitor",
              2
            ],
            [
              "antipaladin",
              2
            ],
            [
              "magus",
              2
            ],
            [
              "adept",
              2
            ],
            [
              "psychic",
              2
            ],
            [
              "medium",
              2
            ],
            [
              "mesmerist",
              2
            ],
            [
              "occultist",
              2
            ],
            [
              "spiritualist",
              2
            ],
            [
              "unchained Summoner",
              2
            ]
          ],
          "domain": [
            [
              "Trickery",
              2
            ]
          ],
          "subDomain": [],
          "elementalSchool": [],
          "bloodline": [
            [
              "Arcane",
              2
            ],
            [
              "Djinni",
              2
            ],
            [
              "Oni",
              2
            ],
            [
              "Rakshasa",
              2
            ]
          ]
        },
        "level": 2,
        "school": "ill",
        "subschool": "glamer",
        "conditionals": [],
        "components": {
          "verbal": true,
          "somatic": true,
          "material": true,
          "divineFocus": 2
        },
        "materials": {
          "value": "an eyelash encased in gum arabic"
        },
        "spellbook": "spelllike",
        "preparation": {
          "preparedAmount": 3,
          "maxAmount": 3
        },
        "atWill": true,
        "shortDescription": "<p>The creature or object touched becomes invisible. If the recipient is a creature carrying gear, that vanishes, too. If you cast the spell on someone else, neither you nor your allies can see the subject, unless you can normally see invisible things or you employ magic to do so.</p><p>Items dropped or put down by an invisible creature become visible; items picked up disappear if tucked into the clothing or pouches worn by the creature. Light, however, never becomes invisible, although a source of light can become so (thus, the effect is that of a light with no visible source). Any part of an item that the subject carries but that extends more than 10 feet from it becomes visible.</p><p>Of course, the subject is not magically silenced, and certain other conditions can render the recipient detectable (such as swimming in water or stepping in a puddle). If a check is required, a stationary invisible creature has a +40 bonus on its Stealth checks. This bonus is reduced to +20 if the creature is moving. The spell ends if the subject attacks any creature. For purposes of this spell, an attack includes any spell targeting a foe or whose area or effect includes a foe. Exactly who is a foe depends on the invisible character's perceptions. Actions directed at unattended objects do not break the spell. Causing harm indirectly is not an attack. Thus, an invisible being can open doors, talk, eat, climb stairs, summon monsters and have them attack, cut the ropes holding a rope bridge while enemies are on the bridge, remotely trigger traps, open a portcullis to release attack dogs, and so forth. If the subject attacks directly, however, it immediately becomes visible along with all its gear.</p><p>Spells such as <i>bless</i> that specifically affect allies but not foes are not attacks for this purpose, even when they include foes in their area.</p><p><i>Invisibility</i> can be made permanent (on objects only) with a <i>permanency</i> spell.</p>",
        "spellDuration": "1 min./level (D)",
        "domain": true
      },
      "effects": [],
      "folder": null,
      "sort": 0,
      "permission": {
        "default": 0
      },
      "flags": {}
    },
    {
      "_id": "mczdgwo3xl8c6e26",
      "name": "Ray of Enfeeblement",
      "type": "spell",
      "img": "systems/pf1/icons/misc/magic-swirl.png",
      "data": {
        "description": {
          "value": "<div class=\"spell-description\">\n  <p>\n    <strong>School</strong>&nbsp;necromancy;\n    <strong>Level</strong>&nbsp;bloodrager 1, magus 1, mesmerist 1, sorcerer/wizard 1, witch 1;\n    \n    \n    \n    <strong>Bloodline</strong>&nbsp;Accursed 1, Daemon 1, Ghoul 1, Oni 1, Shadow 1;\n  </p>\n  <p>\n    <strong>Casting Time</strong>&nbsp;1 standard action<br>\n    <strong>Components</strong>&nbsp;V, S<br>\n  </p>\n  <p>\n    <strong>Range</strong>&nbsp;close (25 ft. + 5 ft./2 levels)<br>\n    \n    \n    <strong>Effect</strong>&nbsp;ray<br>\n    <strong>Duration</strong>&nbsp;1 round/level<br>\n    <strong>Saving Throw</strong>&nbsp;Fortitude half;&nbsp;<strong>Spell Resistance</strong>&nbsp;yes<br>\n  </p>\n  <h2>Description</h2>\n  <p>A coruscating ray springs from your hand. You must succeed on a ranged touch attack to strike a target. The subject takes a penalty to Strength equal to 1d6+1 per two caster levels (maximum 1d6+5).</p><p>The subject's Strength score cannot drop below 1. A successful Fortitude save reduces this penalty by half. This penalty does not stack with itself. Apply the highest penalty instead.</p>\n</div>\n"
        },
        "tags": [],
        "activation": {
          "type": "standard"
        },
        "unchainedAction": {
          "activation": {
            "cost": 2,
            "type": "action"
          }
        },
        "range": {
          "units": "close"
        },
        "uses": {
          "value": 3,
          "per": "day"
        },
        "measureTemplate": {
          "size": "0"
        },
        "actionType": "rsak",
        "damage": {
          "parts": [],
          "critParts": [],
          "nonCritParts": []
        },
        "attackParts": [],
        "ability": {
          "attack": "dex",
          "damage": ""
        },
        "save": {
          "dc": "2",
          "type": "fort",
          "description": "Fortitude half"
        },
        "effectNotes": [
          "[[1d6 + min(5, floor(@cl / 2))]] Strength Penalty"
        ],
        "attackNotes": [],
        "links": {
          "children": []
        },
        "flags": {
          "boolean": [],
          "dictionary": []
        },
        "scriptCalls": [],
        "learnedAt": {
          "class": [
            [
              "sorcerer/wizard",
              1
            ],
            [
              "witch",
              1
            ],
            [
              "magus",
              1
            ],
            [
              "bloodrager",
              1
            ],
            [
              "mesmerist",
              1
            ]
          ],
          "domain": [],
          "subDomain": [],
          "elementalSchool": [],
          "bloodline": [
            [
              "Accursed",
              1
            ],
            [
              "Oni",
              1
            ],
            [
              "Shadow",
              1
            ],
            [
              "Daemon",
              1
            ],
            [
              "Ghoul",
              1
            ]
          ]
        },
        "school": "nec",
        "conditionals": [],
        "components": {
          "verbal": true,
          "somatic": true
        },
        "spellbook": "spelllike",
        "preparation": {
          "preparedAmount": 3,
          "maxAmount": 3
        },
        "atWill": true,
        "shortDescription": "<p>A coruscating ray springs from your hand. You must succeed on a ranged touch attack to strike a target. The subject takes a penalty to Strength equal to 1d6+1 per two caster levels (maximum 1d6+5).</p><p>The subject's Strength score cannot drop below 1. A successful Fortitude save reduces this penalty by half. This penalty does not stack with itself. Apply the highest penalty instead.</p>",
        "spellDuration": "1 round/level",
        "spellEffect": "ray"
      },
      "effects": [],
      "folder": null,
      "sort": 0,
      "permission": {
        "default": 0
      },
      "flags": {}
    },
    {
      "_id": "smbkd2yobhshbpqf",
      "name": "Charm Monster",
      "type": "spell",
      "img": "systems/pf1/icons/misc/magic-swirl.png",
      "data": {
        "description": {
          "value": "<div class=\"spell-description\">\n  <p>\n    <strong>School</strong>&nbsp;enchantment&nbsp;(charm)&nbsp;[mind-affecting];\n    <strong>Level</strong>&nbsp;bard 3, mesmerist 3, occultist 4, psychic 4, sorcerer/wizard 4, summoner 3, unchained Summoner 4, witch 4;\n    <strong>Domain</strong>&nbsp;Charm 5;\n    \n    \n    <strong>Bloodline</strong>&nbsp;Infernal 4, Oni 4;\n  </p>\n  <p>\n    <strong>Casting Time</strong>&nbsp;1 standard action<br>\n    <strong>Components</strong>&nbsp;V, S<br>\n  </p>\n  <p>\n    <strong>Range</strong>&nbsp;close (25 ft. + 5 ft./2 levels)<br>\n    \n    <strong>Targets</strong>&nbsp;one living creature<br>\n    \n    <strong>Duration</strong>&nbsp;1 day/level<br>\n    <strong>Saving Throw</strong>&nbsp;Will negates;&nbsp;<strong>Spell Resistance</strong>&nbsp;yes<br>\n  </p>\n  <h2>Description</h2>\n  <p>This spell functions like <i>charm person</i>, except that the effect is not restricted by creature type or size.</p>\n</div>\n"
        },
        "tags": [],
        "activation": {
          "type": "standard"
        },
        "unchainedAction": {
          "activation": {
            "cost": 2,
            "type": "action"
          }
        },
        "target": {
          "value": "one living creature"
        },
        "range": {
          "units": "close"
        },
        "uses": {
          "value": 3,
          "per": "day"
        },
        "measureTemplate": {
          "size": "0"
        },
        "actionType": "spellsave",
        "damage": {
          "parts": [],
          "critParts": [],
          "nonCritParts": []
        },
        "attackParts": [],
        "ability": {
          "attack": "",
          "damage": ""
        },
        "save": {
          "dc": "0",
          "type": "will",
          "description": "Will negates"
        },
        "effectNotes": [],
        "attackNotes": [],
        "links": {
          "children": []
        },
        "flags": {
          "boolean": [],
          "dictionary": []
        },
        "scriptCalls": [],
        "learnedAt": {
          "class": [
            [
              "sorcerer/wizard",
              4
            ],
            [
              "bard",
              3
            ],
            [
              "summoner",
              3
            ],
            [
              "witch",
              4
            ],
            [
              "psychic",
              4
            ],
            [
              "mesmerist",
              3
            ],
            [
              "occultist",
              4
            ],
            [
              "unchained Summoner",
              4
            ]
          ],
          "domain": [
            [
              "Charm",
              5
            ]
          ],
          "subDomain": [],
          "elementalSchool": [],
          "bloodline": [
            [
              "Infernal",
              4
            ],
            [
              "Oni",
              4
            ]
          ]
        },
        "level": 4,
        "school": "enc",
        "subschool": "charm",
        "types": "mind-affecting",
        "conditionals": [],
        "components": {
          "verbal": true,
          "somatic": true
        },
        "spellbook": "spelllike",
        "preparation": {
          "preparedAmount": 3,
          "maxAmount": 3
        },
        "atWill": true,
        "shortDescription": "<p>This spell functions like <i>charm person</i>, except that the effect is not restricted by creature type or size.</p>",
        "spellDuration": "1 day/level"
      },
      "effects": [],
      "folder": null,
      "sort": 0,
      "permission": {
        "default": 0
      },
      "flags": {}
    },
    {
      "_id": "y3dvji11jkvtez19",
      "name": "Quickened Invisibility",
      "type": "spell",
      "img": "systems/pf1/icons/skills/yellow_36.jpg",
      "data": {
        "description": {
          "value": "sbc | As quickened invisibility could not be found in any compendium, a placeholder was generated."
        },
        "tags": [],
        "uses": {
          "value": 3,
          "per": "day"
        },
        "damage": {
          "parts": [],
          "critParts": [],
          "nonCritParts": []
        },
        "attackParts": [],
        "effectNotes": [],
        "attackNotes": [],
        "links": {
          "children": []
        },
        "flags": {
          "boolean": [],
          "dictionary": []
        },
        "scriptCalls": [],
        "learnedAt": {
          "class": [],
          "domain": [],
          "subDomain": [],
          "elementalSchool": [],
          "bloodline": []
        },
        "conditionals": [],
        "spellbook": "spelllike",
        "preparation": {
          "preparedAmount": 3,
          "maxAmount": 3
        }
      },
      "effects": [],
      "folder": null,
      "sort": 0,
      "permission": {
        "default": 0
      },
      "flags": {}
    },
    {
      "_id": "jhdmcft02q88d64w",
      "name": "Quickened Ray Of Enfeeblement",
      "type": "spell",
      "img": "systems/pf1/icons/skills/yellow_36.jpg",
      "data": {
        "description": {
          "value": "sbc | As quickened ray of enfeeblement could not be found in any compendium, a placeholder was generated."
        },
        "tags": [],
        "uses": {
          "value": 3,
          "per": "day"
        },
        "damage": {
          "parts": [],
          "critParts": [],
          "nonCritParts": []
        },
        "attackParts": [],
        "save": {
          "dc": "2"
        },
        "effectNotes": [],
        "attackNotes": [],
        "links": {
          "children": []
        },
        "flags": {
          "boolean": [],
          "dictionary": []
        },
        "scriptCalls": [],
        "learnedAt": {
          "class": [],
          "domain": [],
          "subDomain": [],
          "elementalSchool": [],
          "bloodline": []
        },
        "conditionals": [],
        "spellbook": "spelllike",
        "preparation": {
          "preparedAmount": 3,
          "maxAmount": 3
        }
      },
      "effects": [],
      "folder": null,
      "sort": 0,
      "permission": {
        "default": 0
      },
      "flags": {}
    },
    {
      "_id": "vlzave855irdc7yu",
      "name": "Ray of Exhaustion",
      "type": "spell",
      "img": "systems/pf1/icons/misc/magic-swirl.png",
      "data": {
        "description": {
          "value": "<div class=\"spell-description\">\n  <p>\n    <strong>School</strong>&nbsp;necromancy;\n    <strong>Level</strong>&nbsp;bloodrager 3, magus 3, mesmerist 3, sorcerer/wizard 3, spiritualist 3, witch 3;\n    \n    \n    \n    <strong>Bloodline</strong>&nbsp;Accursed 3;\n  </p>\n  <p>\n    <strong>Casting Time</strong>&nbsp;1 standard action<br>\n    <strong>Components</strong>&nbsp;V, S, M (a drop of sweat)<br>\n  </p>\n  <p>\n    <strong>Range</strong>&nbsp;close (25 ft. + 5 ft./2 levels)<br>\n    \n    \n    <strong>Effect</strong>&nbsp;ray<br>\n    <strong>Duration</strong>&nbsp;1 min./level<br>\n    <strong>Saving Throw</strong>&nbsp;Fortitude partial; see text;&nbsp;<strong>Spell Resistance</strong>&nbsp;yes<br>\n  </p>\n  <h2>Description</h2>\n  <p>A black ray projects from your pointing finger. You must succeed on a ranged touch attack with the ray to strike a target.</p><p>The subject is immediately exhausted for the spell's duration. A successful Fortitude save means the creature is only fatigued.</p><p>A character that is already fatigued instead becomes exhausted.</p><p>This spell has no effect on a creature that is already exhausted.</p><p>Unlike normal exhaustion or fatigue, the effect ends as soon as the spell's duration expires.</p>\n</div>\n"
        },
        "tags": [],
        "activation": {
          "type": "standard"
        },
        "unchainedAction": {
          "activation": {
            "cost": 2,
            "type": "action"
          }
        },
        "range": {
          "units": "close"
        },
        "uses": {
          "value": 3,
          "per": "day"
        },
        "measureTemplate": {
          "size": "0"
        },
        "actionType": "rsak",
        "damage": {
          "parts": [],
          "critParts": [],
          "nonCritParts": []
        },
        "attackParts": [],
        "ability": {
          "attack": "dex",
          "damage": ""
        },
        "save": {
          "dc": "2",
          "type": "fort",
          "description": "Fortitude partial; see text"
        },
        "effectNotes": [],
        "attackNotes": [],
        "links": {
          "children": []
        },
        "flags": {
          "boolean": [],
          "dictionary": []
        },
        "scriptCalls": [],
        "learnedAt": {
          "class": [
            [
              "sorcerer/wizard",
              3
            ],
            [
              "witch",
              3
            ],
            [
              "magus",
              3
            ],
            [
              "bloodrager",
              3
            ],
            [
              "mesmerist",
              3
            ],
            [
              "spiritualist",
              3
            ]
          ],
          "domain": [],
          "subDomain": [],
          "elementalSchool": [],
          "bloodline": [
            [
              "Accursed",
              3
            ]
          ]
        },
        "level": 3,
        "school": "nec",
        "conditionals": [],
        "components": {
          "verbal": true,
          "somatic": true,
          "material": true
        },
        "materials": {
          "value": "a drop of sweat"
        },
        "spellbook": "spelllike",
        "preparation": {
          "preparedAmount": 3,
          "maxAmount": 3
        },
        "shortDescription": "<p>A black ray projects from your pointing finger. You must succeed on a ranged touch attack with the ray to strike a target.</p><p>The subject is immediately exhausted for the spell's duration. A successful Fortitude save means the creature is only fatigued.</p><p>A character that is already fatigued instead becomes exhausted.</p><p>This spell has no effect on a creature that is already exhausted.</p><p>Unlike normal exhaustion or fatigue, the effect ends as soon as the spell's duration expires.</p>",
        "spellDuration": "1 min./level",
        "spellEffect": "ray"
      },
      "effects": [],
      "folder": null,
      "sort": 0,
      "permission": {
        "default": 0
      },
      "flags": {}
    },
    {
      "_id": "3efy1ico48ccrzni",
      "name": "Vampiric Touch",
      "type": "spell",
      "img": "systems/pf1/icons/misc/magic-swirl.png",
      "data": {
        "description": {
          "value": "<div class=\"spell-description\">\n  <p>\n    <strong>School</strong>&nbsp;necromancy;\n    <strong>Level</strong>&nbsp;antipaladin 3, bloodrager 3, magus 3, medium 3, mesmerist 3, psychic 3, sorcerer/wizard 3, spiritualist 3, witch 3;\n    \n    <strong>Subdomain</strong>&nbsp;Blood 3, Daemon 3;\n    \n    <strong>Bloodline</strong>&nbsp;Daemon 3, Ghoul 3, Undead 3;\n  </p>\n  <p>\n    <strong>Casting Time</strong>&nbsp;1 standard action<br>\n    <strong>Components</strong>&nbsp;V, S<br>\n  </p>\n  <p>\n    <strong>Range</strong>&nbsp;touch<br>\n    \n    <strong>Targets</strong>&nbsp;living creature touched<br>\n    \n    <strong>Duration</strong>&nbsp;instantaneous/1 hour; see text<br>\n    <strong>Saving Throw</strong>&nbsp;none;&nbsp;<strong>Spell Resistance</strong>&nbsp;yes<br>\n  </p>\n  <h2>Description</h2>\n  <p>You must succeed on a melee touch attack. Your touch deals 1d6 points of damage per two caster levels (maximum 10d6). You gain temporary hit points equal to the damage you deal. You can't gain more than the subject's current hit points + the subject's Constitution score (which is enough to kill the subject). The temporary hit points disappear 1 hour later.</p>\n</div>\n"
        },
        "tags": [],
        "activation": {
          "type": "standard"
        },
        "unchainedAction": {
          "activation": {
            "cost": 2,
            "type": "action"
          }
        },
        "target": {
          "value": "living creature touched"
        },
        "range": {
          "units": "touch"
        },
        "uses": {
          "value": 3,
          "per": "day"
        },
        "measureTemplate": {
          "size": "0"
        },
        "actionType": "msak",
        "damage": {
          "parts": [],
          "critParts": [],
          "nonCritParts": []
        },
        "attackParts": [],
        "ability": {
          "attack": "str",
          "damage": ""
        },
        "save": {
          "dc": "2"
        },
        "effectNotes": [],
        "attackNotes": [],
        "links": {
          "children": []
        },
        "flags": {
          "boolean": [],
          "dictionary": []
        },
        "scriptCalls": [],
        "learnedAt": {
          "class": [
            [
              "sorcerer/wizard",
              3
            ],
            [
              "witch",
              3
            ],
            [
              "antipaladin",
              3
            ],
            [
              "magus",
              3
            ],
            [
              "bloodrager",
              3
            ],
            [
              "psychic",
              3
            ],
            [
              "medium",
              3
            ],
            [
              "mesmerist",
              3
            ],
            [
              "spiritualist",
              3
            ]
          ],
          "domain": [],
          "subDomain": [
            [
              "Blood",
              3
            ],
            [
              "Daemon",
              3
            ]
          ],
          "elementalSchool": [],
          "bloodline": [
            [
              "Undead",
              3
            ],
            [
              "Daemon",
              3
            ],
            [
              "Ghoul",
              3
            ]
          ]
        },
        "level": 3,
        "school": "nec",
        "conditionals": [],
        "components": {
          "verbal": true,
          "somatic": true
        },
        "spellbook": "spelllike",
        "preparation": {
          "preparedAmount": 3,
          "maxAmount": 3
        },
        "atWill": true,
        "shortDescription": "<p>You must succeed on a melee touch attack. Your touch deals 1d6 points of damage per two caster levels (maximum 10d6). You gain temporary hit points equal to the damage you deal. You can't gain more than the subject's current hit points + the subject's Constitution score (which is enough to kill the subject). The temporary hit points disappear 1 hour later.</p>",
        "spellDuration": "instantaneous/1 hour; see text"
      },
      "effects": [],
      "folder": null,
      "sort": 0,
      "permission": {
        "default": 0
      },
      "flags": {}
    },
    {
      "_id": "82vi1xife3nlu8a0",
      "name": "Mirage Arcana",
      "type": "spell",
      "img": "systems/pf1/icons/misc/magic-swirl.png",
      "data": {
        "description": {
          "value": "<div class=\"spell-description\">\n  <p>\n    <strong>School</strong>&nbsp;illusion&nbsp;(glamer);\n    <strong>Level</strong>&nbsp;bard 5, mesmerist 5, psychic 5, sorcerer/wizard 5;\n    \n    <strong>Subdomain</strong>&nbsp;Solitude 5;\n    \n    \n  </p>\n  <p>\n    <strong>Casting Time</strong>&nbsp;1 standard action<br>\n    <strong>Components</strong>&nbsp;V, S<br>\n  </p>\n  <p>\n    <strong>Range</strong>&nbsp;long (400 ft. + 40 ft./level)<br>\n    <strong>Area</strong>&nbsp;one 20-ft. cube/level<br>\n    \n    \n    <strong>Duration</strong>&nbsp;concentration + 1 hour/level<br>\n    <strong>Saving Throw</strong>&nbsp;Will disbelief (if interacted with);&nbsp;<strong>Spell Resistance</strong>&nbsp;no<br>\n  </p>\n  <h2>Description</h2>\n  <p>This spell functions like <i>hallucinatory terrain</i>, except that it enables you to make any area appear to be something other than it is. The illusion includes audible, visual, tactile, and olfactory elements.</p><p>Unlike <i>hallucinatory terrain</i>, the spell can alter the appearance of structures (or add them where none are present). Still, it can't disguise, conceal, or add creatures (though creatures within the area might hide themselves within the illusion just as they can hide themselves within a real location).</p>\n</div>\n"
        },
        "tags": [],
        "activation": {
          "type": "standard"
        },
        "unchainedAction": {
          "activation": {
            "cost": 2,
            "type": "action"
          }
        },
        "range": {
          "units": "long"
        },
        "uses": {
          "value": 1,
          "per": "day"
        },
        "measureTemplate": {
          "size": "0"
        },
        "actionType": "spellsave",
        "damage": {
          "parts": [],
          "critParts": [],
          "nonCritParts": []
        },
        "attackParts": [],
        "ability": {
          "attack": "",
          "damage": ""
        },
        "save": {
          "dc": "0",
          "type": "will",
          "description": "Will disbelief (if interacted with)"
        },
        "effectNotes": [],
        "attackNotes": [],
        "links": {
          "children": []
        },
        "flags": {
          "boolean": [],
          "dictionary": []
        },
        "scriptCalls": [],
        "learnedAt": {
          "class": [
            [
              "sorcerer/wizard",
              5
            ],
            [
              "bard",
              5
            ],
            [
              "psychic",
              5
            ],
            [
              "mesmerist",
              5
            ]
          ],
          "domain": [],
          "subDomain": [
            [
              "Solitude",
              5
            ]
          ],
          "elementalSchool": [],
          "bloodline": []
        },
        "level": 5,
        "school": "ill",
        "subschool": "glamer",
        "conditionals": [],
        "components": {
          "verbal": true,
          "somatic": true
        },
        "spellbook": "spelllike",
        "preparation": {
          "preparedAmount": 1,
          "maxAmount": 1
        },
        "atWill": true,
        "sr": false,
        "shortDescription": "<p>This spell functions like <i>hallucinatory terrain</i>, except that it enables you to make any area appear to be something other than it is. The illusion includes audible, visual, tactile, and olfactory elements.</p><p>Unlike <i>hallucinatory terrain</i>, the spell can alter the appearance of structures (or add them where none are present). Still, it can't disguise, conceal, or add creatures (though creatures within the area might hide themselves within the illusion just as they can hide themselves within a real location).</p>",
        "spellDuration": "concentration + 1 hour/level",
        "spellArea": "one 20-ft. cube/level"
      },
      "effects": [],
      "folder": null,
      "sort": 0,
      "permission": {
        "default": 0
      },
      "flags": {}
    },
    {
      "_id": "fxwycv6d7xwzua4t",
      "name": "Veil",
      "type": "spell",
      "img": "systems/pf1/icons/misc/magic-swirl.png",
      "data": {
        "description": {
          "value": "<div class=\"spell-description\">\n  <p>\n    <strong>School</strong>&nbsp;illusion&nbsp;(glamer);\n    <strong>Level</strong>&nbsp;bard 6, mesmerist 6, psychic 6, sorcerer/wizard 6;\n    \n    <strong>Subdomain</strong>&nbsp;Ambush 6;\n    \n    \n  </p>\n  <p>\n    <strong>Casting Time</strong>&nbsp;1 standard action<br>\n    <strong>Components</strong>&nbsp;V, S<br>\n  </p>\n  <p>\n    <strong>Range</strong>&nbsp;long (400 ft. + 40 ft./level)<br>\n    \n    <strong>Targets</strong>&nbsp;one or more creatures, no two of which can be more than 30 ft. apart<br>\n    \n    <strong>Duration</strong>&nbsp;concentration + 1 hour/level<br>\n    <strong>Saving Throw</strong>&nbsp;Will negates; see text;&nbsp;<strong>Spell Resistance</strong>&nbsp;yes<br>\n  </p>\n  <h2>Description</h2>\n  <p>You instantly change the appearance of the subjects and then maintain that appearance for the spell's duration. You can make the subjects appear to be anything you wish. The subjects look, feel, and smell just like the creatures the spell makes them resemble. Affected creatures resume their normal appearances if slain. You must succeed on a Disguise check to duplicate the appearance of a specific individual. This spell gives you a +10 bonus on the check.</p><p>Unwilling targets can negate the spell's effect on them by making Will saves or with spell resistance. Those who interact with the subjects can attempt Will disbelief saves to see through the glamer, but spell resistance doesn't help.</p>\n</div>\n"
        },
        "tags": [],
        "activation": {
          "type": "standard"
        },
        "unchainedAction": {
          "activation": {
            "cost": 2,
            "type": "action"
          }
        },
        "target": {
          "value": "one or more creatures, no two of which can be more than 30 ft. apart"
        },
        "range": {
          "units": "long"
        },
        "uses": {
          "value": 1,
          "per": "day"
        },
        "measureTemplate": {
          "size": "0"
        },
        "actionType": "spellsave",
        "damage": {
          "parts": [],
          "critParts": [],
          "nonCritParts": []
        },
        "attackParts": [],
        "ability": {
          "attack": "",
          "damage": ""
        },
        "save": {
          "dc": "0",
          "type": "will",
          "description": "Will negates; see text"
        },
        "effectNotes": [],
        "attackNotes": [],
        "links": {
          "children": []
        },
        "flags": {
          "boolean": [],
          "dictionary": []
        },
        "scriptCalls": [],
        "learnedAt": {
          "class": [
            [
              "sorcerer/wizard",
              6
            ],
            [
              "bard",
              6
            ],
            [
              "psychic",
              6
            ],
            [
              "mesmerist",
              6
            ]
          ],
          "domain": [],
          "subDomain": [
            [
              "Ambush",
              6
            ]
          ],
          "elementalSchool": [],
          "bloodline": []
        },
        "level": 6,
        "school": "ill",
        "subschool": "glamer",
        "conditionals": [],
        "components": {
          "verbal": true,
          "somatic": true
        },
        "spellbook": "spelllike",
        "preparation": {
          "preparedAmount": 1,
          "maxAmount": 1
        },
        "atWill": true,
        "shortDescription": "<p>You instantly change the appearance of the subjects and then maintain that appearance for the spell's duration. You can make the subjects appear to be anything you wish. The subjects look, feel, and smell just like the creatures the spell makes them resemble. Affected creatures resume their normal appearances if slain. You must succeed on a Disguise check to duplicate the appearance of a specific individual. This spell gives you a +10 bonus on the check.</p><p>Unwilling targets can negate the spell's effect on them by making Will saves or with spell resistance. Those who interact with the subjects can attempt Will disbelief saves to see through the glamer, but spell resistance doesn't help.</p>",
        "spellDuration": "concentration + 1 hour/level"
      },
      "effects": [],
      "folder": null,
      "sort": 0,
      "permission": {
        "default": 0
      },
      "flags": {}
    },
    {
      "_id": "ijvb1exko6dskalz",
      "name": "Waves of Fatigue",
      "type": "spell",
      "img": "systems/pf1/icons/misc/magic-swirl.png",
      "data": {
        "description": {
          "value": "<div class=\"spell-description\">\n  <p>\n    <strong>School</strong>&nbsp;necromancy;\n    <strong>Level</strong>&nbsp;mesmerist 5, psychic 5, sorcerer/wizard 5, spiritualist 5, witch 5;\n    \n    <strong>Subdomain</strong>&nbsp;Toil 5;\n    \n    <strong>Bloodline</strong>&nbsp;Undead 5;\n  </p>\n  <p>\n    <strong>Casting Time</strong>&nbsp;1 standard action<br>\n    <strong>Components</strong>&nbsp;V, S<br>\n  </p>\n  <p>\n    <strong>Range</strong>&nbsp;30 feet<br>\n    <strong>Area</strong>&nbsp;cone-shaped burst<br>\n    \n    \n    <strong>Duration</strong>&nbsp;instantaneous<br>\n    <strong>Saving Throw</strong>&nbsp;none;&nbsp;<strong>Spell Resistance</strong>&nbsp;yes<br>\n  </p>\n  <h2>Description</h2>\n  <p>Waves of negative energy render all living creatures in the spell's area fatigued. This spell has no effect on a creature that is already fatigued.</p>\n</div>\n"
        },
        "tags": [],
        "activation": {
          "type": "standard"
        },
        "unchainedAction": {
          "activation": {
            "cost": 2,
            "type": "action"
          }
        },
        "range": {
          "value": 30,
          "units": "ft"
        },
        "uses": {
          "value": 1,
          "per": "day"
        },
        "measureTemplate": {
          "size": "0"
        },
        "actionType": "",
        "damage": {
          "parts": [],
          "critParts": [],
          "nonCritParts": []
        },
        "attackParts": [],
        "ability": {
          "attack": "",
          "damage": ""
        },
        "save": {
          "dc": "0"
        },
        "effectNotes": [],
        "attackNotes": [],
        "links": {
          "children": []
        },
        "flags": {
          "boolean": [],
          "dictionary": []
        },
        "scriptCalls": [],
        "learnedAt": {
          "class": [
            [
              "sorcerer/wizard",
              5
            ],
            [
              "witch",
              5
            ],
            [
              "psychic",
              5
            ],
            [
              "mesmerist",
              5
            ],
            [
              "spiritualist",
              5
            ]
          ],
          "domain": [],
          "subDomain": [
            [
              "Toil",
              5
            ]
          ],
          "elementalSchool": [],
          "bloodline": [
            [
              "Undead",
              5
            ]
          ]
        },
        "level": 5,
        "school": "nec",
        "conditionals": [],
        "components": {
          "verbal": true,
          "somatic": true
        },
        "spellbook": "spelllike",
        "preparation": {
          "preparedAmount": 1,
          "maxAmount": 1
        },
        "shortDescription": "<p>Waves of negative energy render all living creatures in the spell's area fatigued. This spell has no effect on a creature that is already fatigued.</p>",
        "spellDuration": "instantaneous",
        "spellArea": "cone-shaped burst"
      },
      "effects": [],
      "folder": null,
      "sort": 0,
      "permission": {
        "default": 0
      },
      "flags": {}
    },
    {
      "_id": "1mkigzpu5hohovgw",
      "name": "Wind Walk",
      "type": "spell",
      "img": "systems/pf1/icons/misc/magic-swirl.png",
      "data": {
        "description": {
          "value": "<div class=\"spell-description\">\n  <p>\n    <strong>School</strong>&nbsp;transmutation&nbsp;[air];\n    <strong>Level</strong>&nbsp;alchemist 6, cleric/oracle 6, druid 7, shaman 7;\n    \n    <strong>Subdomain</strong>&nbsp;Wind 6;\n    \n    \n  </p>\n  <p>\n    <strong>Casting Time</strong>&nbsp;1 standard action<br>\n    <strong>Components</strong>&nbsp;V, S, DF<br>\n  </p>\n  <p>\n    <strong>Range</strong>&nbsp;touch<br>\n    \n    <strong>Targets</strong>&nbsp;you and one touched creature per three levels<br>\n    \n    <strong>Duration</strong>&nbsp;1 hour/level; see text<br>\n    <strong>Saving Throw</strong>&nbsp;none and Will negates (harmless);&nbsp;<strong>Spell Resistance</strong>&nbsp;no<br>\n  </p>\n  <h2>Description</h2>\n  <p>You alter the substance of your body to a cloudlike vapor (as the <i>gaseous form</i> spell) and move through the air, possibly at great speed. You can take other creatures with you, each of which acts independently.</p><p>Normally, a wind walker flies at a speed of 10 feet with perfect maneuverability. If desired by the subject, a magical wind wafts a wind walker along at up to 600 feet per round (60 mph) with poor maneuverability. Wind walkers are not invisible but rather appear misty and translucent. If fully clothed in white, they are 80% likely to be mistaken for clouds, fog, vapors, or the like.</p><p>A wind walker can regain its physical form as desired and later resume the cloud form. Each change to and from vaporous form takes 5 rounds, which counts toward the duration of the spell (as does any time spent in physical form). As noted above, you can dismiss the spell, and you can even dismiss it for individual wind walkers and not others.</p><p>For the last minute of the spell's duration, a wind walker in cloud form automatically descends 60 feet per round (for a total of 600 feet), though it may descend faster if it wishes. This descent serves as a warning that the spell is about to end.</p>\n</div>\n"
        },
        "tags": [],
        "activation": {
          "type": "standard"
        },
        "unchainedAction": {
          "activation": {
            "cost": 2,
            "type": "action"
          }
        },
        "target": {
          "value": "you and one touched creature per three levels"
        },
        "range": {
          "units": "touch"
        },
        "uses": {
          "value": 1,
          "per": "day"
        },
        "measureTemplate": {
          "size": "0"
        },
        "actionType": "spellsave",
        "damage": {
          "parts": [],
          "critParts": [],
          "nonCritParts": []
        },
        "attackParts": [],
        "ability": {
          "attack": "",
          "damage": ""
        },
        "save": {
          "dc": "10",
          "type": "will",
          "description": "none and Will negates (harmless)"
        },
        "effectNotes": [],
        "attackNotes": [],
        "links": {
          "children": []
        },
        "flags": {
          "boolean": [],
          "dictionary": []
        },
        "scriptCalls": [],
        "learnedAt": {
          "class": [
            [
              "cleric/oracle",
              6
            ],
            [
              "druid",
              7
            ],
            [
              "alchemist",
              6
            ],
            [
              "shaman",
              7
            ]
          ],
          "domain": [],
          "subDomain": [
            [
              "Wind",
              6
            ]
          ],
          "elementalSchool": [],
          "bloodline": []
        },
        "level": 6,
        "school": "trs",
        "types": "air",
        "conditionals": [],
        "components": {
          "verbal": true,
          "somatic": true,
          "divineFocus": 1
        },
        "spellbook": "spelllike",
        "preparation": {
          "preparedAmount": 1,
          "maxAmount": 1
        },
        "atWill": true,
        "sr": false,
        "shortDescription": "<p>You alter the substance of your body to a cloudlike vapor (as the <i>gaseous form</i> spell) and move through the air, possibly at great speed. You can take other creatures with you, each of which acts independently.</p><p>Normally, a wind walker flies at a speed of 10 feet with perfect maneuverability. If desired by the subject, a magical wind wafts a wind walker along at up to 600 feet per round (60 mph) with poor maneuverability. Wind walkers are not invisible but rather appear misty and translucent. If fully clothed in white, they are 80% likely to be mistaken for clouds, fog, vapors, or the like.</p><p>A wind walker can regain its physical form as desired and later resume the cloud form. Each change to and from vaporous form takes 5 rounds, which counts toward the duration of the spell (as does any time spent in physical form). As noted above, you can dismiss the spell, and you can even dismiss it for individual wind walkers and not others.</p><p>For the last minute of the spell's duration, a wind walker in cloud form automatically descends 60 feet per round (for a total of 600 feet), though it may descend faster if it wishes. This descent serves as a warning that the spell is about to end.</p>",
        "spellDuration": "1 hour/level; see text"
      },
      "effects": [],
      "folder": null,
      "sort": 0,
      "permission": {
        "default": 0
      },
      "flags": {}
    },
    {
      "_id": "b0z4gxiptx92p26r",
      "name": "Ecology",
      "type": "feat",
      "img": "icons/environment/wilderness/tree-oak.webp",
      "data": {
        "description": {
          "value": "<div><strong>Environment</strong>:  warm deserts, hills, and mountains</div><div><strong>Organization</strong>:  solitary, pair, or gang (3-6)</div><div><strong>Treasure</strong>:  standard</div>"
        },
        "tags": [],
        "damage": {
          "parts": [],
          "critParts": [],
          "nonCritParts": []
        },
        "attackParts": [],
        "effectNotes": [],
        "attackNotes": [],
        "changes": [],
        "contextNotes": [],
        "links": {
          "children": [],
          "charges": []
        },
        "armorProf": {
          "value": []
        },
        "weaponProf": {
          "value": []
        },
        "flags": {
          "boolean": [],
          "dictionary": []
        },
        "scriptCalls": [],
        "featType": "misc",
        "associations": {
          "classes": []
        }
      },
      "effects": [],
      "folder": null,
      "sort": 0,
      "permission": {
        "default": 0
      },
      "flags": {}
    },
    {
      "_id": "9ewdlqb3rww9q9x8",
      "name": "Blood Frenzy",
      "type": "feat",
      "img": "systems/pf1/icons/skills/yellow_36.jpg",
      "data": {
        "description": {
          "value": "When a rabisu successfully drains blood from a creature, it becomes frenzied. For 1d4 rounds after it drains blood, it acts as if affected by haste and gains fast healing 5."
        },
        "tags": [],
        "damage": {
          "parts": [],
          "critParts": [],
          "nonCritParts": []
        },
        "attackParts": [],
        "effectNotes": [],
        "attackNotes": [],
        "changes": [],
        "contextNotes": [],
        "links": {
          "children": [],
          "charges": []
        },
        "armorProf": {
          "value": []
        },
        "weaponProf": {
          "value": []
        },
        "flags": {
          "boolean": [],
          "dictionary": []
        },
        "scriptCalls": [],
        "featType": "classFeat",
        "associations": {
          "classes": []
        },
        "abilityType": "ex"
      },
      "effects": [],
      "folder": null,
      "sort": 0,
      "permission": {
        "default": 0
      },
      "flags": {}
    },
    {
      "_id": "ksyo3gtiznvqa157",
      "name": "Susceptible To Salt",
      "type": "feat",
      "img": "systems/pf1/icons/skills/yellow_36.jpg",
      "data": {
        "description": {
          "value": "A handful of salt burns a rabisu as a flask of acid would, causing 1d6 points of damage per use. Ground sprinkled with salt functions as difficult terrain for a rabisu. A line of salt placed across a doorway, window, or other aperture can largely prevent a rabisu from passing through that opening. It can attempt to go through the opening as a move action, but unless it succeeds at a DC 20 Fortitude save, the salt prevents it from completing the movement, and it becomes nauseated for 1 round."
        },
        "tags": [],
        "damage": {
          "parts": [],
          "critParts": [],
          "nonCritParts": []
        },
        "attackParts": [],
        "effectNotes": [],
        "attackNotes": [],
        "changes": [],
        "contextNotes": [],
        "links": {
          "children": [],
          "charges": []
        },
        "armorProf": {
          "value": []
        },
        "weaponProf": {
          "value": []
        },
        "flags": {
          "boolean": [],
          "dictionary": []
        },
        "scriptCalls": [],
        "featType": "classFeat",
        "associations": {
          "classes": []
        },
        "abilityType": "ex"
      },
      "effects": [],
      "folder": null,
      "sort": 0,
      "permission": {
        "default": 0
      },
      "flags": {}
    },
    {
      "_id": "1iPVtS0PkpjZnGVQ",
      "name": "sbc | Conversion Buff",
      "type": "buff",
      "img": "systems/pf1/icons/skills/yellow_36.jpg",
      "data": {
        "description": {
          "value": "<h2>sbc | Conversion Buff</h2>\n                        This Buff was created by <strong>sbc</strong> to compensate for differences between the input and the values FoundryVTT calculates automatically.\n                        <br><br>\n                        Especially when the pathfinder system gets upgraded, entries in compendiums get updated or foundry changes in some way, this buff may become outdated.\n                        <br><br>\n                        For most mooks the conversion should more or less work, but for important NPCs or creatures it is adviced to double check the conversion manually."
        },
        "tags": [],
        "changes": [
          {
            "formula": "1",
            "modifier": "Dodge",
            "operator": "add",
            "priority": 0,
            "subTarget": "ac",
            "target": "ac",
            "value": 1,
            "id": "bl1ogii8"
          },
          {
            "formula": "-6",
            "modifier": "untypedPerm",
            "operator": "add",
            "priority": 0,
            "subTarget": "mhp",
            "target": "misc",
            "value": -6,
            "id": "ox2qq75m"
          },
          {
            "formula": "-1",
            "modifier": "untypedPerm",
            "operator": "add",
            "priority": 0,
            "subTarget": "aac",
            "target": "ac",
            "value": -1,
            "id": "gzcropdm"
          },
          {
            "formula": "-4",
            "modifier": "untypedPerm",
            "operator": "add",
            "priority": 0,
            "subTarget": "skill.fly",
            "target": "skill",
            "value": -4,
            "id": "9t11jiip"
          }
        ],
        "contextNotes": [
          {
            "subTarget": "cmb",
            "target": "misc",
            "text": "+16 grapple"
          }
        ],
        "links": {
          "children": []
        },
        "tag": "sbcConversionBuff",
        "useCustomTag": true,
        "flags": {
          "boolean": [],
          "dictionary": []
        },
        "scriptCalls": [],
        "buffType": "perm",
        "active": true,
        "hideFromToken": true
      },
      "effects": [],
      "folder": null,
      "sort": 0,
      "permission": {
        "default": 0,
        "iM1ACTqH0Ml6HJtd": 3
      },
      "flags": {}
    }
  ],
  "effects": [],
  "folder": null,
  "sort": 0,
  "permission": {
    "default": 0
  },
  "flags": {}
}