{
  "_id": "8HLR4CHK8WtOEeK9",
  "name": "Nuglub",
  "type": "npc",
  "img": "systems/pf1/icons/races/creature-types/fey.png",
  "data": {
    "abilities": {
      "str": {
        "value": 13
      },
      "dex": {
        "value": 18
      },
      "con": {
        "value": 15
      },
      "int": {
        "value": 8
      },
      "wis": {
        "value": 9
      },
      "cha": {
        "value": 12
      }
    },
    "attributes": {
      "naturalAC": "+3",
      "sr": {
        "formula": "13"
      },
      "hp": {
        "value": 22
      },
      "speed": {
        "climb": {
          "base": 20
        }
      },
      "spells": {
        "usedSpellbooks": [
          "spelllike"
        ],
        "spellbooks": {
          "spelllike": {
            "altName": "Spell-like Abilities",
            "concentrationNotes": "sbc | Total in statblock was +4, adjust as needed.",
            "clNotes": "sbc | Total in statblock was CL 3, adjust as needed.",
            "autoSpellLevelCalculation": false,
            "autoSpellLevels": false,
            "arcaneSpellFailure": false,
            "spontaneous": true,
            "domainSlotValue": 0
          }
        }
      }
    },
    "details": {
      "alignment": "ce",
      "cr": {
        "base": 2
      }
    },
    "skills": {
      "acr": {
        "rank": 3
      },
      "clm": {
        "rank": 5
      },
      "int": {
        "rank": 7
      },
      "per": {
        "rank": 7
      },
      "ste": {
        "rank": 3
      }
    },
    "traits": {
      "size": "sm",
      "senses": "darkvision 120 ft., low-light vision; Perception +9",
      "dr": "5/cold iron",
      "languages": {
        "value": [
          "undercommon"
        ]
      },
      "di": {
        "value": []
      },
      "dv": {
        "value": []
      },
      "ci": {
        "value": []
      },
      "stature": ""
    }
  },
  "token": {
    "name": "Nuglub",
    "displayName": 20,
    "actorLink": false,
    "width": 1,
    "height": 1,
    "scale": 0.9,
    "mirrorX": false,
    "mirrorY": false,
    "lockRotation": false,
    "rotation": 0,
    "alpha": 1,
    "vision": false,
    "dimSight": 0,
    "brightSight": "120",
    "dimLight": 0,
    "brightLight": 0,
    "sightAngle": 0,
    "lightAngle": 0,
    "lightAlpha": 0.25,
    "lightAnimation": {
      "speed": 5,
      "intensity": 5
    },
    "disposition": -1,
    "displayBars": 20,
    "bar1": {
      "attribute": null
    },
    "bar2": {
      "attribute": null
    },
    "flags": {
      "pf1": {
        "lowLightVision": true
      }
    },
    "randomImg": false,
    "img": "systems/pf1/icons/races/creature-types/fey.png"
  },
  "items": [
    {
      "_id": "0jjH2XJVd6dzlaSm",
      "name": "Fey (Aquatic)",
      "type": "class",
      "img": "systems/pf1/icons/skills/green_10.jpg",
      "data": {
        "description": {
          "value": "<p>A fey is a creature with supernatural abilities and connections to nature or to some other force or place. Fey are usually human-shaped.</p>\n<h2><span id=\"Features\">Features</span></h2>\n<p>A fey has the following features.</p>\n<ul>\n<li>d6 Hit Die.</li>\n<li>Base attack bonus equal to 1/2 total Hit Dice (slow progression).</li>\n<li>Good&nbsp;<a href=\"https://www.d20pfsrd.com/gamemastering/combat#TOC-Reflex\">Reflex</a>&nbsp;and&nbsp;<a href=\"https://www.d20pfsrd.com/gamemastering/combat#TOC-Will\">Will</a>&nbsp;Saves.</li>\n<li>Skill points equal to 6 + Int modifier (minimum 1) per Hit Die. The following are class skills for fey: <a href=\"https://www.d20pfsrd.com/skills/acrobatics\">Acrobatics</a>, <a href=\"https://www.d20pfsrd.com/skills/bluff\">Bluff</a>, <a href=\"https://www.d20pfsrd.com/skills/climb\">Climb</a>, <a href=\"https://www.d20pfsrd.com/skills/craft\">Craft</a>, <a href=\"https://www.d20pfsrd.com/skills/diplomacy\">Diplomacy</a>, <a href=\"https://www.d20pfsrd.com/skills/disguise\">Disguise</a>, <a href=\"https://www.d20pfsrd.com/skills/escape-artist\">Escape Artist</a>, <a href=\"https://www.d20pfsrd.com/skills/fly\">Fly</a>, <a href=\"https://www.d20pfsrd.com/skills/knowledge\">Knowledge</a>&nbsp;(geography), <a href=\"https://www.d20pfsrd.com/skills/knowledge\">Knowledge</a>&nbsp;(local), <a href=\"https://www.d20pfsrd.com/skills/knowledge\">Knowledge</a>&nbsp;(nature), <a href=\"https://www.d20pfsrd.com/skills/perception\">Perception</a>, <a href=\"https://www.d20pfsrd.com/skills/perform\">Perform</a>, <a href=\"https://www.d20pfsrd.com/skills/sense-motive\">Sense Motive</a>, <a href=\"https://www.d20pfsrd.com/skills/sleight-of-hand\">Sleight of Hand</a>, <a href=\"https://www.d20pfsrd.com/skills/stealth\">Stealth</a>, <a href=\"https://www.d20pfsrd.com/skills/swim\">Swim</a>, <a href=\"https://www.d20pfsrd.com/skills/use-magic-device\">Use Magic Device</a>.</li>\n</ul>\n<h2>Traits</h2>\n<p>A fey possesses the following traits (unless otherwise noted in a creature’s entry).</p>\n<ul>\n<li><a href=\"https://www.d20pfsrd.com/gamemastering/special-abilities#TOC-Low-Light-Vision\">Low-light vision</a>.</li>\n<li>Proficient with all simple weapons and any weapons mentioned in its entry.</li>\n<li>Proficient with whatever type of armor (light, medium, or heavy) it is described as wearing, as well as all lighter types. Fey not indicated as wearing armor are not proficient with armor. Fey are proficient with shields if they are proficient with any form of armor.</li>\n<li>Fey breathe, eat, and sleep.</li>\n</ul>"
        },
        "tags": [],
        "changes": [],
        "links": "",
        "tag": "fey",
        "useCustomTag": true,
        "armorProf": {
          "value": []
        },
        "weaponProf": {
          "value": []
        },
        "flags": {
          "boolean": [],
          "dictionary": []
        },
        "scriptCalls": [],
        "classType": "racial",
        "level": 3,
        "hd": 6,
        "hp": 16,
        "skillsPerLevel": 6,
        "savingThrows": {
          "ref": {
            "value": "high"
          },
          "will": {
            "value": "high"
          }
        },
        "classSkills": {
          "acr": true,
          "apr": false,
          "art": false,
          "blf": true,
          "clm": true,
          "crf": true,
          "dip": true,
          "dev": false,
          "dis": true,
          "esc": true,
          "fly": true,
          "han": false,
          "hea": false,
          "int": false,
          "kar": false,
          "kdu": false,
          "ken": false,
          "kge": true,
          "khi": false,
          "klo": true,
          "kna": true,
          "kno": false,
          "kpl": false,
          "kre": false,
          "lin": false,
          "lor": false,
          "per": true,
          "prf": true,
          "pro": false,
          "rid": false,
          "sen": true,
          "slt": true,
          "spl": false,
          "ste": true,
          "sur": false,
          "swm": true,
          "umd": true
        }
      },
      "effects": [],
      "folder": null,
      "sort": 0,
      "permission": {
        "default": 0
      },
      "flags": {}
    },
    {
      "_id": "d8zmmogwqgbxjt3u",
      "name": "Race: Fey",
      "type": "race",
      "img": "systems/pf1/icons/skills/green_10.jpg",
      "data": {
        "description": {
          "value": "sbc | As no playable race was found a placeholder was generated."
        },
        "tags": [],
        "changes": [],
        "contextNotes": [],
        "links": {
          "children": []
        },
        "armorProf": {
          "value": []
        },
        "weaponProf": {
          "value": []
        },
        "flags": {
          "boolean": [],
          "dictionary": []
        },
        "scriptCalls": [],
        "creatureType": "fey",
        "subTypes": [
          [
            ""
          ]
        ]
      },
      "effects": [],
      "folder": null,
      "sort": 0,
      "permission": {
        "default": 0
      },
      "flags": {}
    },
    {
      "_id": "b51t85bdyvd69g6u",
      "name": "Sense: Darkvision 120ft.",
      "type": "feat",
      "img": "systems/pf1/icons/skills/shadow_12.jpg",
      "data": {
        "description": {
          "value": "Darkvision is the extraordinary ability to see with no light source at all, out to a range specified for the creature. Darkvision is black-and-white only (colors cannot be discerned). It does not allow characters to see anything that they could not see otherwise—invisible objects are still invisible, and illusions are still visible as what they seem to be. Likewise, darkvision subjects a creature to gaze attacks normally. The presence of light does not spoil darkvision."
        },
        "tags": [],
        "damage": {
          "parts": [],
          "critParts": [],
          "nonCritParts": []
        },
        "attackParts": [],
        "effectNotes": [],
        "attackNotes": [],
        "changes": [],
        "contextNotes": [],
        "links": {
          "children": [],
          "charges": []
        },
        "tag": "senseDarkvision120ft",
        "armorProf": {
          "value": []
        },
        "weaponProf": {
          "value": []
        },
        "flags": {
          "boolean": [],
          "dictionary": []
        },
        "scriptCalls": [],
        "featType": "racial",
        "associations": {
          "classes": []
        },
        "abilityType": "ex"
      },
      "effects": [],
      "folder": null,
      "sort": 0,
      "permission": {
        "default": 0
      },
      "flags": {}
    },
    {
      "_id": "ptytq42dmm6zsxsv",
      "name": "Sense: Low-light Vision",
      "type": "feat",
      "img": "systems/pf1/icons/skills/shadow_11.jpg",
      "data": {
        "description": {
          "value": "A creature with low-light vision can see twice as far as a human in starlight, moonlight, torchlight, and similar conditions of dim light. It retains the ability to distinguish color and detail under these conditions."
        },
        "tags": [],
        "damage": {
          "parts": [],
          "critParts": [],
          "nonCritParts": []
        },
        "attackParts": [],
        "effectNotes": [],
        "attackNotes": [],
        "changes": [],
        "contextNotes": [],
        "links": {
          "children": [],
          "charges": []
        },
        "tag": "senseLowlightVision",
        "armorProf": {
          "value": []
        },
        "weaponProf": {
          "value": []
        },
        "flags": {
          "boolean": [],
          "dictionary": []
        },
        "scriptCalls": [],
        "featType": "racial",
        "associations": {
          "classes": []
        },
        "abilityType": "ex"
      },
      "effects": [],
      "folder": null,
      "sort": 0,
      "permission": {
        "default": 0
      },
      "flags": {}
    },
    {
      "_id": "Mz8ZG6nqW3NKFZhK",
      "name": "Step Up",
      "type": "feat",
      "img": "systems/pf1/icons/feats/step-up.png",
      "data": {
        "description": {
          "value": "\n                <i>You can close the distance when a foe tries to move away.</i>\n                <br />\n                <br />\n                \n                <p><b>Prerequisites</b></p>\n                <p> Base attack bonus +1.</p>\n                \n            <br />\n                <p><b>Benefits</b></p>\n                <p><p class=\"stat-block-1\"> Whenever an adjacent foe attempts to take a 5-foot step away from you, you may also make a 5-foot step as an immediate action so long as you end up adjacent to the foe that triggered this ability. If you take this step, you cannot take a 5-foot step during your next turn. If you take an action to move during your next turn, subtract 5 feet from your total movement.</p></p>\n                \n            \n            "
        },
        "tags": [
          [
            "Combat"
          ],
          [
            "Movement"
          ],
          [
            "Offensive"
          ]
        ],
        "measureTemplate": {
          "size": "0"
        },
        "actionType": "",
        "damage": {
          "parts": [],
          "critParts": [],
          "nonCritParts": []
        },
        "attackParts": [],
        "effectNotes": [],
        "attackNotes": [],
        "changes": [],
        "contextNotes": [],
        "links": {
          "children": [],
          "charges": []
        },
        "tag": "stepUp",
        "armorProf": {
          "value": []
        },
        "weaponProf": {
          "value": []
        },
        "flags": {
          "boolean": [],
          "dictionary": []
        },
        "scriptCalls": [],
        "associations": {
          "classes": []
        }
      },
      "effects": [],
      "folder": null,
      "sort": 0,
      "permission": {
        "default": 0
      },
      "flags": {}
    },
    {
      "_id": "tcsf08qbumgk2gtx",
      "name": "Toughnessb",
      "type": "feat",
      "img": "systems/pf1/icons/skills/yellow_36.jpg",
      "data": {
        "description": {
          "value": "sbc | As ToughnessB could not be found in any compendium, a placeholder was generated."
        },
        "tags": [],
        "damage": {
          "parts": [],
          "critParts": [],
          "nonCritParts": []
        },
        "attackParts": [],
        "effectNotes": [],
        "attackNotes": [],
        "changes": [],
        "contextNotes": [],
        "links": {
          "children": [],
          "charges": []
        },
        "armorProf": {
          "value": []
        },
        "weaponProf": {
          "value": []
        },
        "flags": {
          "boolean": [],
          "dictionary": []
        },
        "scriptCalls": [],
        "associations": {
          "classes": []
        }
      },
      "effects": [],
      "folder": null,
      "sort": 0,
      "permission": {
        "default": 0
      },
      "flags": {}
    },
    {
      "_id": "n250dFlbykAIAg5Z",
      "name": "Weapon Focus",
      "type": "feat",
      "img": "systems/pf1/icons/feats/weapon-focus.jpg",
      "data": {
        "description": {
          "value": "\n                <i>Choose one type of weapon. You can also choose unarmed strike or grapple (or ray, if you are a spellcaster) as your weapon for the purposes of this feat.</i>\n                <br />\n                <br />\n                \n                <p><b>Prerequisites</b></p>\n                <p> Proficiency with selected weapon, base attack bonus +1.</p>\n                \n            <br />\n                <p><b>Benefits</b></p>\n                <p><p class=\"stat-block-1\"> You gain a +1 bonus on all attack rolls you make using the selected weapon.</p></p>\n                \n            <br />\n                <p><b>Special</b></p>\n                <p><p class=\"stat-block-1\"> You can gain this feat multiple times. Its effects do not stack. Each time you take the feat, it applies to a new type of weapon.</p></p>\n                \n            \n            "
        },
        "tags": [
          [
            "Combat"
          ],
          [
            "Weapon"
          ],
          [
            "Offensive"
          ]
        ],
        "measureTemplate": {
          "size": "0"
        },
        "actionType": "",
        "damage": {
          "parts": [],
          "critParts": [],
          "nonCritParts": []
        },
        "attackParts": [],
        "effectNotes": [],
        "attackNotes": [],
        "changes": [],
        "contextNotes": [],
        "links": {
          "children": [],
          "charges": []
        },
        "tag": "weaponFocus",
        "armorProf": {
          "value": []
        },
        "weaponProf": {
          "value": []
        },
        "flags": {
          "boolean": [],
          "dictionary": []
        },
        "scriptCalls": [],
        "associations": {
          "classes": []
        }
      },
      "effects": [],
      "folder": null,
      "sort": 0,
      "permission": {
        "default": 0
      },
      "flags": {}
    },
    {
      "_id": "npwcrdvmpsmi12do",
      "name": "Special Quality: Kneecapper",
      "type": "feat",
      "img": "systems/pf1/icons/skills/yellow_36.jpg",
      "data": {
        "description": {
          "value": "sbc | Placeholder for Special Qualities, which in most statblocks are listed under SQ in the statistics block, but described in the Special Abilities. Remove duplicates as needed!"
        },
        "tags": [],
        "damage": {
          "parts": [],
          "critParts": [],
          "nonCritParts": []
        },
        "attackParts": [],
        "effectNotes": [],
        "attackNotes": [],
        "changes": [],
        "contextNotes": [],
        "links": {
          "children": [],
          "charges": []
        },
        "armorProf": {
          "value": []
        },
        "weaponProf": {
          "value": []
        },
        "flags": {
          "boolean": [],
          "dictionary": []
        },
        "scriptCalls": [],
        "featType": "misc",
        "associations": {
          "classes": []
        }
      },
      "effects": [],
      "folder": null,
      "sort": 0,
      "permission": {
        "default": 0
      },
      "flags": {}
    },
    {
      "_id": "x2ikri45ujgx6qoj",
      "name": "Bite",
      "type": "attack",
      "img": "systems/pf1/icons/items/inventory/monster-head.jpg",
      "data": {
        "tags": [],
        "activation": {
          "type": "attack"
        },
        "unchainedAction": {
          "activation": {
            "type": "attack"
          }
        },
        "duration": {
          "units": "inst"
        },
        "range": {
          "value": "",
          "units": "melee"
        },
        "attackName": "Bite",
        "actionType": "mwak",
        "attackBonus": "0",
        "damage": {
          "parts": [
            [
              "1d4+0",
              "B, P and S"
            ]
          ],
          "critParts": [],
          "nonCritParts": []
        },
        "attackParts": [],
        "ability": {
          "attack": "str",
          "damage": "str"
        },
        "effectNotes": [
          "grab"
        ],
        "attackNotes": [
          "bite +3 (1d4+1 plus grab)"
        ],
        "links": {
          "children": [],
          "charges": [],
          "ammunition": []
        },
        "flags": {
          "boolean": [],
          "dictionary": []
        },
        "scriptCalls": [],
        "attackType": "natural",
        "conditionals": []
      },
      "effects": [],
      "folder": null,
      "sort": 0,
      "permission": {
        "default": 0
      },
      "flags": {}
    },
    {
      "_id": "jkoi9r1va58t1ri9",
      "name": "Claws",
      "type": "attack",
      "img": "systems/pf1/icons/items/inventory/monster-paw-bear.jpg",
      "data": {
        "tags": [],
        "activation": {
          "type": "attack"
        },
        "unchainedAction": {
          "activation": {
            "type": "attack"
          }
        },
        "duration": {
          "units": "inst"
        },
        "range": {
          "value": "",
          "units": "melee"
        },
        "attackName": "Claws",
        "actionType": "mwak",
        "attackBonus": "1",
        "damage": {
          "parts": [
            [
              "1d3+0",
              "B and S"
            ]
          ],
          "critParts": [],
          "nonCritParts": []
        },
        "attackParts": [
          [
            "0",
            "Claws: 1"
          ]
        ],
        "ability": {
          "attack": "str",
          "damage": "str"
        },
        "effectNotes": [
          "trip"
        ],
        "attackNotes": [
          "2 claws +4 (1d3+1 plus trip)"
        ],
        "links": {
          "children": [],
          "charges": [],
          "ammunition": []
        },
        "flags": {
          "boolean": [],
          "dictionary": []
        },
        "scriptCalls": [],
        "attackType": "natural",
        "conditionals": []
      },
      "effects": [],
      "folder": null,
      "sort": 0,
      "permission": {
        "default": 0
      },
      "flags": {}
    },
    {
      "_id": "a6isom7wx0nmhwfp",
      "name": "Prestidigitation",
      "type": "spell",
      "img": "systems/pf1/icons/misc/magic-swirl.png",
      "data": {
        "description": {
          "value": "<div class=\"spell-description\">\n  <p>\n    <strong>School</strong>&nbsp;universal;\n    <strong>Level</strong>&nbsp;bard 0, magus 0, medium 0, mesmerist 0, psychic 0, sorcerer/wizard 0;\n    \n    \n    \n    \n  </p>\n  <p>\n    <strong>Casting Time</strong>&nbsp;1 standard action<br>\n    <strong>Components</strong>&nbsp;V, S<br>\n  </p>\n  <p>\n    <strong>Range</strong>&nbsp;10 feet<br>\n    <strong>Area</strong>&nbsp;see text<br>\n    <strong>Targets</strong>&nbsp;see text<br>\n    <strong>Effect</strong>&nbsp;see text<br>\n    <strong>Duration</strong>&nbsp;1 hour<br>\n    <strong>Saving Throw</strong>&nbsp;see text;&nbsp;<strong>Spell Resistance</strong>&nbsp;no<br>\n  </p>\n  <h2>Description</h2>\n  <p>Prestidigitations are minor tricks that novice spellcasters use for practice. Once cast, a prestidigitation spell enables you to perform simple magical effects for 1 hour. The effects are minor and have severe limitations. A prestidigitation can slowly lift 1 pound of material. It can color, clean, or soil items in a 1-foot cube each round. It can chill, warm, or flavor 1 pound of nonliving material. It cannot deal damage or affect the concentration of spellcasters. Prestidigitation can create small objects, but they look crude and artificial. The materials created by a prestidigitation spell are extremely fragile, and they cannot be used as tools, weapons, or spell components. Finally, prestidigitation lacks the power to duplicate any other spell effects. Any actual change to an object (beyond just moving, cleaning, or soiling it) persists only 1 hour.</p>\n</div>\n"
        },
        "tags": [],
        "activation": {
          "type": "standard"
        },
        "unchainedAction": {
          "activation": {
            "cost": 2,
            "type": "action"
          }
        },
        "target": {
          "value": "see text"
        },
        "range": {
          "value": 10,
          "units": "ft"
        },
        "uses": {
          "value": 3,
          "per": "day"
        },
        "measureTemplate": {
          "size": "0"
        },
        "actionType": "spellsave",
        "damage": {
          "parts": [],
          "critParts": [],
          "nonCritParts": []
        },
        "attackParts": [],
        "ability": {
          "attack": "",
          "damage": ""
        },
        "save": {
          "dc": "2",
          "description": "see text"
        },
        "effectNotes": [],
        "attackNotes": [],
        "links": {
          "children": []
        },
        "flags": {
          "boolean": [],
          "dictionary": []
        },
        "scriptCalls": [],
        "learnedAt": {
          "class": [
            [
              "sorcerer/wizard",
              0
            ],
            [
              "bard",
              0
            ],
            [
              "magus",
              0
            ],
            [
              "psychic",
              0
            ],
            [
              "medium",
              0
            ],
            [
              "mesmerist",
              0
            ]
          ],
          "domain": [],
          "subDomain": [],
          "elementalSchool": [],
          "bloodline": []
        },
        "level": 0,
        "school": "uni",
        "conditionals": [],
        "components": {
          "verbal": true,
          "somatic": true
        },
        "spellbook": "spelllike",
        "preparation": {
          "preparedAmount": 3,
          "maxAmount": 3,
          "autoDeductCharges": false
        },
        "atWill": true,
        "sr": false,
        "shortDescription": "<p>Prestidigitations are minor tricks that novice spellcasters use for practice. Once cast, a prestidigitation spell enables you to perform simple magical effects for 1 hour. The effects are minor and have severe limitations. A prestidigitation can slowly lift 1 pound of material. It can color, clean, or soil items in a 1-foot cube each round. It can chill, warm, or flavor 1 pound of nonliving material. It cannot deal damage or affect the concentration of spellcasters. Prestidigitation can create small objects, but they look crude and artificial. The materials created by a prestidigitation spell are extremely fragile, and they cannot be used as tools, weapons, or spell components. Finally, prestidigitation lacks the power to duplicate any other spell effects. Any actual change to an object (beyond just moving, cleaning, or soiling it) persists only 1 hour.</p>",
        "spellDuration": "1 hour",
        "spellEffect": "see text",
        "spellArea": "see text"
      },
      "effects": [],
      "folder": null,
      "sort": 0,
      "permission": {
        "default": 0
      },
      "flags": {}
    },
    {
      "_id": "3b1x69kfhnsa2d54",
      "name": "Heat Metal",
      "type": "spell",
      "img": "systems/pf1/icons/misc/magic-swirl.png",
      "data": {
        "description": {
          "value": "<div class=\"spell-description\">\n  <p>\n    <strong>School</strong>&nbsp;transmutation&nbsp;[fire];\n    <strong>Level</strong>&nbsp;druid 2, hunter 2, occultist 2, psychic 2;\n    <strong>Domain</strong>&nbsp;Sun 2;\n    <strong>Subdomain</strong>&nbsp;Metal 2;\n    \n    \n  </p>\n  <p>\n    <strong>Casting Time</strong>&nbsp;1 standard action<br>\n    <strong>Components</strong>&nbsp;V, S, DF<br>\n  </p>\n  <p>\n    <strong>Range</strong>&nbsp;close (25 ft. + 5 ft./2 levels)<br>\n    \n    <strong>Targets</strong>&nbsp;metal equipment of one creature per two levels, no two of which can be more than 30 ft. apart; or 25 lbs. of metal/level, all of which must be within a 30-ft. circle<br>\n    \n    <strong>Duration</strong>&nbsp;7 rounds<br>\n    <strong>Saving Throw</strong>&nbsp;Will negates (object);&nbsp;<strong>Spell Resistance</strong>&nbsp;yes<br>\n  </p>\n  <h2>Description</h2>\n  <p><i>Heat metal</i> causes metal objects to become red-hot.</p><p>Unattended, nonmagical metal gets no saving throw. Magical metal is allowed a saving throw against the spell. An item in a creature's possession uses the creature's saving throw bonus unless its own is higher.</p><p>A creature takes fire damage if its equipment is heated. It takes full damage if its armor, shield, or weapon is affected. The creature takes minimum damage (1 point or 2 points; see the table) if it's not wearing or wielding such an item.</p><p>On the first round of the spell, the metal becomes warm and uncomfortable to touch but deals no damage. The same effect also occurs on the last round of the spell's duration. During the second (and also the next-to-last) round, intense heat causes pain and damage. In the third, fourth, and fifth rounds, the metal is searing hot, and causes more damage, as shown on the table presented on the following page.</p>    <table border ='1'><tr><th>Round</th><th>Metal Temperature Damage</th></tr><tr><td>1</td><td>Warm None</td></tr><tr><td>2</td><td>Hot 1d4 points</td></tr><tr><td>3-5</td><td>Searing 2d4 points</td></tr><tr><td>6</td><td>Hot 1d4 points</td></tr><tr><td>7</td><td>Warm None</td></tr></table>     Any cold intense enough to damage the creature negates fire damage from the spell (and vice versa) on a point-for-point basis.</p><p>If cast underwater, <i>heat metal</i> deals half damage and boils the surrounding water.</p><p><i>Heat metal</i> counters and dispels <i>chill metal</i>.</p>\n</div>\n"
        },
        "tags": [],
        "activation": {
          "type": "standard"
        },
        "unchainedAction": {
          "activation": {
            "cost": 2,
            "type": "action"
          }
        },
        "target": {
          "value": "metal equipment of one creature per two levels, no two of which can be more than 30 ft. apart; or 25 lbs. of metal/level, all of which must be within a 30-ft. circle"
        },
        "range": {
          "units": "close"
        },
        "uses": {
          "per": ""
        },
        "measureTemplate": {
          "size": "0"
        },
        "actionType": "spellsave",
        "damage": {
          "parts": [],
          "critParts": [],
          "nonCritParts": []
        },
        "attackParts": [],
        "ability": {
          "attack": "",
          "damage": ""
        },
        "save": {
          "dc": "1",
          "type": "will",
          "description": "Will negates (object)"
        },
        "effectNotes": [],
        "attackNotes": [],
        "links": {
          "children": []
        },
        "flags": {
          "boolean": [],
          "dictionary": []
        },
        "scriptCalls": [],
        "learnedAt": {
          "class": [
            [
              "druid",
              2
            ],
            [
              "psychic",
              2
            ],
            [
              "occultist",
              2
            ],
            [
              "hunter",
              2
            ]
          ],
          "domain": [
            [
              "Sun",
              2
            ]
          ],
          "subDomain": [
            [
              "Metal",
              2
            ]
          ],
          "elementalSchool": [],
          "bloodline": []
        },
        "school": "trs",
        "types": "fire",
        "conditionals": [],
        "components": {
          "verbal": true,
          "somatic": true,
          "divineFocus": 1
        },
        "spellbook": "spelllike",
        "shortDescription": "<p><i>Heat metal</i> causes metal objects to become red-hot.</p><p>Unattended, nonmagical metal gets no saving throw. Magical metal is allowed a saving throw against the spell. An item in a creature's possession uses the creature's saving throw bonus unless its own is higher.</p><p>A creature takes fire damage if its equipment is heated. It takes full damage if its armor, shield, or weapon is affected. The creature takes minimum damage (1 point or 2 points; see the table) if it's not wearing or wielding such an item.</p><p>On the first round of the spell, the metal becomes warm and uncomfortable to touch but deals no damage. The same effect also occurs on the last round of the spell's duration. During the second (and also the next-to-last) round, intense heat causes pain and damage. In the third, fourth, and fifth rounds, the metal is searing hot, and causes more damage, as shown on the table presented on the following page.</p>    <table border ='1'><tr><th>Round</th><th>Metal Temperature Damage</th></tr><tr><td>1</td><td>Warm None</td></tr><tr><td>2</td><td>Hot 1d4 points</td></tr><tr><td>3-5</td><td>Searing 2d4 points</td></tr><tr><td>6</td><td>Hot 1d4 points</td></tr><tr><td>7</td><td>Warm None</td></tr></table>     Any cold intense enough to damage the creature negates fire damage from the spell (and vice versa) on a point-for-point basis.</p><p>If cast underwater, <i>heat metal</i> deals half damage and boils the surrounding water.</p><p><i>Heat metal</i> counters and dispels <i>chill metal</i>.</p>",
        "spellDuration": "7 rounds"
      },
      "effects": [],
      "folder": null,
      "sort": 0,
      "permission": {
        "default": 0
      },
      "flags": {}
    },
    {
      "_id": "33pe0bge7b7aq3io",
      "name": "Shocking Grasp",
      "type": "spell",
      "img": "systems/pf1/icons/misc/magic-swirl.png",
      "data": {
        "description": {
          "value": "<div class=\"spell-description\">\n  <p>\n    <strong>School</strong>&nbsp;evocation&nbsp;[electricity];\n    <strong>Level</strong>&nbsp;bloodrager 1, magus 1, occultist 1, sorcerer/wizard 1;\n    \n    \n    \n    <strong>Bloodline</strong>&nbsp;Djinni 1, Stormborn 1;\n  </p>\n  <p>\n    <strong>Casting Time</strong>&nbsp;1 standard action<br>\n    <strong>Components</strong>&nbsp;V, S<br>\n  </p>\n  <p>\n    <strong>Range</strong>&nbsp;touch<br>\n    \n    <strong>Targets</strong>&nbsp;creature or object touched<br>\n    \n    <strong>Duration</strong>&nbsp;instantaneous<br>\n    <strong>Saving Throw</strong>&nbsp;none;&nbsp;<strong>Spell Resistance</strong>&nbsp;yes<br>\n  </p>\n  <h2>Description</h2>\n  <p>Your successful melee touch attack deals 1d6 points of electricity damage per caster level (maximum 5d6). When delivering the jolt, you gain a +3 bonus on attack rolls if the opponent is wearing metal armor (or is carrying a metal weapon or is made of metal).</p>\n</div>\n"
        },
        "tags": [],
        "activation": {
          "type": "standard"
        },
        "unchainedAction": {
          "activation": {
            "cost": 2,
            "type": "action"
          }
        },
        "target": {
          "value": "creature or object touched"
        },
        "range": {
          "units": "touch"
        },
        "uses": {
          "per": ""
        },
        "measureTemplate": {
          "size": "0"
        },
        "actionType": "msak",
        "damage": {
          "parts": [
            [
              "(min(5, @cl))d6",
              "Electric"
            ]
          ],
          "critParts": [],
          "nonCritParts": []
        },
        "attackParts": [],
        "ability": {
          "attack": "str",
          "damage": ""
        },
        "save": {
          "dc": "0"
        },
        "effectNotes": [],
        "attackNotes": [],
        "links": {
          "children": []
        },
        "flags": {
          "boolean": [],
          "dictionary": []
        },
        "scriptCalls": [],
        "learnedAt": {
          "class": [
            [
              "sorcerer/wizard",
              1
            ],
            [
              "magus",
              1
            ],
            [
              "bloodrager",
              1
            ],
            [
              "occultist",
              1
            ]
          ],
          "domain": [],
          "subDomain": [],
          "elementalSchool": [],
          "bloodline": [
            [
              "Djinni",
              1
            ],
            [
              "Stormborn",
              1
            ]
          ]
        },
        "school": "evo",
        "types": "electricity",
        "conditionals": [],
        "components": {
          "verbal": true,
          "somatic": true
        },
        "spellbook": "spelllike",
        "shortDescription": "<p>Your successful melee touch attack deals 1d6 points of electricity damage per caster level (maximum 5d6). When delivering the jolt, you gain a +3 bonus on attack rolls if the opponent is wearing metal armor (or is carrying a metal weapon or is made of metal).</p>",
        "spellDuration": "instantaneous"
      },
      "effects": [],
      "folder": null,
      "sort": 0,
      "permission": {
        "default": 0
      },
      "flags": {}
    },
    {
      "_id": "vhxezfop50r7z8zm",
      "name": "Snare",
      "type": "spell",
      "img": "systems/pf1/icons/misc/magic-swirl.png",
      "data": {
        "description": {
          "value": "<div class=\"spell-description\">\n  <p>\n    <strong>School</strong>&nbsp;transmutation;\n    <strong>Level</strong>&nbsp;druid 3, hunter 2, ranger 2;\n    \n    <strong>Subdomain</strong>&nbsp;Trap 2;\n    \n    \n  </p>\n  <p>\n    <strong>Casting Time</strong>&nbsp;3 round<br>\n    <strong>Components</strong>&nbsp;V, S, DF<br>\n  </p>\n  <p>\n    <strong>Range</strong>&nbsp;touch<br>\n    \n    <strong>Targets</strong>&nbsp;touched nonmagical circle of vine, rope, or thong with a 2 ft. diameter + 2 ft./level<br>\n    \n    <strong>Duration</strong>&nbsp;Until triggered or broken<br>\n    <strong>Saving Throw</strong>&nbsp;none;&nbsp;<strong>Spell Resistance</strong>&nbsp;no<br>\n  </p>\n  <h2>Description</h2>\n  <p>This spell enables you to make a <i>snare</i> that functions as a magic trap. The <i>snare</i> can be made from any supple vine, a thong, or a rope. When you cast <i>snare</i> upon it, the cordlike object blends with its surroundings (DC 23 Perception check for a character with the trapfinding ability to locate). One end of the <i>snare</i> is tied in a loop that contracts around one or more of the limbs of any creature stepping inside the circle.</p><p>If a strong and supple tree is nearby, the <i>snare</i> can be fastened to it. The spell causes the tree to bend, straightening when the loop is triggered, dealing 1d6 points of damage to the creature trapped and lifting it off the ground by the trapped limb or limbs. If no such tree is available, the cordlike object tightens around the creature, dealing no damage but causing it to be entangled.</p><p>The <i>snare</i> is magical. To escape, a trapped creature must make a DC 23 Escape Artist check or a DC 23 Strength check that is a full-round action. The <i>snare</i> has AC 7 and 5 hit points. A successful escape from the <i>snare</i> breaks the loop and ends the spell.</p>\n</div>\n"
        },
        "tags": [],
        "activation": {
          "cost": 3,
          "type": "round"
        },
        "unchainedAction": {
          "activation": {
            "cost": 9,
            "type": "action"
          }
        },
        "target": {
          "value": "touched nonmagical circle of vine, rope, or thong with a 2 ft. diameter + 2 ft./level"
        },
        "range": {
          "units": "touch"
        },
        "uses": {
          "value": 1,
          "per": "day"
        },
        "measureTemplate": {
          "size": "0"
        },
        "actionType": "",
        "damage": {
          "parts": [],
          "critParts": [],
          "nonCritParts": []
        },
        "attackParts": [],
        "ability": {
          "attack": "",
          "damage": ""
        },
        "save": {
          "dc": "0"
        },
        "effectNotes": [],
        "attackNotes": [],
        "links": {
          "children": []
        },
        "flags": {
          "boolean": [],
          "dictionary": []
        },
        "scriptCalls": [],
        "learnedAt": {
          "class": [
            [
              "druid",
              3
            ],
            [
              "ranger",
              2
            ],
            [
              "hunter",
              2
            ]
          ],
          "domain": [],
          "subDomain": [
            [
              "Trap",
              2
            ]
          ],
          "elementalSchool": [],
          "bloodline": []
        },
        "school": "trs",
        "conditionals": [],
        "components": {
          "verbal": true,
          "somatic": true,
          "divineFocus": 1
        },
        "spellbook": "spelllike",
        "preparation": {
          "preparedAmount": 1,
          "maxAmount": 1
        },
        "sr": false,
        "shortDescription": "<p>This spell enables you to make a <i>snare</i> that functions as a magic trap. The <i>snare</i> can be made from any supple vine, a thong, or a rope. When you cast <i>snare</i> upon it, the cordlike object blends with its surroundings (DC 23 Perception check for a character with the trapfinding ability to locate). One end of the <i>snare</i> is tied in a loop that contracts around one or more of the limbs of any creature stepping inside the circle.</p><p>If a strong and supple tree is nearby, the <i>snare</i> can be fastened to it. The spell causes the tree to bend, straightening when the loop is triggered, dealing 1d6 points of damage to the creature trapped and lifting it off the ground by the trapped limb or limbs. If no such tree is available, the cordlike object tightens around the creature, dealing no damage but causing it to be entangled.</p><p>The <i>snare</i> is magical. To escape, a trapped creature must make a DC 23 Escape Artist check or a DC 23 Strength check that is a full-round action. The <i>snare</i> has AC 7 and 5 hit points. A successful escape from the <i>snare</i> breaks the loop and ends the spell.</p>",
        "spellDuration": "Until triggered or broken"
      },
      "effects": [],
      "folder": null,
      "sort": 0,
      "permission": {
        "default": 0
      },
      "flags": {}
    },
    {
      "_id": "f0nnj3x5lgm0vy30",
      "name": "Ecology",
      "type": "feat",
      "img": "icons/environment/wilderness/tree-oak.webp",
      "data": {
        "description": {
          "value": "<div><strong>Environment</strong>:  any underground or urban</div><div><strong>Organization</strong>:  solitary, pair, or mob (3-6)</div><div><strong>Treasure</strong>:  standard</div>"
        },
        "tags": [],
        "damage": {
          "parts": [],
          "critParts": [],
          "nonCritParts": []
        },
        "attackParts": [],
        "effectNotes": [],
        "attackNotes": [],
        "changes": [],
        "contextNotes": [],
        "links": {
          "children": [],
          "charges": []
        },
        "armorProf": {
          "value": []
        },
        "weaponProf": {
          "value": []
        },
        "flags": {
          "boolean": [],
          "dictionary": []
        },
        "scriptCalls": [],
        "featType": "misc",
        "associations": {
          "classes": []
        }
      },
      "effects": [],
      "folder": null,
      "sort": 0,
      "permission": {
        "default": 0
      },
      "flags": {}
    },
    {
      "_id": "igi0b0tkd4u0i42c",
      "name": "Kneecapper",
      "type": "feat",
      "img": "systems/pf1/icons/skills/yellow_36.jpg",
      "data": {
        "description": {
          "value": "A nuglub has a +4 racial bonus on combat maneuver checks to trip an opponent."
        },
        "tags": [],
        "damage": {
          "parts": [],
          "critParts": [],
          "nonCritParts": []
        },
        "attackParts": [],
        "effectNotes": [],
        "attackNotes": [],
        "changes": [],
        "contextNotes": [],
        "links": {
          "children": [],
          "charges": []
        },
        "armorProf": {
          "value": []
        },
        "weaponProf": {
          "value": []
        },
        "flags": {
          "boolean": [],
          "dictionary": []
        },
        "scriptCalls": [],
        "featType": "classFeat",
        "associations": {
          "classes": []
        },
        "abilityType": "ex"
      },
      "effects": [],
      "folder": null,
      "sort": 0,
      "permission": {
        "default": 0
      },
      "flags": {}
    },
    {
      "_id": "7gicVx8MOBnwBWa4",
      "name": "sbc | Conversion Buff",
      "type": "buff",
      "img": "systems/pf1/icons/skills/yellow_36.jpg",
      "data": {
        "description": {
          "value": "<h2>sbc | Conversion Buff</h2>\n                        This Buff was created by <strong>sbc</strong> to compensate for differences between the input and the values FoundryVTT calculates automatically.\n                        <br><br>\n                        Especially when the pathfinder system gets upgraded, entries in compendiums get updated or foundry changes in some way, this buff may become outdated.\n                        <br><br>\n                        For most mooks the conversion should more or less work, but for important NPCs or creatures it is adviced to double check the conversion manually."
        },
        "tags": [],
        "changes": [
          {
            "formula": "-3",
            "modifier": "untypedPerm",
            "operator": "add",
            "priority": 0,
            "subTarget": "mhp",
            "target": "misc",
            "value": -3,
            "id": "60lg8dcu"
          },
          {
            "formula": "-8",
            "modifier": "untypedPerm",
            "operator": "add",
            "priority": 0,
            "subTarget": "skill.clm",
            "target": "skill",
            "value": -8,
            "id": "akjcg0t0"
          }
        ],
        "contextNotes": [
          {
            "subTarget": "cmb",
            "target": "misc",
            "text": "+5 grapple and trip"
          }
        ],
        "links": {
          "children": []
        },
        "tag": "sbcConversionBuff",
        "useCustomTag": true,
        "flags": {
          "boolean": [],
          "dictionary": []
        },
        "scriptCalls": [],
        "buffType": "perm",
        "active": true,
        "hideFromToken": true
      },
      "effects": [],
      "folder": null,
      "sort": 0,
      "permission": {
        "default": 0,
        "iM1ACTqH0Ml6HJtd": 3
      },
      "flags": {}
    }
  ],
  "effects": [],
  "folder": null,
  "sort": 0,
  "permission": {
    "default": 0
  },
  "flags": {}
}