{
  "_id": "vunhkplu0saw5c0p",
  "name": "Accursed Glare",
  "type": "spell",
  "img": "systems/pf1/icons/misc/magic-swirl.png",
  "data": {
    "description": {
      "value": "<div class=\"spell-description\">\n  <p>\n    <strong>School</strong>&nbsp;necromancy&nbsp;[curse];\n    <strong>Level</strong>&nbsp;antipaladin 3, sorcerer/wizard 3, witch 3;\n    \n    \n    \n    \n  </p>\n  <p>\n    <strong>Casting Time</strong>&nbsp;1 round<br>\n    <strong>Components</strong>&nbsp;V, S<br>\n  </p>\n  <p>\n    <strong>Range</strong>&nbsp;close (25 ft. + 5 ft./2 levels)<br>\n    \n    <strong>Targets</strong>&nbsp;one creature<br>\n    \n    <strong>Duration</strong>&nbsp;1 day/level<br>\n      <strong>Saving Throw</strong>&nbsp;Will negates;&nbsp;\n      <strong>Spell Resistance</strong>&nbsp;yes<br>\n  </p>\n  <h2>Description</h2>\n  <p>You channel a fell curse through your glare. If the target fails its saving throw, it begins to obsessively second-guess its actions and attract bad luck. Whenever the target attempts an attack roll or saving throw while the curse lasts, it must roll twice and take the lower result. While you cast this spell, an ally within range of the subject can attempt an Intimidate check as a move action (DC = save DC of this spell); on a success, the ally adds its own glare to yours, granting you a +2 bonus on your caster level check to overcome spell resistance (if any). Multiple allies can attempt Intimidate checks; this bonus stacks.</p>\n</div>\n"
    },
    "tags": [],
    "activation": {
      "type": "round"
    },
    "unchainedAction": {
      "activation": {
        "cost": 3,
        "type": "action"
      }
    },
    "target": {
      "value": "one creature"
    },
    "range": {
      "units": "close"
    },
    "uses": {
      "per": ""
    },
    "measureTemplate": {
      "size": "0"
    },
    "actionType": "spellsave",
    "damage": {
      "parts": [],
      "critParts": [],
      "nonCritParts": []
    },
    "attackParts": [],
    "ability": {
      "attack": "",
      "damage": ""
    },
    "save": {
      "dc": "0",
      "type": "will",
      "description": "Will negates"
    },
    "effectNotes": [],
    "attackNotes": [],
    "links": {
      "children": []
    },
    "flags": {
      "boolean": [],
      "dictionary": []
    },
    "scriptCalls": [],
    "learnedAt": {
      "class": [
        [
          "sorcerer/wizard",
          3
        ],
        [
          "witch",
          3
        ],
        [
          "antipaladin",
          3
        ]
      ],
      "domain": [],
      "subDomain": [],
      "elementalSchool": [],
      "bloodline": []
    },
    "level": 3,
    "school": "nec",
    "types": "curse",
    "conditionals": [],
    "components": {
      "verbal": true,
      "somatic": true
    },
    "shortDescription": "<p>You channel a fell curse through your glare. If the target fails its saving throw, it begins to obsessively second-guess its actions and attract bad luck. Whenever the target attempts an attack roll or saving throw while the curse lasts, it must roll twice and take the lower result. While you cast this spell, an ally within range of the subject can attempt an Intimidate check as a move action (DC = save DC of this spell); on a success, the ally adds its own glare to yours, granting you a +2 bonus on your caster level check to overcome spell resistance (if any). Multiple allies can attempt Intimidate checks; this bonus stacks.</p>",
    "spellDuration": "1 day/level"
  },
  "effects": [],
  "folder": null,
  "sort": 0,
  "permission": {
    "default": 0
  },
  "flags": {}
}