{
  "_id": "k9iu3d82hlo7coct",
  "name": "Animate Objects",
  "type": "spell",
  "img": "systems/pf1/icons/misc/magic-swirl.png",
  "data": {
    "description": {
      "value": "<div class=\"spell-description\">\n  <p>\n    <strong>School</strong>&nbsp;transmutation;\n    <strong>Level</strong>&nbsp;bard 6, cleric/oracle 6, occultist 6, psychic 6, witch 6;\n    <strong>Domain</strong>&nbsp;Chaos 6;\n    <strong>Subdomain</strong>&nbsp;Flotsam 6;\n    \n    <strong>Bloodline</strong>&nbsp;Impossible 6;\n  </p>\n  <p>\n    <strong>Casting Time</strong>&nbsp;1 standard<br>\n    <strong>Components</strong>&nbsp;V, S<br>\n  </p>\n  <p>\n    <strong>Range</strong>&nbsp;medium (100 ft. + 10 ft./level)<br>\n    \n    <strong>Targets</strong>&nbsp;one Small object per caster level; see text<br>\n    \n    <strong>Duration</strong>&nbsp;1 round/level<br>\n      <strong>Saving Throw</strong>&nbsp;none;&nbsp;\n      <strong>Spell Resistance</strong>&nbsp;no<br>\n  </p>\n  <h2>Description</h2>\n  <p>You imbue inanimate objects with mobility and a semblance of life. Each such animated object then immediately attacks whomever or whatever you initially designate.</p><p>An animated object can be of any nonmagical material. You may animate one Small or smaller object or a corresponding number of larger objects as follows: A Medium object counts as two Small or smaller objects, a Large object as four, a Huge object as eight, a Gargantuan object as 16, and a Colossal object as 32. You can change the designated target or targets as a move action, as if directing an active spell. See the <i>Pathfinder RPG Bestiary</i> for the statistics of animated objects.</p><p>This spell cannot affect objects carried or worn by a creature.</p><p><i>Animate objects</i> can be made permanent with a <i>permanency</i> spell.</p>\n</div>\n"
    },
    "tags": [],
    "activation": {
      "type": "standard"
    },
    "unchainedAction": {
      "activation": {
        "cost": 2,
        "type": "action"
      }
    },
    "target": {
      "value": "one Small object per caster level; see text"
    },
    "range": {
      "units": "medium"
    },
    "uses": {
      "per": ""
    },
    "measureTemplate": {
      "size": "0"
    },
    "actionType": "",
    "damage": {
      "parts": [],
      "critParts": [],
      "nonCritParts": []
    },
    "attackParts": [],
    "ability": {
      "attack": "",
      "damage": ""
    },
    "save": {
      "dc": "0"
    },
    "effectNotes": [],
    "attackNotes": [],
    "links": {
      "children": []
    },
    "flags": {
      "boolean": [],
      "dictionary": []
    },
    "scriptCalls": [],
    "learnedAt": {
      "class": [
        [
          "cleric/oracle",
          6
        ],
        [
          "bard",
          6
        ],
        [
          "witch",
          6
        ],
        [
          "psychic",
          6
        ],
        [
          "occultist",
          6
        ]
      ],
      "domain": [
        [
          "Chaos",
          6
        ]
      ],
      "subDomain": [
        [
          "Flotsam",
          6
        ]
      ],
      "elementalSchool": [],
      "bloodline": [
        [
          "Impossible",
          6
        ]
      ]
    },
    "level": 6,
    "school": "trs",
    "conditionals": [],
    "components": {
      "verbal": true,
      "somatic": true
    },
    "sr": false,
    "shortDescription": "<p>You imbue inanimate objects with mobility and a semblance of life. Each such animated object then immediately attacks whomever or whatever you initially designate.</p><p>An animated object can be of any nonmagical material. You may animate one Small or smaller object or a corresponding number of larger objects as follows: A Medium object counts as two Small or smaller objects, a Large object as four, a Huge object as eight, a Gargantuan object as 16, and a Colossal object as 32. You can change the designated target or targets as a move action, as if directing an active spell. See the <i>Pathfinder RPG Bestiary</i> for the statistics of animated objects.</p><p>This spell cannot affect objects carried or worn by a creature.</p><p><i>Animate objects</i> can be made permanent with a <i>permanency</i> spell.</p>",
    "spellDuration": "1 round/level"
  },
  "effects": [],
  "folder": null,
  "sort": 0,
  "permission": {
    "default": 0
  },
  "flags": {}
}