{
  "_id": "4jnqnfe3mfqhjwps",
  "name": "Authenticating Gaze",
  "type": "spell",
  "img": "systems/pf1/icons/misc/magic-swirl.png",
  "data": {
    "description": {
      "value": "<div class=\"spell-description\">\n  <p>\n    <strong>School</strong>&nbsp;divination;\n    <strong>Level</strong>&nbsp;alchemist 1, cleric/oracle 1, inquisitor 1, occultist 1, sorcerer/wizard 1;\n    \n    \n    \n    \n  </p>\n  <p>\n    <strong>Casting Time</strong>&nbsp;1 standard<br>\n    <strong>Components</strong>&nbsp;V, S, M/DF (a miniature magnifying glass or spectacles)<br>\n  </p>\n  <p>\n    <strong>Range</strong>&nbsp;personal<br>\n    \n    \n    \n    <strong>Duration</strong>&nbsp;1 minute/level<br>\n  </p>\n  <h2>Description</h2>\n  <p>Your understanding of the written word becomes analytical and discerning. You gain an insight bonus equal to your caster level (maximum +10) on Appraise checks to determine the value of books and scrolls and on Linguistics checks to detect forgeries, and you can attempt a Linguistics check to detect a forged document at a glance, rather than taking the normal 1 round of examination per page. In addition, you immediately detect whether written works within 30 feet and within your line of sight have a magical aura and the strength of any such auras, as though you had concentrated on each written work for 1 round using <i>detect magic</i>.</p>\n</div>\n"
    },
    "tags": [],
    "activation": {
      "type": "standard"
    },
    "unchainedAction": {
      "activation": {
        "cost": 2,
        "type": "action"
      }
    },
    "range": {
      "units": "personal"
    },
    "uses": {
      "per": ""
    },
    "measureTemplate": {
      "size": "0"
    },
    "actionType": "",
    "damage": {
      "parts": [],
      "critParts": [],
      "nonCritParts": []
    },
    "attackParts": [],
    "ability": {
      "attack": "",
      "damage": ""
    },
    "save": {
      "dc": "0"
    },
    "effectNotes": [],
    "attackNotes": [],
    "links": {
      "children": []
    },
    "flags": {
      "boolean": [],
      "dictionary": []
    },
    "scriptCalls": [],
    "learnedAt": {
      "class": [
        [
          "sorcerer/wizard",
          1
        ],
        [
          "cleric/oracle",
          1
        ],
        [
          "alchemist",
          1
        ],
        [
          "inquisitor",
          1
        ],
        [
          "occultist",
          1
        ]
      ],
      "domain": [],
      "subDomain": [],
      "elementalSchool": [],
      "bloodline": []
    },
    "school": "div",
    "conditionals": [],
    "components": {
      "verbal": true,
      "somatic": true,
      "material": true,
      "divineFocus": 2
    },
    "materials": {
      "value": "a miniature magnifying glass or spectacles"
    },
    "sr": false,
    "shortDescription": "<p>Your understanding of the written word becomes analytical and discerning. You gain an insight bonus equal to your caster level (maximum +10) on Appraise checks to determine the value of books and scrolls and on Linguistics checks to detect forgeries, and you can attempt a Linguistics check to detect a forged document at a glance, rather than taking the normal 1 round of examination per page. In addition, you immediately detect whether written works within 30 feet and within your line of sight have a magical aura and the strength of any such auras, as though you had concentrated on each written work for 1 round using <i>detect magic</i>.</p>",
    "spellDuration": "1 minute/level"
  },
  "effects": [],
  "folder": null,
  "sort": 0,
  "permission": {
    "default": 0
  },
  "flags": {}
}