{
  "_id": "272szq5d556toqgc",
  "name": "Blessing of Courage and Life",
  "type": "spell",
  "img": "systems/pf1/icons/misc/magic-swirl.png",
  "data": {
    "description": {
      "value": "<div class=\"spell-description\">\n  <p>\n    <strong>School</strong>&nbsp;conjuration&nbsp;(healing)&nbsp;[emotion];\n    <strong>Level</strong>&nbsp;cleric/oracle 2, paladin 2;\n    \n    \n    \n    \n  </p>\n  <p>\n    <strong>Casting Time</strong>&nbsp;1 standard<br>\n    <strong>Components</strong>&nbsp;V, S, DF<br>\n  </p>\n  <p>\n    <strong>Range</strong>&nbsp;close (25 ft. + 5 ft./2 levels)<br>\n    \n    <strong>Targets</strong>&nbsp;one living creature<br>\n    \n    <strong>Duration</strong>&nbsp;1 minute/level (see below)<br>\n      <strong>Saving Throw</strong>&nbsp;Will negates (harmless);&nbsp;\n      <strong>Spell Resistance</strong>&nbsp;yes<br>\n  </p>\n  <h2>Description</h2>\n  <p>With this prayer you provide long-lasting succor to a wounded creature. For as long as the effect lasts, the target receives a +2 morale bonus on saving throws against fear and death effects.</p><p>At any time while the spell is in effect, the target can choose to end the spell as a swift action for a burst of healing energy. The target loses the saving throw bonus, but is healed of 1d8 points of damage +1 point per caster level (maximum +10).</p>\n</div>\n"
    },
    "tags": [],
    "activation": {
      "type": "standard"
    },
    "unchainedAction": {
      "activation": {
        "cost": 2,
        "type": "action"
      }
    },
    "target": {
      "value": "one living creature"
    },
    "range": {
      "units": "close"
    },
    "uses": {
      "per": ""
    },
    "measureTemplate": {
      "size": "0"
    },
    "actionType": "heal",
    "damage": {
      "parts": [],
      "critParts": [],
      "nonCritParts": []
    },
    "attackParts": [],
    "ability": {
      "attack": "",
      "damage": ""
    },
    "save": {
      "dc": "0",
      "type": "will",
      "description": "Will negates (harmless)"
    },
    "effectNotes": [],
    "attackNotes": [],
    "links": {
      "children": []
    },
    "flags": {
      "boolean": [],
      "dictionary": []
    },
    "scriptCalls": [],
    "learnedAt": {
      "class": [
        [
          "cleric/oracle",
          2
        ],
        [
          "paladin",
          2
        ]
      ],
      "domain": [],
      "subDomain": [],
      "elementalSchool": [],
      "bloodline": []
    },
    "level": 2,
    "school": "con",
    "subschool": "healing",
    "types": "emotion",
    "conditionals": [],
    "components": {
      "verbal": true,
      "somatic": true,
      "divineFocus": 1
    },
    "shortDescription": "<p>With this prayer you provide long-lasting succor to a wounded creature. For as long as the effect lasts, the target receives a +2 morale bonus on saving throws against fear and death effects.</p><p>At any time while the spell is in effect, the target can choose to end the spell as a swift action for a burst of healing energy. The target loses the saving throw bonus, but is healed of 1d8 points of damage +1 point per caster level (maximum +10).</p>",
    "spellDuration": "1 minute/level (see below)"
  },
  "effects": [],
  "folder": null,
  "sort": 0,
  "permission": {
    "default": 0
  },
  "flags": {}
}