{
  "_id": "723f51pesdjauhyy",
  "name": "Blessing of Liberty",
  "type": "spell",
  "img": "systems/pf1/icons/misc/magic-swirl.png",
  "data": {
    "description": {
      "value": "<div class=\"spell-description\">\n  <p>\n    <strong>School</strong>&nbsp;abjuration;\n    <strong>Level</strong>&nbsp;bard 2, shaman 2;\n    \n    \n    \n    \n  </p>\n  <p>\n    <strong>Casting Time</strong>&nbsp;1 standard<br>\n    <strong>Components</strong>&nbsp;V, S, M (a feather or small object that symbolizes good fortune)<br>\n  </p>\n  <p>\n    <strong>Range</strong>&nbsp;personal<br>\n    \n    <strong>Targets</strong>&nbsp;you<br>\n    \n    <strong>Duration</strong>&nbsp;1 minute/level<br>\n  </p>\n  <h2>Description</h2>\n  <p>You imbue yourself with the blessings of liberty. You gain a +1 luck bonus per 6 caster levels (minimum +1, maximum +3) to  your CMD and on saving throws against spells and traps that would move you or impede your movement. You can end the spell's effects as a swift action to gain a +20 foot enhancement bonus to your base speed for 1 round per whole minute of duration remaining.</p>\n</div>\n"
    },
    "tags": [],
    "activation": {
      "type": "standard"
    },
    "unchainedAction": {
      "activation": {
        "cost": 2,
        "type": "action"
      }
    },
    "target": {
      "value": "you"
    },
    "range": {
      "units": "personal"
    },
    "uses": {
      "per": ""
    },
    "measureTemplate": {
      "size": "0"
    },
    "actionType": "",
    "damage": {
      "parts": [],
      "critParts": [],
      "nonCritParts": []
    },
    "attackParts": [],
    "ability": {
      "attack": "",
      "damage": ""
    },
    "save": {
      "dc": "0"
    },
    "effectNotes": [],
    "attackNotes": [],
    "links": {
      "children": []
    },
    "flags": {
      "boolean": [],
      "dictionary": []
    },
    "scriptCalls": [],
    "learnedAt": {
      "class": [
        [
          "bard",
          2
        ],
        [
          "shaman",
          2
        ]
      ],
      "domain": [],
      "subDomain": [],
      "elementalSchool": [],
      "bloodline": []
    },
    "level": 2,
    "school": "abj",
    "conditionals": [],
    "components": {
      "verbal": true,
      "somatic": true,
      "material": true
    },
    "materials": {
      "value": "a feather or small object that symbolizes good fortune"
    },
    "sr": false,
    "shortDescription": "<p>You imbue yourself with the blessings of liberty. You gain a +1 luck bonus per 6 caster levels (minimum +1, maximum +3) to  your CMD and on saving throws against spells and traps that would move you or impede your movement. You can end the spell's effects as a swift action to gain a +20 foot enhancement bonus to your base speed for 1 round per whole minute of duration remaining.</p>",
    "spellDuration": "1 minute/level"
  },
  "effects": [],
  "folder": null,
  "sort": 0,
  "permission": {
    "default": 0
  },
  "flags": {}
}