{
  "_id": "ywl2u90i95n49igv",
  "name": "Blood in the Water",
  "type": "spell",
  "img": "systems/pf1/icons/misc/magic-swirl.png",
  "data": {
    "description": {
      "value": "<div class=\"spell-description\">\n  <p>\n    <strong>School</strong>&nbsp;necromancy&nbsp;[emotion];\n    <strong>Level</strong>&nbsp;cleric/oracle 2, mesmerist 2, psychic 2, sorcerer/wizard 2;\n    \n    \n    \n    \n  </p>\n  <p>\n    <strong>Casting Time</strong>&nbsp;1 standard<br>\n    <strong>Components</strong>&nbsp;V, S, DF<br>\n  </p>\n  <p>\n    <strong>Range</strong>&nbsp;20 feet<br>\n    <strong>Area</strong>&nbsp;20-ft.-radius emanation centered on you<br>\n    \n    \n    <strong>Duration</strong>&nbsp;1 round/level<br>\n      <strong>Saving Throw</strong>&nbsp;Will negates (harmless);&nbsp;\n      <strong>Spell Resistance</strong>&nbsp;yes<br>\n  </p>\n  <h2>Description</h2>\n  <p>As part of the casting of this spell, you must deal 1 point of piercing or slashing damage to yourself to release your blood. This causes you to take 1 point of bleed damage. While the spell is in effect, all sharks, feeders in the depths, and creatures with the blood frenzy ability in the area gain a +2 bonus to Strength and Constitution and take a -2 penalty to AC. This is treated as blood frenzy for the purposes of other feats and effects, and doesn't stack with the effects of actual blood frenzy. If you cease bleeding, the spell immediately ends.</p>\n</div>\n"
    },
    "tags": [],
    "activation": {
      "type": "standard"
    },
    "unchainedAction": {
      "activation": {
        "cost": 2,
        "type": "action"
      }
    },
    "range": {
      "value": 20,
      "units": "ft"
    },
    "uses": {
      "per": ""
    },
    "measureTemplate": {
      "size": "0"
    },
    "actionType": "spellsave",
    "damage": {
      "parts": [],
      "critParts": [],
      "nonCritParts": []
    },
    "attackParts": [],
    "ability": {
      "attack": "",
      "damage": ""
    },
    "save": {
      "dc": "0",
      "type": "will",
      "description": "Will negates (harmless)"
    },
    "effectNotes": [],
    "attackNotes": [],
    "links": {
      "children": []
    },
    "flags": {
      "boolean": [],
      "dictionary": []
    },
    "scriptCalls": [],
    "learnedAt": {
      "class": [
        [
          "sorcerer/wizard",
          2
        ],
        [
          "cleric/oracle",
          2
        ],
        [
          "psychic",
          2
        ],
        [
          "mesmerist",
          2
        ]
      ],
      "domain": [],
      "subDomain": [],
      "elementalSchool": [],
      "bloodline": []
    },
    "level": 2,
    "school": "nec",
    "types": "emotion",
    "conditionals": [],
    "components": {
      "verbal": true,
      "somatic": true,
      "divineFocus": 1
    },
    "shortDescription": "<p>As part of the casting of this spell, you must deal 1 point of piercing or slashing damage to yourself to release your blood. This causes you to take 1 point of bleed damage. While the spell is in effect, all sharks, feeders in the depths, and creatures with the blood frenzy ability in the area gain a +2 bonus to Strength and Constitution and take a -2 penalty to AC. This is treated as blood frenzy for the purposes of other feats and effects, and doesn't stack with the effects of actual blood frenzy. If you cease bleeding, the spell immediately ends.</p>",
    "spellDuration": "1 round/level",
    "spellArea": "20-ft.-radius emanation centered on you"
  },
  "effects": [],
  "folder": null,
  "sort": 0,
  "permission": {
    "default": 0
  },
  "flags": {}
}