{
  "_id": "cp5m19me647dojha",
  "name": "Changestaff",
  "type": "spell",
  "img": "systems/pf1/icons/misc/magic-swirl.png",
  "data": {
    "description": {
      "value": "<div class=\"spell-description\">\n  <p>\n    <strong>School</strong>&nbsp;transmutation;\n    <strong>Level</strong>&nbsp;druid 7;\n    \n    \n    \n    \n  </p>\n  <p>\n    <strong>Casting Time</strong>&nbsp;1 round<br>\n    <strong>Components</strong>&nbsp;V, S, F (a quarterstaff that has been carved and polished for 28 days)<br>\n  </p>\n  <p>\n    <strong>Range</strong>&nbsp;touch<br>\n    \n    <strong>Targets</strong>&nbsp;your touched staff<br>\n    \n    <strong>Duration</strong>&nbsp;1 hour/level (D)<br>\n      <strong>Saving Throw</strong>&nbsp;none;&nbsp;\n      <strong>Spell Resistance</strong>&nbsp;no<br>\n  </p>\n  <h2>Description</h2>\n  <p>You change a specially prepared quarterstaff into a Huge treant-like creature (see the <i>Pathfinder RPG</i> Bestiary), about 24 feet tall.</p><p>When you plant the end of the staff in the ground and speak a special command to conclude the casting of the spell, your staff turns into a creature that looks and fights just like a treant.</p><p>The staff-treant defends you and obeys any spoken commands.</p><p>However, it is by no means a true treant; it cannot converse with actual treants or control trees. If the staff-treant is reduced to 0 or fewer hit points, it crumbles to powder and the staff is destroyed.</p><p>Otherwise, the staff returns to its normal form when the spell duration expires (or when the spell is dismissed), and it can be used as the focus for another casting of the spell. The staff-treant is always at full strength when created, despite any wounds it may have incurred the last time it appeared.</p>\n</div>\n"
    },
    "tags": [],
    "activation": {
      "type": "round"
    },
    "unchainedAction": {
      "activation": {
        "cost": 3,
        "type": "action"
      }
    },
    "target": {
      "value": "your touched staff"
    },
    "range": {
      "units": "touch"
    },
    "uses": {
      "per": ""
    },
    "measureTemplate": {
      "size": "0"
    },
    "actionType": "",
    "damage": {
      "parts": [],
      "critParts": [],
      "nonCritParts": []
    },
    "attackParts": [],
    "ability": {
      "attack": "",
      "damage": ""
    },
    "save": {
      "dc": "0"
    },
    "effectNotes": [],
    "attackNotes": [],
    "links": {
      "children": []
    },
    "flags": {
      "boolean": [],
      "dictionary": []
    },
    "scriptCalls": [],
    "learnedAt": {
      "class": [
        [
          "druid",
          7
        ]
      ],
      "domain": [],
      "subDomain": [],
      "elementalSchool": [],
      "bloodline": []
    },
    "level": 7,
    "school": "trs",
    "conditionals": [],
    "components": {
      "verbal": true,
      "somatic": true,
      "focus": true
    },
    "materials": {
      "focus": "a quarterstaff that has been carved and polished for 28 days"
    },
    "sr": false,
    "shortDescription": "<p>You change a specially prepared quarterstaff into a Huge treant-like creature (see the <i>Pathfinder RPG</i> Bestiary), about 24 feet tall.</p><p>When you plant the end of the staff in the ground and speak a special command to conclude the casting of the spell, your staff turns into a creature that looks and fights just like a treant.</p><p>The staff-treant defends you and obeys any spoken commands.</p><p>However, it is by no means a true treant; it cannot converse with actual treants or control trees. If the staff-treant is reduced to 0 or fewer hit points, it crumbles to powder and the staff is destroyed.</p><p>Otherwise, the staff returns to its normal form when the spell duration expires (or when the spell is dismissed), and it can be used as the focus for another casting of the spell. The staff-treant is always at full strength when created, despite any wounds it may have incurred the last time it appeared.</p>",
    "spellDuration": "1 hour/level (D)"
  },
  "effects": [],
  "folder": null,
  "sort": 0,
  "permission": {
    "default": 0
  },
  "flags": {}
}