{
  "_id": "2wcapjwm4rj21ni0",
  "name": "Darkvault",
  "type": "spell",
  "img": "systems/pf1/icons/misc/magic-swirl.png",
  "data": {
    "description": {
      "value": "<div class=\"spell-description\">\n  <p>\n    <strong>School</strong>&nbsp;abjuration;\n    <strong>Level</strong>&nbsp;alchemist 3, cleric/oracle 5, druid 5, hunter 5, psychic 5, shaman 5, sorcerer/wizard 5, witch 5;\n    \n    \n    \n    \n  </p>\n  <p>\n    <strong>Casting Time</strong>&nbsp;1 standard<br>\n    <strong>Components</strong>&nbsp;V, S, M (a stone that has never seen sunlight)<br>\n  </p>\n  <p>\n    <strong>Range</strong>&nbsp;close (25 ft. + 5 ft./2 levels)<br>\n    <strong>Area</strong>&nbsp;30-ft.-radius emanation<br>\n    \n    \n    <strong>Duration</strong>&nbsp;24 hours<br>\n      <strong>Saving Throw</strong>&nbsp;none;&nbsp;\n      <strong>Spell Resistance</strong>&nbsp;no<br>\n  </p>\n  <h2>Description</h2>\n  <p>You ward an area's shadows such that light cannot penetrate them. The illumination level in the affected area no longer changes when nonmagical light enters it. Any magical effect must succeed at a caster level check (DC = 10 + your caster level) in order to change the light level within the spell's radius. <i>Darkvault</i> has no effect on spells or effects that would make the spell's area darker.  The spell must be cast on an area, such as a cave or room. A spellcaster of 11th level or higher can make <i>darkvault</i> permanent with a <i>permanency</i> spell, at a cost of 7,500 gp.</p>\n</div>\n"
    },
    "tags": [],
    "activation": {
      "type": "standard"
    },
    "unchainedAction": {
      "activation": {
        "cost": 2,
        "type": "action"
      }
    },
    "range": {
      "units": "close"
    },
    "uses": {
      "per": ""
    },
    "measureTemplate": {
      "size": "0"
    },
    "actionType": "",
    "damage": {
      "parts": [],
      "critParts": [],
      "nonCritParts": []
    },
    "attackParts": [],
    "ability": {
      "attack": "",
      "damage": ""
    },
    "save": {
      "dc": "0"
    },
    "effectNotes": [],
    "attackNotes": [],
    "links": {
      "children": []
    },
    "flags": {
      "boolean": [],
      "dictionary": []
    },
    "scriptCalls": [],
    "learnedAt": {
      "class": [
        [
          "sorcerer/wizard",
          5
        ],
        [
          "cleric/oracle",
          5
        ],
        [
          "druid",
          5
        ],
        [
          "alchemist",
          3
        ],
        [
          "witch",
          5
        ],
        [
          "shaman",
          5
        ],
        [
          "psychic",
          5
        ],
        [
          "hunter",
          5
        ]
      ],
      "domain": [],
      "subDomain": [],
      "elementalSchool": [],
      "bloodline": []
    },
    "level": 5,
    "school": "abj",
    "conditionals": [],
    "components": {
      "verbal": true,
      "somatic": true,
      "material": true
    },
    "materials": {
      "value": "a stone that has never seen sunlight"
    },
    "sr": false,
    "shortDescription": "<p>You ward an area's shadows such that light cannot penetrate them. The illumination level in the affected area no longer changes when nonmagical light enters it. Any magical effect must succeed at a caster level check (DC = 10 + your caster level) in order to change the light level within the spell's radius. <i>Darkvault</i> has no effect on spells or effects that would make the spell's area darker.  The spell must be cast on an area, such as a cave or room. A spellcaster of 11th level or higher can make <i>darkvault</i> permanent with a <i>permanency</i> spell, at a cost of 7,500 gp.</p>",
    "spellDuration": "24 hours",
    "spellArea": "30-ft.-radius emanation"
  },
  "effects": [],
  "folder": null,
  "sort": 0,
  "permission": {
    "default": 0
  },
  "flags": {}
}