{
  "_id": "uz4bx2l2d4rhnro3",
  "name": "Determine Depth",
  "type": "spell",
  "img": "systems/pf1/icons/misc/magic-swirl.png",
  "data": {
    "description": {
      "value": "<div class=\"spell-description\">\n  <p>\n    <strong>School</strong>&nbsp;divination;\n    <strong>Level</strong>&nbsp;bard 2, druid 2, hunter 2, sorcerer/wizard 2;\n    \n    \n    \n    \n  </p>\n  <p>\n    <strong>Casting Time</strong>&nbsp;1 standard<br>\n    <strong>Components</strong>&nbsp;V, S<br>\n  </p>\n  <p>\n    <strong>Range</strong>&nbsp;touch<br>\n    \n    <strong>Targets</strong>&nbsp;solid surface touched<br>\n    \n    <strong>Duration</strong>&nbsp;concentration, up to 1 round/level (D)<br>\n      <strong>Saving Throw</strong>&nbsp;none;&nbsp;\n      <strong>Spell Resistance</strong>&nbsp;no<br>\n  </p>\n  <h2>Description</h2>\n  <p>With a touch, you can determine the exact thickness of a wall, ceiling, or other solid barrier, measuring from the point you are touching to the direct opposite side of the barrier in a straight line. You can only detect depths or widths of up to 10 feet per caster level (maximum 200 feet at 20th level); amounts in excess of this limit are detected as being the maximum you are able to detect. So, for example, a 5th-level wizard using this spell on a 60-foot-thick wall would detect that the wall is 50 feet thick.  <i><b>Determine</b> depth</i> can be used on earthen, plaster, stone, or wooden surfaces, but not on walls made of metal or other, harder materials. This spell is useful to casters who want to get an idea of their surroundings, and as a preliminary measure to casting spells such as <i>passwall</i> or <i>dimension door</i>.</p>\n</div>\n"
    },
    "tags": [],
    "activation": {
      "type": "standard"
    },
    "unchainedAction": {
      "activation": {
        "cost": 2,
        "type": "action"
      }
    },
    "target": {
      "value": "solid surface touched"
    },
    "range": {
      "units": "touch"
    },
    "uses": {
      "per": ""
    },
    "measureTemplate": {
      "size": "0"
    },
    "actionType": "",
    "damage": {
      "parts": [],
      "critParts": [],
      "nonCritParts": []
    },
    "attackParts": [],
    "ability": {
      "attack": "",
      "damage": ""
    },
    "save": {
      "dc": "0"
    },
    "effectNotes": [],
    "attackNotes": [],
    "links": {
      "children": []
    },
    "flags": {
      "boolean": [],
      "dictionary": []
    },
    "scriptCalls": [],
    "learnedAt": {
      "class": [
        [
          "sorcerer/wizard",
          2
        ],
        [
          "druid",
          2
        ],
        [
          "bard",
          2
        ],
        [
          "hunter",
          2
        ]
      ],
      "domain": [],
      "subDomain": [],
      "elementalSchool": [],
      "bloodline": []
    },
    "level": 2,
    "school": "div",
    "conditionals": [],
    "components": {
      "verbal": true,
      "somatic": true
    },
    "sr": false,
    "shortDescription": "<p>With a touch, you can determine the exact thickness of a wall, ceiling, or other solid barrier, measuring from the point you are touching to the direct opposite side of the barrier in a straight line. You can only detect depths or widths of up to 10 feet per caster level (maximum 200 feet at 20th level); amounts in excess of this limit are detected as being the maximum you are able to detect. So, for example, a 5th-level wizard using this spell on a 60-foot-thick wall would detect that the wall is 50 feet thick.  <i><b>Determine</b> depth</i> can be used on earthen, plaster, stone, or wooden surfaces, but not on walls made of metal or other, harder materials. This spell is useful to casters who want to get an idea of their surroundings, and as a preliminary measure to casting spells such as <i>passwall</i> or <i>dimension door</i>.</p>",
    "spellDuration": "concentration, up to 1 round/level (D)"
  },
  "effects": [],
  "folder": null,
  "sort": 0,
  "permission": {
    "default": 0
  },
  "flags": {}
}