{
  "_id": "7wt5a8gn5wbfplyl",
  "name": "Disrupt Silence",
  "type": "spell",
  "img": "systems/pf1/icons/misc/magic-swirl.png",
  "data": {
    "description": {
      "value": "<div class=\"spell-description\">\n  <p>\n    <strong>School</strong>&nbsp;abjuration;\n    <strong>Level</strong>&nbsp;bard 2, cleric/oracle 3, inquisitor 3, psychic 3;\n    \n    \n    \n    \n  </p>\n  <p>\n    <strong>Casting Time</strong>&nbsp;1 standard<br>\n    <strong>Components</strong>&nbsp;S, M (tiny silver bell, chime, or gong)<br>\n  </p>\n  <p>\n    <strong>Range</strong>&nbsp;touch<br>\n    <strong>Area</strong>&nbsp;10-ft.-radius emanation centered on a creature, object, or point in space<br>\n    \n    \n    <strong>Duration</strong>&nbsp;1 round/level (D)<br>\n      <strong>Saving Throw</strong>&nbsp;Will negates;&nbsp;\n      <strong>Spell Resistance</strong>&nbsp;yes<br>\n  </p>\n  <h2>Description</h2>\n  <p>You suppress magical sound-dampening effects within the area. <i>Disrupt <i>silence</i></i> temporarily negates magical <i>silence</i> within its area, so that normal sounds can be heard within the overlapping areas of effect. Additionally, <i>disrupt <i>silence</i></i> can automatically counter or dispel any magical <i>silence</i> effect of equal or lower level cast upon the same target, such as <i>silence</i>. If you cast <i>disrupt <i>silence</i></i> on the target of a higher-level <i>silence</i> effect, it functions as <i>dispel magic</i> instead of its normal function.</p>\n</div>\n"
    },
    "tags": [],
    "activation": {
      "type": "standard"
    },
    "unchainedAction": {
      "activation": {
        "cost": 2,
        "type": "action"
      }
    },
    "range": {
      "units": "touch"
    },
    "uses": {
      "per": ""
    },
    "measureTemplate": {
      "size": "0"
    },
    "actionType": "spellsave",
    "damage": {
      "parts": [],
      "critParts": [],
      "nonCritParts": []
    },
    "attackParts": [],
    "ability": {
      "attack": "",
      "damage": ""
    },
    "save": {
      "dc": "0",
      "type": "will",
      "description": "Will negates"
    },
    "effectNotes": [],
    "attackNotes": [],
    "links": {
      "children": []
    },
    "flags": {
      "boolean": [],
      "dictionary": []
    },
    "scriptCalls": [],
    "learnedAt": {
      "class": [
        [
          "cleric/oracle",
          3
        ],
        [
          "bard",
          2
        ],
        [
          "inquisitor",
          3
        ],
        [
          "psychic",
          3
        ]
      ],
      "domain": [],
      "subDomain": [],
      "elementalSchool": [],
      "bloodline": []
    },
    "level": 3,
    "school": "abj",
    "conditionals": [],
    "components": {
      "somatic": true,
      "material": true
    },
    "materials": {
      "value": "tiny silver bell, chime, or gong"
    },
    "shortDescription": "<p>You suppress magical sound-dampening effects within the area. <i>Disrupt <i>silence</i></i> temporarily negates magical <i>silence</i> within its area, so that normal sounds can be heard within the overlapping areas of effect. Additionally, <i>disrupt <i>silence</i></i> can automatically counter or dispel any magical <i>silence</i> effect of equal or lower level cast upon the same target, such as <i>silence</i>. If you cast <i>disrupt <i>silence</i></i> on the target of a higher-level <i>silence</i> effect, it functions as <i>dispel magic</i> instead of its normal function.</p>",
    "spellDuration": "1 round/level (D)",
    "spellArea": "10-ft.-radius emanation centered on a creature, object, or point in space"
  },
  "effects": [],
  "folder": null,
  "sort": 0,
  "permission": {
    "default": 0
  },
  "flags": {}
}