{
  "_id": "khfprkujokr9uigq",
  "name": "Energy Drain",
  "type": "spell",
  "img": "systems/pf1/icons/misc/magic-swirl.png",
  "data": {
    "description": {
      "value": "<div class=\"spell-description\">\n  <p>\n    <strong>School</strong>&nbsp;necromancy;\n    <strong>Level</strong>&nbsp;cleric/oracle 9, shaman 9, sorcerer/wizard 9;\n    \n    <strong>Subdomain</strong>&nbsp;Loss 9, Undead 9;\n    \n    <strong>Bloodline</strong>&nbsp;Accursed 9, Undead 9;\n  </p>\n  <p>\n    <strong>Casting Time</strong>&nbsp;1 standard<br>\n    <strong>Components</strong>&nbsp;V, S<br>\n  </p>\n  <p>\n    <strong>Range</strong>&nbsp;close (25 ft. + 5 ft./2 levels)<br>\n    \n    \n    <strong>Effect</strong>&nbsp;ray of negative energy<br>\n    <strong>Duration</strong>&nbsp;instantaneous<br>\n      <strong>Saving Throw</strong>&nbsp;Fortitude partial; see text for enervation;&nbsp;\n      <strong>Spell Resistance</strong>&nbsp;yes<br>\n  </p>\n  <h2>Description</h2>\n  <p>This spell functions like <i>enervation</i>, except that the creature struck gains 2d4 temporary negative levels. Twenty-four hours after gaining them, the subject must make a Fortitude saving throw (DC = <i>energy drain</i> spell's save DC) for each negative level. If the save succeeds, that negative level is removed. If it fails, that negative level becomes permanent.</p><p>An undead creature struck by the ray gains 2d4x5 temporary hit points for 1 hour.</p>\n</div>\n"
    },
    "tags": [],
    "activation": {
      "type": "standard"
    },
    "unchainedAction": {
      "activation": {
        "cost": 2,
        "type": "action"
      }
    },
    "range": {
      "units": "close"
    },
    "uses": {
      "per": ""
    },
    "measureTemplate": {
      "size": "0"
    },
    "actionType": "spellsave",
    "damage": {
      "parts": [],
      "critParts": [],
      "nonCritParts": []
    },
    "attackParts": [],
    "ability": {
      "attack": "",
      "damage": ""
    },
    "save": {
      "dc": "0",
      "type": "fort",
      "description": "Fortitude partial; see text for enervation"
    },
    "effectNotes": [],
    "attackNotes": [],
    "links": {
      "children": []
    },
    "flags": {
      "boolean": [],
      "dictionary": []
    },
    "scriptCalls": [],
    "learnedAt": {
      "class": [
        [
          "sorcerer/wizard",
          9
        ],
        [
          "cleric/oracle",
          9
        ],
        [
          "shaman",
          9
        ]
      ],
      "domain": [],
      "subDomain": [
        [
          "Loss",
          9
        ],
        [
          "Undead",
          9
        ]
      ],
      "elementalSchool": [],
      "bloodline": [
        [
          "Accursed",
          9
        ],
        [
          "Undead",
          9
        ]
      ]
    },
    "level": 9,
    "school": "nec",
    "conditionals": [],
    "components": {
      "verbal": true,
      "somatic": true
    },
    "shortDescription": "<p>This spell functions like <i>enervation</i>, except that the creature struck gains 2d4 temporary negative levels. Twenty-four hours after gaining them, the subject must make a Fortitude saving throw (DC = <i>energy drain</i> spell's save DC) for each negative level. If the save succeeds, that negative level is removed. If it fails, that negative level becomes permanent.</p><p>An undead creature struck by the ray gains 2d4x5 temporary hit points for 1 hour.</p>",
    "spellDuration": "instantaneous",
    "spellEffect": "ray of negative energy"
  },
  "effects": [],
  "folder": null,
  "sort": 0,
  "permission": {
    "default": 0
  },
  "flags": {}
}