{
  "_id": "bc3nc0ri47egssht",
  "name": "Enervation",
  "type": "spell",
  "img": "systems/pf1/icons/misc/magic-swirl.png",
  "data": {
    "description": {
      "value": "<div class=\"spell-description\">\n  <p>\n    <strong>School</strong>&nbsp;necromancy;\n    <strong>Level</strong>&nbsp;bloodrager 4, mesmerist 4, sorcerer/wizard 4, spiritualist 4, witch 4;\n    \n    <strong>Subdomain</strong>&nbsp;Loss 5, Undead 4;\n    \n    \n  </p>\n  <p>\n    <strong>Casting Time</strong>&nbsp;1 standard<br>\n    <strong>Components</strong>&nbsp;V, S<br>\n  </p>\n  <p>\n    <strong>Range</strong>&nbsp;close (25 ft. + 5 ft./2 levels)<br>\n    \n    \n    <strong>Effect</strong>&nbsp;ray of negative energy<br>\n    <strong>Duration</strong>&nbsp;instantaneous<br>\n      <strong>Saving Throw</strong>&nbsp;none;&nbsp;\n      <strong>Spell Resistance</strong>&nbsp;yes<br>\n  </p>\n  <h2>Description</h2>\n  <p>You point your finger and fire a black ray of negative energy that suppresses the life force of any living creature it strikes. You must make a ranged touch attack to hit. If you hit, the subject gains 1d4 temporary negative levels (see Appendix 1). Negative levels stack.</p><p>Assuming the subject survives, it regains lost levels after a number of hours equal to your caster level (maximum 15 hours).</p><p>Usually, negative levels have a chance of becoming permanent, but the negative levels from <i>enervation</i> don't last long enough to do so.</p><p>An undead creature struck by the ray gains 1d4 x 5 temporary hit points for 1 hour.</p>\n</div>\n"
    },
    "tags": [],
    "activation": {
      "type": "standard"
    },
    "unchainedAction": {
      "activation": {
        "cost": 2,
        "type": "action"
      }
    },
    "range": {
      "units": "close"
    },
    "uses": {
      "per": ""
    },
    "measureTemplate": {
      "size": "0"
    },
    "actionType": "other",
    "damage": {
      "parts": [],
      "critParts": [],
      "nonCritParts": []
    },
    "attackParts": [],
    "ability": {
      "attack": "",
      "damage": ""
    },
    "save": {
      "dc": "0"
    },
    "effectNotes": [],
    "attackNotes": [],
    "links": {
      "children": []
    },
    "flags": {
      "boolean": [],
      "dictionary": []
    },
    "scriptCalls": [],
    "learnedAt": {
      "class": [
        [
          "sorcerer/wizard",
          4
        ],
        [
          "witch",
          4
        ],
        [
          "bloodrager",
          4
        ],
        [
          "mesmerist",
          4
        ],
        [
          "spiritualist",
          4
        ]
      ],
      "domain": [],
      "subDomain": [
        [
          "Loss",
          5
        ],
        [
          "Undead",
          4
        ]
      ],
      "elementalSchool": [],
      "bloodline": []
    },
    "level": 4,
    "school": "nec",
    "conditionals": [],
    "components": {
      "verbal": true,
      "somatic": true
    },
    "shortDescription": "<p>You point your finger and fire a black ray of negative energy that suppresses the life force of any living creature it strikes. You must make a ranged touch attack to hit. If you hit, the subject gains 1d4 temporary negative levels (see Appendix 1). Negative levels stack.</p><p>Assuming the subject survives, it regains lost levels after a number of hours equal to your caster level (maximum 15 hours).</p><p>Usually, negative levels have a chance of becoming permanent, but the negative levels from <i>enervation</i> don't last long enough to do so.</p><p>An undead creature struck by the ray gains 1d4 x 5 temporary hit points for 1 hour.</p>",
    "spellDuration": "instantaneous",
    "spellEffect": "ray of negative energy"
  },
  "effects": [],
  "folder": null,
  "sort": 0,
  "permission": {
    "default": 0
  },
  "flags": {}
}