{
  "_id": "dgzukaz1zeadr8q2",
  "name": "Escaping Ward",
  "type": "spell",
  "img": "systems/pf1/icons/misc/magic-swirl.png",
  "data": {
    "description": {
      "value": "<div class=\"spell-description\">\n  <p>\n    <strong>School</strong>&nbsp;abjuration;\n    <strong>Level</strong>&nbsp;bard 2, hunter 2, inquisitor 2, magus 2, ranger 2, sorcerer/wizard 2;\n    \n    \n    \n    \n  </p>\n  <p>\n    <strong>Casting Time</strong>&nbsp;1 standard<br>\n    <strong>Components</strong>&nbsp;V, S<br>\n  </p>\n  <p>\n    <strong>Range</strong>&nbsp;personal<br>\n    \n    <strong>Targets</strong>&nbsp;you<br>\n    \n    <strong>Duration</strong>&nbsp;1 round/level<br>\n  </p>\n  <h2>Description</h2>\n  <p>This ward grants you extra maneuverability when you avoid attacks against larger foes. While affected by this spell, when you are attacked and missed by a creature that is at least one size category larger than you, you can, as an immediate action, move up to 5 feet away from the attacking creature. You can increase this movement by 5 feet for every 5 caster levels. This movement does not provoke attacks of opportunity.</p>\n</div>\n"
    },
    "tags": [],
    "activation": {
      "type": "standard"
    },
    "unchainedAction": {
      "activation": {
        "cost": 2,
        "type": "action"
      }
    },
    "target": {
      "value": "you"
    },
    "range": {
      "units": "personal"
    },
    "uses": {
      "per": ""
    },
    "measureTemplate": {
      "size": "0"
    },
    "actionType": "",
    "damage": {
      "parts": [],
      "critParts": [],
      "nonCritParts": []
    },
    "attackParts": [],
    "ability": {
      "attack": "",
      "damage": ""
    },
    "save": {
      "dc": "0"
    },
    "effectNotes": [],
    "attackNotes": [],
    "links": {
      "children": []
    },
    "flags": {
      "boolean": [],
      "dictionary": []
    },
    "scriptCalls": [],
    "learnedAt": {
      "class": [
        [
          "sorcerer/wizard",
          2
        ],
        [
          "ranger",
          2
        ],
        [
          "bard",
          2
        ],
        [
          "inquisitor",
          2
        ],
        [
          "magus",
          2
        ],
        [
          "hunter",
          2
        ]
      ],
      "domain": [],
      "subDomain": [],
      "elementalSchool": [],
      "bloodline": []
    },
    "level": 2,
    "school": "abj",
    "conditionals": [],
    "components": {
      "verbal": true,
      "somatic": true
    },
    "sr": false,
    "shortDescription": "<p>This ward grants you extra maneuverability when you avoid attacks against larger foes. While affected by this spell, when you are attacked and missed by a creature that is at least one size category larger than you, you can, as an immediate action, move up to 5 feet away from the attacking creature. You can increase this movement by 5 feet for every 5 caster levels. This movement does not provoke attacks of opportunity.</p>",
    "spellDuration": "1 round/level"
  },
  "effects": [],
  "folder": null,
  "sort": 0,
  "permission": {
    "default": 0
  },
  "flags": {}
}