{
  "_id": "7aq3g5gcbviba7hq",
  "name": "Ethereal Envelopment",
  "type": "spell",
  "img": "systems/pf1/icons/misc/magic-swirl.png",
  "data": {
    "description": {
      "value": "<div class=\"spell-description\">\n  <p>\n    <strong>School</strong>&nbsp;conjuration&nbsp;(teleportation);\n    <strong>Level</strong>&nbsp;psychic 7, spiritualist 5;\n    \n    \n    \n    \n  </p>\n  <p>\n    <strong>Casting Time</strong>&nbsp;1 standard<br>\n    <strong>Components</strong>&nbsp;S, M (empty crystal box)<br>\n  </p>\n  <p>\n    <strong>Range</strong>&nbsp;close (25 ft. + 5 ft./2 levels)<br>\n    \n    <strong>Targets</strong>&nbsp;one creature<br>\n    \n    <strong>Duration</strong>&nbsp;1 hour/level (D)<br>\n      <strong>Saving Throw</strong>&nbsp;Will negates, see text;&nbsp;\n      <strong>Spell Resistance</strong>&nbsp;yes<br>\n  </p>\n  <h2>Description</h2>\n  <p>This spell is similar to <i>ethereal envelope</i>, but it allows you to shunt an unwilling creature to the Ethereal Plane and seal it there within a cocoon of misty ethereal fibers. If the target fails its save, it's forced into a cataleptic meditative state as if unconscious. However, each round at the end of its turn, it can attempt a Will save to awaken itself from this meditation. Once the target awakens, it is considered pinned, treating your caster level as your CMB and your CMD as 10 + your caster level + your ability modifier for your primary spellcasting ability score. A successful grapple combat maneuver check or Escape Artist check leaves the creature grappled rather than pinned but doesn't allow it to escape. However, a trapped creature can attack the cocoon as described in the <i>ethereal envelope</i> spell description.  If the creature breaks free of the <i>ethereal envelopment</i> or  you dismiss the spell, the target is returned to its prior location on the Material Plane, as described for <i>ethereal envelope</i>, but if the target is conscious at the time, it doesn't spend a round asleep or staggered.</p>\n</div>\n"
    },
    "tags": [],
    "activation": {
      "type": "standard"
    },
    "unchainedAction": {
      "activation": {
        "cost": 2,
        "type": "action"
      }
    },
    "target": {
      "value": "one creature"
    },
    "range": {
      "units": "close"
    },
    "uses": {
      "per": ""
    },
    "measureTemplate": {
      "size": "0"
    },
    "actionType": "spellsave",
    "damage": {
      "parts": [],
      "critParts": [],
      "nonCritParts": []
    },
    "attackParts": [],
    "ability": {
      "attack": "",
      "damage": ""
    },
    "save": {
      "dc": "0",
      "type": "will",
      "description": "Will negates, see text"
    },
    "effectNotes": [],
    "attackNotes": [],
    "links": {
      "children": []
    },
    "flags": {
      "boolean": [],
      "dictionary": []
    },
    "scriptCalls": [],
    "learnedAt": {
      "class": [
        [
          "psychic",
          7
        ],
        [
          "spiritualist",
          5
        ]
      ],
      "domain": [],
      "subDomain": [],
      "elementalSchool": [],
      "bloodline": []
    },
    "level": 7,
    "school": "con",
    "subschool": "teleportation",
    "conditionals": [],
    "components": {
      "somatic": true,
      "material": true
    },
    "materials": {
      "value": "empty crystal box"
    },
    "shortDescription": "<p>This spell is similar to <i>ethereal envelope</i>, but it allows you to shunt an unwilling creature to the Ethereal Plane and seal it there within a cocoon of misty ethereal fibers. If the target fails its save, it's forced into a cataleptic meditative state as if unconscious. However, each round at the end of its turn, it can attempt a Will save to awaken itself from this meditation. Once the target awakens, it is considered pinned, treating your caster level as your CMB and your CMD as 10 + your caster level + your ability modifier for your primary spellcasting ability score. A successful grapple combat maneuver check or Escape Artist check leaves the creature grappled rather than pinned but doesn't allow it to escape. However, a trapped creature can attack the cocoon as described in the <i>ethereal envelope</i> spell description.  If the creature breaks free of the <i>ethereal envelopment</i> or  you dismiss the spell, the target is returned to its prior location on the Material Plane, as described for <i>ethereal envelope</i>, but if the target is conscious at the time, it doesn't spend a round asleep or staggered.</p>",
    "spellDuration": "1 hour/level (D)"
  },
  "effects": [],
  "folder": null,
  "sort": 0,
  "permission": {
    "default": 0
  },
  "flags": {}
}