{
  "_id": "o8jgqcm2e7fq7d9t",
  "name": "Ferment",
  "type": "spell",
  "img": "systems/pf1/icons/misc/magic-swirl.png",
  "data": {
    "description": {
      "value": "<div class=\"spell-description\">\n  <p>\n    <strong>School</strong>&nbsp;transmutation;\n    <strong>Level</strong>&nbsp;alchemist 1, bard 1, cleric/oracle 1, druid 1, hunter 1, sorcerer/wizard 1, witch 1;\n    \n    \n    \n    \n  </p>\n  <p>\n    <strong>Casting Time</strong>&nbsp;1 standard<br>\n    <strong>Components</strong>&nbsp;V, S, M (a drop of ale, mead, or wine)<br>\n  </p>\n  <p>\n    <strong>Range</strong>&nbsp;touch<br>\n    \n    <strong>Targets</strong>&nbsp;object touched<br>\n    \n    <strong>Duration</strong>&nbsp;10 minutes/level<br>\n      <strong>Saving Throw</strong>&nbsp;Fortitude negates (object);&nbsp;\n      <strong>Spell Resistance</strong>&nbsp;yes<br>\n  </p>\n  <h2>Description</h2>\n  <p>This spell temporarily imbues a potable liquid (including elixirs, extracts, potions, and poisons) with an intoxicant. The caster must succeed at a caster level check in order to affect magic liquids and poisons (DC = 10 + item level for magic liquids, DC equal to the poison's save DC for a poison); otherwise, the spell fails. If the caster succeeds, the liquid also assumes a flavor according to what the caster desires,  but the effect on the imbiber is the same. An imbiber of a liquid affected by <i>ferment</i> must succeed at a Fortitude saving throw at the spell's save DC or take a -2 penalty on attack rolls, saves, ability checks, and skill checks for the remaining duration of the spell. Additionally, the DC of any skill check to identify a magic liquid or poison under the effects of this spell increases by 5.</p>\n</div>\n"
    },
    "tags": [],
    "activation": {
      "type": "standard"
    },
    "unchainedAction": {
      "activation": {
        "cost": 2,
        "type": "action"
      }
    },
    "target": {
      "value": "object touched"
    },
    "range": {
      "units": "touch"
    },
    "uses": {
      "per": ""
    },
    "measureTemplate": {
      "size": "0"
    },
    "actionType": "spellsave",
    "damage": {
      "parts": [],
      "critParts": [],
      "nonCritParts": []
    },
    "attackParts": [],
    "ability": {
      "attack": "",
      "damage": ""
    },
    "save": {
      "dc": "0",
      "type": "fort",
      "description": "Fortitude negates (object)"
    },
    "effectNotes": [],
    "attackNotes": [],
    "links": {
      "children": []
    },
    "flags": {
      "boolean": [],
      "dictionary": []
    },
    "scriptCalls": [],
    "learnedAt": {
      "class": [
        [
          "sorcerer/wizard",
          1
        ],
        [
          "cleric/oracle",
          1
        ],
        [
          "druid",
          1
        ],
        [
          "bard",
          1
        ],
        [
          "alchemist",
          1
        ],
        [
          "witch",
          1
        ],
        [
          "hunter",
          1
        ]
      ],
      "domain": [],
      "subDomain": [],
      "elementalSchool": [],
      "bloodline": []
    },
    "school": "trs",
    "conditionals": [],
    "components": {
      "verbal": true,
      "somatic": true,
      "material": true
    },
    "materials": {
      "value": "a drop of ale, mead, or wine"
    },
    "shortDescription": "<p>This spell temporarily imbues a potable liquid (including elixirs, extracts, potions, and poisons) with an intoxicant. The caster must succeed at a caster level check in order to affect magic liquids and poisons (DC = 10 + item level for magic liquids, DC equal to the poison's save DC for a poison); otherwise, the spell fails. If the caster succeeds, the liquid also assumes a flavor according to what the caster desires,  but the effect on the imbiber is the same. An imbiber of a liquid affected by <i>ferment</i> must succeed at a Fortitude saving throw at the spell's save DC or take a -2 penalty on attack rolls, saves, ability checks, and skill checks for the remaining duration of the spell. Additionally, the DC of any skill check to identify a magic liquid or poison under the effects of this spell increases by 5.</p>",
    "spellDuration": "10 minutes/level"
  },
  "effects": [],
  "folder": null,
  "sort": 0,
  "permission": {
    "default": 0
  },
  "flags": {}
}