{
  "_id": "d3a93wcwatqhywqy",
  "name": "Fire Snake",
  "type": "spell",
  "img": "systems/pf1/icons/spells/shielding-fire-2.jpg",
  "data": {
    "description": {
      "value": "<div class=\"spell-description\">\n  <p>\n    <strong>School</strong>&nbsp;evocation&nbsp;[fire];\n    <strong>Level</strong>&nbsp;druid 5, hunter 5, magus 5, occultist 5, sorcerer/wizard 5;\n    \n    \n    \n    \n  </p>\n  <p>\n    <strong>Casting Time</strong>&nbsp;1 standard<br>\n    <strong>Components</strong>&nbsp;V, S, M (a snake scale)<br>\n  </p>\n  <p>\n    <strong>Range</strong>&nbsp;60 feet<br>\n    <strong>Area</strong>&nbsp;see text<br>\n    \n    \n    <strong>Duration</strong>&nbsp;instantaneous<br>\n      <strong>Saving Throw</strong>&nbsp;Reflex half;&nbsp;\n      <strong>Spell Resistance</strong>&nbsp;yes<br>\n  </p>\n  <h2>Description</h2>\n  <p>You create a sinuous line of flames that you may shape as desired. The <i>fire snake</i> affects one 5-foot square per caster level, and each square must be adjacent to the previous square, starting with you. The <i>fire snake</i> may not extend beyond its maximum range. Creatures in the path of the <i>fire snake</i> take 1d6 points of fire damage per caster level (maximum 15d6).</p>\n</div>\n"
    },
    "tags": [],
    "activation": {
      "type": "standard"
    },
    "unchainedAction": {
      "activation": {
        "cost": 2,
        "type": "action"
      }
    },
    "range": {
      "value": "60",
      "units": "ft",
      "maxIncrements": "1"
    },
    "uses": {
      "per": ""
    },
    "measureTemplate": {
      "size": "0"
    },
    "actionType": "spellsave",
    "damage": {
      "parts": [
        [
          "(min(15, @cl))d6",
          "Fire"
        ]
      ],
      "critParts": [],
      "nonCritParts": []
    },
    "attackParts": [],
    "ability": {
      "attack": "",
      "damage": ""
    },
    "save": {
      "dc": "0",
      "type": "ref",
      "description": "Reflex half"
    },
    "effectNotes": [],
    "attackNotes": [],
    "links": {
      "children": []
    },
    "flags": {
      "boolean": [],
      "dictionary": []
    },
    "scriptCalls": [],
    "learnedAt": {
      "class": [
        [
          "sorcerer/wizard",
          5
        ],
        [
          "druid",
          5
        ],
        [
          "magus",
          5
        ],
        [
          "occultist",
          5
        ],
        [
          "hunter",
          5
        ]
      ],
      "domain": [],
      "subDomain": [],
      "elementalSchool": [],
      "bloodline": []
    },
    "level": 5,
    "school": "evo",
    "types": "fire",
    "conditionals": [],
    "components": {
      "verbal": true,
      "somatic": true,
      "material": true
    },
    "materials": {
      "value": "a snake scale"
    },
    "preparation": {
      "preparedAmount": 1,
      "maxAmount": 1
    },
    "shortDescription": "<p>You create a sinuous line of flames that you may shape as desired. The <i>fire snake</i> affects one 5-foot square per caster level, and each square must be adjacent to the previous square, starting with you. The <i>fire snake</i> may not extend beyond its maximum range. Creatures in the path of the <i>fire snake</i> take 1d6 points of fire damage per caster level (maximum 15d6).</p>",
    "spellDuration": "instantaneous",
    "spellArea": "see text"
  },
  "effects": [],
  "folder": null,
  "sort": 0,
  "permission": {
    "default": 0
  },
  "flags": {}
}