{
  "_id": "co28xtj01acamq9z",
  "name": "Firefall",
  "type": "spell",
  "img": "systems/pf1/icons/misc/magic-swirl.png",
  "data": {
    "description": {
      "value": "<div class=\"spell-description\">\n  <p>\n    <strong>School</strong>&nbsp;transmutation&nbsp;[fire];\n    <strong>Level</strong>&nbsp;bloodrager 4, magus 4, sorcerer/wizard 4;\n    \n    \n    \n    \n  </p>\n  <p>\n    <strong>Casting Time</strong>&nbsp;1 standard<br>\n    <strong>Components</strong>&nbsp;V, S, M (one fire source)<br>\n  </p>\n  <p>\n    <strong>Range</strong>&nbsp;long (400 ft. + 40 ft./level)<br>\n    \n    <strong>Targets</strong>&nbsp;one fire source, up to a 20-foot cube<br>\n    \n    <strong>Duration</strong>&nbsp;instantaneous<br>\n      <strong>Saving Throw</strong>&nbsp;Will negates and Reflex negates; see text;&nbsp;\n      <strong>Spell Resistance</strong>&nbsp;no<br>\n  </p>\n  <h2>Description</h2>\n  <p><i>Firefall</i> causes a fire to erupt into a geyser of dazzlingly bright liquid flame. The spell uses one fire source, which is immediately extinguished. A fire larger than a 20-foot cube is only partly extinguished. Magical fires are not extinguished, but a creature of the fire subtype used as the source takes 1 point of damage per caster level (no saving throw).</p><p>The coruscating rain of fire fills a hemispherical burst with a radius of 60 feet. All creatures and objects in the area take 5d6 points of fire damage and catch on fire (<i>Core Rulebook</i> 444).</p><p>Creatures who make successful Reflex saves take half damage and don't catch on fire. Creatures within 120 feet of the original fire source are blinded for 1d4+1 rounds (Will negates).</p>\n</div>\n"
    },
    "tags": [],
    "activation": {
      "type": "standard"
    },
    "unchainedAction": {
      "activation": {
        "cost": 2,
        "type": "action"
      }
    },
    "target": {
      "value": "one fire source, up to a 20-foot cube"
    },
    "range": {
      "units": "long"
    },
    "uses": {
      "per": ""
    },
    "measureTemplate": {
      "size": "0"
    },
    "actionType": "spellsave",
    "damage": {
      "parts": [],
      "critParts": [],
      "nonCritParts": []
    },
    "attackParts": [],
    "ability": {
      "attack": "",
      "damage": ""
    },
    "save": {
      "dc": "0",
      "type": "ref",
      "description": "Will negates and Reflex negates; see text"
    },
    "effectNotes": [],
    "attackNotes": [],
    "links": {
      "children": []
    },
    "flags": {
      "boolean": [],
      "dictionary": []
    },
    "scriptCalls": [],
    "learnedAt": {
      "class": [
        [
          "sorcerer/wizard",
          4
        ],
        [
          "magus",
          4
        ],
        [
          "bloodrager",
          4
        ]
      ],
      "domain": [],
      "subDomain": [],
      "elementalSchool": [],
      "bloodline": []
    },
    "level": 4,
    "school": "trs",
    "types": "fire",
    "conditionals": [],
    "components": {
      "verbal": true,
      "somatic": true,
      "material": true
    },
    "materials": {
      "value": "one fire source"
    },
    "sr": false,
    "shortDescription": "<p><i>Firefall</i> causes a fire to erupt into a geyser of dazzlingly bright liquid flame. The spell uses one fire source, which is immediately extinguished. A fire larger than a 20-foot cube is only partly extinguished. Magical fires are not extinguished, but a creature of the fire subtype used as the source takes 1 point of damage per caster level (no saving throw).</p><p>The coruscating rain of fire fills a hemispherical burst with a radius of 60 feet. All creatures and objects in the area take 5d6 points of fire damage and catch on fire (<i>Core Rulebook</i> 444).</p><p>Creatures who make successful Reflex saves take half damage and don't catch on fire. Creatures within 120 feet of the original fire source are blinded for 1d4+1 rounds (Will negates).</p>",
    "spellDuration": "instantaneous"
  },
  "effects": [],
  "folder": null,
  "sort": 0,
  "permission": {
    "default": 0
  },
  "flags": {}
}