{
  "_id": "5ues51xy0x9yyapy",
  "name": "Fleshworm Infestation",
  "type": "spell",
  "img": "systems/pf1/icons/misc/magic-swirl.png",
  "data": {
    "description": {
      "value": "<div class=\"spell-description\">\n  <p>\n    <strong>School</strong>&nbsp;conjuration&nbsp;(summoning)&nbsp;[evil];\n    <strong>Level</strong>&nbsp;cleric/oracle 4, inquisitor 4, psychic 4, sorcerer/wizard 4, witch 4;\n    \n    \n    \n    \n  </p>\n  <p>\n    <strong>Casting Time</strong>&nbsp;1 standard<br>\n    <strong>Components</strong>&nbsp;V, S<br>\n  </p>\n  <p>\n    <strong>Range</strong>&nbsp;touch<br>\n    \n    <strong>Targets</strong>&nbsp;creature touched<br>\n    \n    <strong>Duration</strong>&nbsp;1 round/level (D)<br>\n      <strong>Saving Throw</strong>&nbsp;Fortitude partial (see text);&nbsp;\n      <strong>Spell Resistance</strong>&nbsp;yes<br>\n  </p>\n  <h2>Description</h2>\n  <p>With a touch, you cause an infestation of ravenous worms to manifest in the target's flesh. The target must make a Fortitude save every round. Failure means it takes 1d6 hit points of damage and 2 points of Dexterity damage, and is staggered for 1 round. If it makes the save, it takes no hit point or Dexterity damage and is only sickened for 1 round rather than staggered. <i>Fleshworm infestation</i> cannot be ended early by <i>remove disease</i> or <i>heal</i>, as the infestation starts anew if the current worms are slain. <i>Protection from Evil</i> negates this spell's effects for as long as the two durations overlap.</p><p><i>Dispel evil</i> automatically ends a <i>fleshworm infestation</i>.</p>\n</div>\n"
    },
    "tags": [],
    "activation": {
      "type": "standard"
    },
    "unchainedAction": {
      "activation": {
        "cost": 2,
        "type": "action"
      }
    },
    "target": {
      "value": "creature touched"
    },
    "range": {
      "units": "touch"
    },
    "uses": {
      "per": ""
    },
    "measureTemplate": {
      "size": "0"
    },
    "actionType": "spellsave",
    "damage": {
      "parts": [],
      "critParts": [],
      "nonCritParts": []
    },
    "attackParts": [],
    "ability": {
      "attack": "",
      "damage": ""
    },
    "save": {
      "dc": "0",
      "type": "fort",
      "description": "Fortitude partial (see text)"
    },
    "effectNotes": [],
    "attackNotes": [],
    "links": {
      "children": []
    },
    "flags": {
      "boolean": [],
      "dictionary": []
    },
    "scriptCalls": [],
    "learnedAt": {
      "class": [
        [
          "sorcerer/wizard",
          4
        ],
        [
          "cleric/oracle",
          4
        ],
        [
          "witch",
          4
        ],
        [
          "inquisitor",
          4
        ],
        [
          "psychic",
          4
        ]
      ],
      "domain": [],
      "subDomain": [],
      "elementalSchool": [],
      "bloodline": []
    },
    "level": 4,
    "school": "con",
    "subschool": "summoning",
    "types": "evil",
    "conditionals": [],
    "components": {
      "verbal": true,
      "somatic": true
    },
    "shortDescription": "<p>With a touch, you cause an infestation of ravenous worms to manifest in the target's flesh. The target must make a Fortitude save every round. Failure means it takes 1d6 hit points of damage and 2 points of Dexterity damage, and is staggered for 1 round. If it makes the save, it takes no hit point or Dexterity damage and is only sickened for 1 round rather than staggered. <i>Fleshworm infestation</i> cannot be ended early by <i>remove disease</i> or <i>heal</i>, as the infestation starts anew if the current worms are slain. <i>Protection from Evil</i> negates this spell's effects for as long as the two durations overlap.</p><p><i>Dispel evil</i> automatically ends a <i>fleshworm infestation</i>.</p>",
    "spellDuration": "1 round/level (D)"
  },
  "effects": [],
  "folder": null,
  "sort": 0,
  "permission": {
    "default": 0
  },
  "flags": {}
}