{
  "_id": "p36hwjebinvtwcp7",
  "name": "Flurry of Snowballs",
  "type": "spell",
  "img": "systems/pf1/icons/spells/fireball-sky-1.jpg",
  "data": {
    "description": {
      "value": "<div class=\"spell-description\">\n  <p>\n    <strong>School</strong>&nbsp;evocation&nbsp;[cold, water];\n    <strong>Level</strong>&nbsp;druid 2, hunter 2, magus 2, sorcerer/wizard 2, witch 2;\n    \n    \n    \n    \n  </p>\n  <p>\n    <strong>Casting Time</strong>&nbsp;1 standard<br>\n    <strong>Components</strong>&nbsp;V, S<br>\n  </p>\n  <p>\n    <strong>Range</strong>&nbsp;30 feet<br>\n    <strong>Area</strong>&nbsp;cone-shaped burst<br>\n    \n    \n    <strong>Duration</strong>&nbsp;instantaneous<br>\n      <strong>Saving Throw</strong>&nbsp;Reflex half;&nbsp;\n      <strong>Spell Resistance</strong>&nbsp;no<br>\n  </p>\n  <h2>Description</h2>\n  <p>You send a Flurry of Snowballs hurtling at your foes. Any creature in the area takes 4d6 points of cold damage from being pelted with the icy spheres.</p>\n</div>\n"
    },
    "tags": [],
    "activation": {
      "type": "standard"
    },
    "unchainedAction": {
      "activation": {
        "cost": 2,
        "type": "action"
      }
    },
    "range": {
      "value": "30",
      "units": "ft",
      "maxIncrements": "1"
    },
    "uses": {
      "per": ""
    },
    "measureTemplate": {
      "type": "cone",
      "size": "30"
    },
    "actionType": "spellsave",
    "damage": {
      "parts": [
        [
          "4d6",
          "Cold"
        ]
      ],
      "critParts": [],
      "nonCritParts": []
    },
    "attackParts": [],
    "ability": {
      "attack": "",
      "damage": ""
    },
    "save": {
      "dc": "0",
      "type": "ref",
      "description": "Reflex half"
    },
    "effectNotes": [],
    "attackNotes": [],
    "links": {
      "children": []
    },
    "flags": {
      "boolean": [],
      "dictionary": []
    },
    "scriptCalls": [],
    "learnedAt": {
      "class": [
        [
          "sorcerer/wizard",
          2
        ],
        [
          "druid",
          2
        ],
        [
          "witch",
          2
        ],
        [
          "magus",
          2
        ],
        [
          "hunter",
          2
        ]
      ],
      "domain": [],
      "subDomain": [],
      "elementalSchool": [],
      "bloodline": []
    },
    "level": 2,
    "school": "evo",
    "types": "cold, water",
    "conditionals": [],
    "components": {
      "verbal": true,
      "somatic": true
    },
    "spellbook": "",
    "sr": false,
    "shortDescription": "<p>You send a Flurry of Snowballs hurtling at your foes. Any creature in the area takes 4d6 points of cold damage from being pelted with the icy spheres.</p>",
    "spellDuration": "instantaneous",
    "spellArea": "cone-shaped burst"
  },
  "effects": [],
  "folder": null,
  "sort": 0,
  "permission": {
    "default": 0
  },
  "flags": {}
}