{
  "_id": "0wun756dydhv1ihk",
  "name": "Fool's Gold",
  "type": "spell",
  "img": "systems/pf1/icons/misc/magic-swirl.png",
  "data": {
    "description": {
      "value": "<div class=\"spell-description\">\n  <p>\n    <strong>School</strong>&nbsp;illusion;\n    <strong>Level</strong>&nbsp;bard 1, medium 1, mesmerist 1, psychic 1, sorcerer/wizard 1;\n    \n    \n    \n    \n  </p>\n  <p>\n    <strong>Casting Time</strong>&nbsp;1 standard<br>\n    <strong>Components</strong>&nbsp;V, S, M (a copper piece or silver piece)<br>\n  </p>\n  <p>\n    <strong>Range</strong>&nbsp;touch<br>\n    \n    <strong>Targets</strong>&nbsp;objects touched<br>\n    \n    <strong>Duration</strong>&nbsp;1 hour/level<br>\n      <strong>Saving Throw</strong>&nbsp;none or Will disbelief (see text);&nbsp;\n      <strong>Spell Resistance</strong>&nbsp;no<br>\n  </p>\n  <h2>Description</h2>\n  <p>You can temporarily make copper or silver seem to be an equivalent amount of gold. The spell affects 1 gp/level worth of material (thus, at 3rd level, the spell affects up to 300 copper pieces, 30 silver pieces, or a copper or silver item worth no more than 3 gp). Coins increase in value as normal for the new type of coinage. For items other than coins, some of the value of the item comes from its craftsmanship, regardless of the metal used, so the value of the item seems to be 5 times (for silver items) or 50 times (for copper items) its true value. Thus, a copper candlestick originally worth 5 cp transformed by this spell appears to be worth 250 cp, or 2 gp and 5 sp. A successful DC 25 Appraise check automatically detects the true nature of the coins or items. Creatures inspecting or interacting with the coins or items can attempt a saving throw to disbelieve the illusion.</p>\n</div>\n"
    },
    "tags": [],
    "activation": {
      "type": "standard"
    },
    "unchainedAction": {
      "activation": {
        "cost": 2,
        "type": "action"
      }
    },
    "target": {
      "value": "objects touched"
    },
    "range": {
      "units": "touch"
    },
    "uses": {
      "per": ""
    },
    "measureTemplate": {
      "size": "0"
    },
    "actionType": "spellsave",
    "damage": {
      "parts": [],
      "critParts": [],
      "nonCritParts": []
    },
    "attackParts": [],
    "ability": {
      "attack": "",
      "damage": ""
    },
    "save": {
      "dc": "0",
      "type": "will",
      "description": "none or Will disbelief (see text)"
    },
    "effectNotes": [],
    "attackNotes": [],
    "links": {
      "children": []
    },
    "flags": {
      "boolean": [],
      "dictionary": []
    },
    "scriptCalls": [],
    "learnedAt": {
      "class": [
        [
          "sorcerer/wizard",
          1
        ],
        [
          "bard",
          1
        ],
        [
          "psychic",
          1
        ],
        [
          "medium",
          1
        ],
        [
          "mesmerist",
          1
        ]
      ],
      "domain": [],
      "subDomain": [],
      "elementalSchool": [],
      "bloodline": []
    },
    "school": "ill",
    "conditionals": [],
    "components": {
      "verbal": true,
      "somatic": true,
      "material": true
    },
    "materials": {
      "value": "a copper piece or silver piece"
    },
    "sr": false,
    "shortDescription": "<p>You can temporarily make copper or silver seem to be an equivalent amount of gold. The spell affects 1 gp/level worth of material (thus, at 3rd level, the spell affects up to 300 copper pieces, 30 silver pieces, or a copper or silver item worth no more than 3 gp). Coins increase in value as normal for the new type of coinage. For items other than coins, some of the value of the item comes from its craftsmanship, regardless of the metal used, so the value of the item seems to be 5 times (for silver items) or 50 times (for copper items) its true value. Thus, a copper candlestick originally worth 5 cp transformed by this spell appears to be worth 250 cp, or 2 gp and 5 sp. A successful DC 25 Appraise check automatically detects the true nature of the coins or items. Creatures inspecting or interacting with the coins or items can attempt a saving throw to disbelieve the illusion.</p>",
    "spellDuration": "1 hour/level"
  },
  "effects": [],
  "folder": null,
  "sort": 0,
  "permission": {
    "default": 0
  },
  "flags": {}
}