{
  "_id": "5u43heihlrtuc58y",
  "name": "Ghoul Touch",
  "type": "spell",
  "img": "systems/pf1/icons/misc/magic-swirl.png",
  "data": {
    "description": {
      "value": "<div class=\"spell-description\">\n  <p>\n    <strong>School</strong>&nbsp;necromancy;\n    <strong>Level</strong>&nbsp;bloodrager 2, sorcerer/wizard 2, spiritualist 2;\n    \n    <strong>Subdomain</strong>&nbsp;Undead 2;\n    \n    \n  </p>\n  <p>\n    <strong>Casting Time</strong>&nbsp;1 standard<br>\n    <strong>Components</strong>&nbsp;V, S, M (cloth from a ghoul or earth from a ghoul&#x27;s lair)<br>\n  </p>\n  <p>\n    <strong>Range</strong>&nbsp;touch<br>\n    \n    <strong>Targets</strong>&nbsp;living humanoid touched<br>\n    \n    <strong>Duration</strong>&nbsp;1d6+2 rounds<br>\n      <strong>Saving Throw</strong>&nbsp;Fortitude negates;&nbsp;\n      <strong>Spell Resistance</strong>&nbsp;yes<br>\n  </p>\n  <h2>Description</h2>\n  <p>Imbuing you with negative energy, this spell allows you to paralyze a single living humanoid for the duration of the spell with a successful melee touch attack.</p><p>A paralyzed subject exudes a carrion stench that causes all living creatures (except you) in a 10-foot-radius spread to become sickened (Fortitude negates). A <i>neutralize poison</i> spell removes the effect from a sickened creature, and creatures immune to poison are unaffected by the stench. This is a poison effect.</p>\n</div>\n"
    },
    "tags": [],
    "activation": {
      "type": "standard"
    },
    "unchainedAction": {
      "activation": {
        "cost": 2,
        "type": "action"
      }
    },
    "target": {
      "value": "living humanoid touched"
    },
    "range": {
      "units": "touch"
    },
    "uses": {
      "per": ""
    },
    "measureTemplate": {
      "size": "0"
    },
    "actionType": "msak",
    "damage": {
      "parts": [],
      "critParts": [],
      "nonCritParts": []
    },
    "attackParts": [],
    "ability": {
      "attack": "str",
      "damage": ""
    },
    "save": {
      "dc": "0",
      "type": "fort",
      "description": "Fortitude negates"
    },
    "effectNotes": [
      "Lasts [[1d6+2]] Rounds"
    ],
    "attackNotes": [],
    "links": {
      "children": []
    },
    "flags": {
      "boolean": [],
      "dictionary": []
    },
    "scriptCalls": [],
    "learnedAt": {
      "class": [
        [
          "sorcerer/wizard",
          2
        ],
        [
          "bloodrager",
          2
        ],
        [
          "spiritualist",
          2
        ]
      ],
      "domain": [],
      "subDomain": [
        [
          "Undead",
          2
        ]
      ],
      "elementalSchool": [],
      "bloodline": []
    },
    "level": 2,
    "school": "nec",
    "conditionals": [],
    "components": {
      "verbal": true,
      "somatic": true,
      "material": true
    },
    "materials": {
      "value": "cloth from a ghoul or earth from a ghoul's lair"
    },
    "shortDescription": "<p>Imbuing you with negative energy, this spell allows you to paralyze a single living humanoid for the duration of the spell with a successful melee touch attack.</p><p>A paralyzed subject exudes a carrion stench that causes all living creatures (except you) in a 10-foot-radius spread to become sickened (Fortitude negates). A <i>neutralize poison</i> spell removes the effect from a sickened creature, and creatures immune to poison are unaffected by the stench. This is a poison effect.</p>",
    "spellDuration": "1d6+2 rounds"
  },
  "effects": [],
  "folder": null,
  "sort": 0,
  "permission": {
    "default": 0
  },
  "flags": {}
}