{
  "_id": "lkmgyqm6pzgb349s",
  "name": "Grease, Greater",
  "type": "spell",
  "img": "systems/pf1/icons/misc/magic-swirl.png",
  "data": {
    "description": {
      "value": "<div class=\"spell-description\">\n  <p>\n    <strong>School</strong>&nbsp;conjuration&nbsp;(creation);\n    <strong>Level</strong>&nbsp;bard 5, magus 5, sorcerer/wizard 5, summoner 5, unchained Summoner 5;\n    \n    \n    \n    \n  </p>\n  <p>\n    <strong>Casting Time</strong>&nbsp;1 standard<br>\n    <strong>Components</strong>&nbsp;V, S, M (butter)<br>\n  </p>\n  <p>\n    <strong>Range</strong>&nbsp;medium (100 ft. + 10 ft./level)<br>\n    \n    <strong>Targets</strong>&nbsp;one object/2 levels or 1 10-ft. square/2 levels; see text<br>\n    \n    <strong>Duration</strong>&nbsp;1 min./level (D)<br>\n      <strong>Saving Throw</strong>&nbsp;see text;&nbsp;\n      <strong>Spell Resistance</strong>&nbsp;no<br>\n  </p>\n  <h2>Description</h2>\n  <p>This spell functions like @Compendium[pf1.spells.ik9u3eel5vfwrtb5]{Grease}, except as noted here. When you use this spell to cover a solid surface with slippery <em>grease</em>, the 10-foot squares must form a continuous area, each part of which must be within the spell's range. When you use this spell to create a greasy coating on items, no two of the targeted items can be more than 30 feet apart. You cannot target both items and surfaces with a single casting of this spell.</p>\n</div>\n"
    },
    "tags": [],
    "activation": {
      "type": "standard"
    },
    "unchainedAction": {
      "activation": {
        "cost": 2,
        "type": "action"
      }
    },
    "target": {
      "value": "one object/2 levels or 1 10-ft. square/2 levels; see text"
    },
    "range": {
      "units": "medium"
    },
    "uses": {
      "per": ""
    },
    "measureTemplate": {
      "size": "0"
    },
    "actionType": "spellsave",
    "damage": {
      "parts": [],
      "critParts": [],
      "nonCritParts": []
    },
    "attackParts": [],
    "ability": {
      "attack": "",
      "damage": ""
    },
    "save": {
      "dc": "0",
      "description": "see text"
    },
    "effectNotes": [],
    "attackNotes": [],
    "links": {
      "children": []
    },
    "flags": {
      "boolean": [],
      "dictionary": []
    },
    "scriptCalls": [],
    "learnedAt": {
      "class": [
        [
          "sorcerer/wizard",
          5
        ],
        [
          "bard",
          5
        ],
        [
          "summoner",
          5
        ],
        [
          "magus",
          5
        ],
        [
          "unchained Summoner",
          5
        ]
      ],
      "domain": [],
      "subDomain": [],
      "elementalSchool": [],
      "bloodline": []
    },
    "level": 5,
    "school": "con",
    "subschool": "creation",
    "conditionals": [],
    "components": {
      "verbal": true,
      "somatic": true,
      "material": true
    },
    "materials": {
      "value": "butter"
    },
    "spellbook": "",
    "sr": false,
    "shortDescription": "<p>This spell functions like @Compendium[pf1.spells.ik9u3eel5vfwrtb5]{Grease}, except as noted here. When you use this spell to cover a solid surface with slippery <em>grease</em>, the 10-foot squares must form a continuous area, each part of which must be within the spell's range. When you use this spell to create a greasy coating on items, no two of the targeted items can be more than 30 feet apart. You cannot target both items and surfaces with a single casting of this spell.</p>",
    "spellDuration": "1 min./level (D)"
  },
  "effects": [],
  "folder": null,
  "sort": 0,
  "permission": {
    "default": 0
  },
  "flags": {}
}