{
  "_id": "2skh3v9ksklvojx4",
  "name": "Hallucinogenic Smoke",
  "type": "spell",
  "img": "systems/pf1/icons/misc/magic-swirl.png",
  "data": {
    "description": {
      "value": "<div class=\"spell-description\">\n  <p>\n    <strong>School</strong>&nbsp;conjuration&nbsp;[poison];\n    <strong>Level</strong>&nbsp;cleric/oracle 4, witch 4;\n    \n    \n    \n    \n  </p>\n  <p>\n    <strong>Casting Time</strong>&nbsp;1 standard<br>\n    <strong>Components</strong>&nbsp;S, M (tobacco leaves, ingested)<br>\n  </p>\n  <p>\n    <strong>Range</strong>&nbsp;personal<br>\n    \n    <strong>Targets</strong>&nbsp;you<br>\n    \n    <strong>Duration</strong>&nbsp;3 rounds/level or until discharged; see text<br>\n  </p>\n  <h2>Description</h2>\n  <p>Dark gray smoke seeps from your eyes, ears, and mouth for the spell's duration, though the smoke doesn't significantly hamper your vision. Upon casting the spell, you may immediately exhale the smoke in a 30-foot cone or do so in a later round as a standard action, ending the spell. Each living creature caught within the cone must succeed at a Fortitude save or be nauseated for 1 round per caster level as it is wracked with waves of nausea and disorienting visions. If it succeeds at its Fortitude save, the creature is instead sickened for 1d4 rounds.  If you don't expel the smoke by the end of the spell's duration, you suffer the spell's effects instead.  If you cast <i>augury</i> during the duration of <i>hallucinogenic smoke</i>, treat your caster level as 5 higher when determining the chance for a meaningful reply. Additionally, you know whether a result of \"nothing\" resulted from a failed or successful <i>augury</i>.</p>\n</div>\n"
    },
    "tags": [],
    "activation": {
      "type": "standard"
    },
    "unchainedAction": {
      "activation": {
        "cost": 2,
        "type": "action"
      }
    },
    "target": {
      "value": "you"
    },
    "range": {
      "units": "personal"
    },
    "uses": {
      "per": ""
    },
    "measureTemplate": {
      "size": "0"
    },
    "actionType": "spellsave",
    "damage": {
      "parts": [],
      "critParts": [],
      "nonCritParts": []
    },
    "attackParts": [],
    "ability": {
      "attack": "",
      "damage": ""
    },
    "save": {
      "dc": "0",
      "type": "fort",
      "description": "Fortitude partial"
    },
    "effectNotes": [],
    "attackNotes": [],
    "links": {
      "children": []
    },
    "flags": {
      "boolean": [],
      "dictionary": []
    },
    "scriptCalls": [],
    "learnedAt": {
      "class": [
        [
          "cleric/oracle",
          4
        ],
        [
          "witch",
          4
        ]
      ],
      "domain": [],
      "subDomain": [],
      "elementalSchool": [],
      "bloodline": []
    },
    "level": 4,
    "school": "con",
    "types": "poison",
    "conditionals": [],
    "components": {
      "somatic": true,
      "material": true
    },
    "materials": {
      "value": "tobacco leaves, ingested"
    },
    "shortDescription": "<p>Dark gray smoke seeps from your eyes, ears, and mouth for the spell's duration, though the smoke doesn't significantly hamper your vision. Upon casting the spell, you may immediately exhale the smoke in a 30-foot cone or do so in a later round as a standard action, ending the spell. Each living creature caught within the cone must succeed at a Fortitude save or be nauseated for 1 round per caster level as it is wracked with waves of nausea and disorienting visions. If it succeeds at its Fortitude save, the creature is instead sickened for 1d4 rounds.  If you don't expel the smoke by the end of the spell's duration, you suffer the spell's effects instead.  If you cast <i>augury</i> during the duration of <i>hallucinogenic smoke</i>, treat your caster level as 5 higher when determining the chance for a meaningful reply. Additionally, you know whether a result of \"nothing\" resulted from a failed or successful <i>augury</i>.</p>",
    "spellDuration": "3 rounds/level or until discharged; see text"
  },
  "effects": [],
  "folder": null,
  "sort": 0,
  "permission": {
    "default": 0
  },
  "flags": {}
}