{
  "_id": "a2y1yf0a4jy3610w",
  "name": "Hallucinatory Terrain",
  "type": "spell",
  "img": "systems/pf1/icons/misc/magic-swirl.png",
  "data": {
    "description": {
      "value": "<div class=\"spell-description\">\n  <p>\n    <strong>School</strong>&nbsp;illusion&nbsp;(glamer);\n    <strong>Level</strong>&nbsp;bard 4, mesmerist 4, psychic 4, sorcerer/wizard 4;\n    \n    \n    \n    \n  </p>\n  <p>\n    <strong>Casting Time</strong>&nbsp;10 minutes<br>\n    <strong>Components</strong>&nbsp;V, S, M (a stone, a twig, and a green leaf)<br>\n  </p>\n  <p>\n    <strong>Range</strong>&nbsp;long (400 ft. + 40 ft./level)<br>\n    <strong>Area</strong>&nbsp;one 30-ft. cube/level<br>\n    \n    \n    <strong>Duration</strong>&nbsp;2 hours/level<br>\n      <strong>Saving Throw</strong>&nbsp;Will disbelief (if interacted with);&nbsp;\n      <strong>Spell Resistance</strong>&nbsp;no<br>\n  </p>\n  <h2>Description</h2>\n  <p>You make natural terrain look, sound, and smell like some other sort of natural terrain. Structures, equipment, and creatures within the area are not hidden or changed in appearance.</p>\n</div>\n"
    },
    "tags": [],
    "activation": {
      "cost": 10,
      "type": "minute"
    },
    "unchainedAction": {
      "activation": {
        "cost": 10,
        "type": "minute"
      }
    },
    "range": {
      "units": "long"
    },
    "uses": {
      "per": ""
    },
    "measureTemplate": {
      "size": "0"
    },
    "actionType": "spellsave",
    "damage": {
      "parts": [],
      "critParts": [],
      "nonCritParts": []
    },
    "attackParts": [],
    "ability": {
      "attack": "",
      "damage": ""
    },
    "save": {
      "dc": "0",
      "type": "will",
      "description": "Will disbelief (if interacted with)"
    },
    "effectNotes": [],
    "attackNotes": [],
    "links": {
      "children": []
    },
    "flags": {
      "boolean": [],
      "dictionary": []
    },
    "scriptCalls": [],
    "learnedAt": {
      "class": [
        [
          "sorcerer/wizard",
          4
        ],
        [
          "bard",
          4
        ],
        [
          "psychic",
          4
        ],
        [
          "mesmerist",
          4
        ]
      ],
      "domain": [],
      "subDomain": [],
      "elementalSchool": [],
      "bloodline": []
    },
    "level": 4,
    "school": "ill",
    "subschool": "glamer",
    "conditionals": [],
    "components": {
      "verbal": true,
      "somatic": true,
      "material": true
    },
    "materials": {
      "value": "a stone, a twig, and a green leaf"
    },
    "sr": false,
    "shortDescription": "<p>You make natural terrain look, sound, and smell like some other sort of natural terrain. Structures, equipment, and creatures within the area are not hidden or changed in appearance.</p>",
    "spellDuration": "2 hours/level",
    "spellArea": "one 30-ft. cube/level"
  },
  "effects": [],
  "folder": null,
  "sort": 0,
  "permission": {
    "default": 0
  },
  "flags": {}
}