{
  "_id": "elf0s1di1ihcjgxr",
  "name": "Invisibility Alarm",
  "type": "spell",
  "img": "systems/pf1/icons/misc/magic-swirl.png",
  "data": {
    "description": {
      "value": "<div class=\"spell-description\">\n  <p>\n    <strong>School</strong>&nbsp;abjuration;\n    <strong>Level</strong>&nbsp;alchemist 1, bard 1, hunter 1, inquisitor 1, psychic 1, ranger 1, sorcerer/wizard 1;\n    \n    \n    \n    \n  </p>\n  <p>\n    <strong>Casting Time</strong>&nbsp;1 standard<br>\n    <strong>Components</strong>&nbsp;V, S, F/DF (a tiny bell and a piece of very fine silver wire)<br>\n  </p>\n  <p>\n    <strong>Range</strong>&nbsp;close (25 ft. + 5 ft./2 levels)<br>\n    <strong>Area</strong>&nbsp;20-ft.-radius emanation centered on a point in space<br>\n    \n    \n    <strong>Duration</strong>&nbsp;10 minutes/level<br>\n      <strong>Saving Throw</strong>&nbsp;none;&nbsp;\n      <strong>Spell Resistance</strong>&nbsp;no<br>\n  </p>\n  <h2>Description</h2>\n  <p>This spell functions as <i>alarm</i>, except it is triggered only by invisible creatures entering or leaving the warded area.</p><p>The spell has a different mental <i>alarm</i> depending on whether the invisible creature is entering or leaving the area. This spell does not aid you in sensing or pinpointing the location of an invisible creature within the spell's area.</p><p>Invisibility <i>alarm</i> can be made permanent with a <i>permanency</i> spell by a caster of 9th level or higher at a cost of 2,500 gp.</p>\n</div>\n"
    },
    "tags": [],
    "activation": {
      "type": "standard"
    },
    "unchainedAction": {
      "activation": {
        "cost": 2,
        "type": "action"
      }
    },
    "range": {
      "units": "close"
    },
    "uses": {
      "per": ""
    },
    "measureTemplate": {
      "type": "circle",
      "size": "20"
    },
    "actionType": "",
    "damage": {
      "parts": [],
      "critParts": [],
      "nonCritParts": []
    },
    "attackParts": [],
    "ability": {
      "attack": "",
      "damage": ""
    },
    "save": {
      "dc": "0"
    },
    "effectNotes": [],
    "attackNotes": [],
    "links": {
      "children": []
    },
    "flags": {
      "boolean": [],
      "dictionary": []
    },
    "scriptCalls": [],
    "learnedAt": {
      "class": [
        [
          "sorcerer/wizard",
          1
        ],
        [
          "ranger",
          1
        ],
        [
          "bard",
          1
        ],
        [
          "alchemist",
          1
        ],
        [
          "inquisitor",
          1
        ],
        [
          "psychic",
          1
        ],
        [
          "hunter",
          1
        ]
      ],
      "domain": [],
      "subDomain": [],
      "elementalSchool": [],
      "bloodline": []
    },
    "school": "abj",
    "conditionals": [],
    "components": {
      "verbal": true,
      "somatic": true,
      "focus": true,
      "divineFocus": 3
    },
    "materials": {
      "focus": "a tiny bell and a piece of very fine silver wire"
    },
    "sr": false,
    "shortDescription": "<p>This spell functions as <i>alarm</i>, except it is triggered only by invisible creatures entering or leaving the warded area.</p><p>The spell has a different mental <i>alarm</i> depending on whether the invisible creature is entering or leaving the area. This spell does not aid you in sensing or pinpointing the location of an invisible creature within the spell's area.</p><p>Invisibility <i>alarm</i> can be made permanent with a <i>permanency</i> spell by a caster of 9th level or higher at a cost of 2,500 gp.</p>",
    "spellDuration": "10 minutes/level",
    "spellArea": "20-ft.-radius emanation centered on a point in space"
  },
  "effects": [],
  "folder": null,
  "sort": 0,
  "permission": {
    "default": 0
  },
  "flags": {}
}