{
  "_id": "m7jh3m0isjo6cj9t",
  "name": "Lament of Summer's Last Breath",
  "type": "spell",
  "img": "systems/pf1/icons/misc/magic-swirl.png",
  "data": {
    "description": {
      "value": "<div class=\"spell-description\">\n  <p>\n    <strong>School</strong>&nbsp;abjuration&nbsp;[fire, good];\n    <strong>Level</strong>&nbsp;bard 2, hunter 2, ranger 2;\n    \n    \n    \n    \n  </p>\n  <p>\n    <strong>Casting Time</strong>&nbsp;1 standard<br>\n    <strong>Components</strong>&nbsp;V<br>\n  </p>\n  <p>\n    <strong>Range</strong>&nbsp;close (25 ft. + 5 ft./2 levels)<br>\n    <strong>Area</strong>&nbsp;30-ft. radius spread centered on a creature, object, or point in space<br>\n    \n    \n    <strong>Duration</strong>&nbsp;1 round/level<br>\n      <strong>Saving Throw</strong>&nbsp;Will negates (see text);&nbsp;\n      <strong>Spell Resistance</strong>&nbsp;yes<br>\n  </p>\n  <h2>Description</h2>\n  <p>You wrap the target in a mantle of summery air, within which the ambient temperature never falls below 70 degrees Fahrenheit. Creatures with the cold subtype that start their turns in the area take an amount of fire damage equal to 1d4 points + 1 point per 2 caster levels (maximum 1d4+5) with no saving throw. Each time an evil dragon, fey, or giant takes damage from the spell, it must succeed at a Will saving throw or become shaken for 1 round. Creatures attempting to cast a cold spell in the area must succeed at a Will save or the spell fails. Succeeding at one such save to cast a spell allows a creature to continue casting cold spells in the area for the spell's remainder.</p>\n</div>\n"
    },
    "tags": [],
    "activation": {
      "type": "standard"
    },
    "unchainedAction": {
      "activation": {
        "cost": 2,
        "type": "action"
      }
    },
    "range": {
      "units": "close"
    },
    "uses": {
      "per": ""
    },
    "measureTemplate": {
      "size": "0"
    },
    "actionType": "spellsave",
    "damage": {
      "parts": [],
      "critParts": [],
      "nonCritParts": []
    },
    "attackParts": [],
    "ability": {
      "attack": "",
      "damage": ""
    },
    "save": {
      "dc": "0",
      "type": "will",
      "description": "Will negates (see text)"
    },
    "effectNotes": [],
    "attackNotes": [],
    "links": {
      "children": []
    },
    "flags": {
      "boolean": [],
      "dictionary": []
    },
    "scriptCalls": [],
    "learnedAt": {
      "class": [
        [
          "ranger",
          2
        ],
        [
          "bard",
          2
        ],
        [
          "hunter",
          2
        ]
      ],
      "domain": [],
      "subDomain": [],
      "elementalSchool": [],
      "bloodline": []
    },
    "level": 2,
    "school": "abj",
    "types": "fire, good",
    "conditionals": [],
    "components": {
      "verbal": true
    },
    "shortDescription": "<p>You wrap the target in a mantle of summery air, within which the ambient temperature never falls below 70 degrees Fahrenheit. Creatures with the cold subtype that start their turns in the area take an amount of fire damage equal to 1d4 points + 1 point per 2 caster levels (maximum 1d4+5) with no saving throw. Each time an evil dragon, fey, or giant takes damage from the spell, it must succeed at a Will saving throw or become shaken for 1 round. Creatures attempting to cast a cold spell in the area must succeed at a Will save or the spell fails. Succeeding at one such save to cast a spell allows a creature to continue casting cold spells in the area for the spell's remainder.</p>",
    "spellDuration": "1 round/level",
    "spellArea": "30-ft. radius spread centered on a creature, object, or point in space"
  },
  "effects": [],
  "folder": null,
  "sort": 0,
  "permission": {
    "default": 0
  },
  "flags": {}
}