{
  "_id": "5mx8fy8burriwz2c",
  "name": "Light Prison",
  "type": "spell",
  "img": "systems/pf1/icons/misc/magic-swirl.png",
  "data": {
    "description": {
      "value": "<div class=\"spell-description\">\n  <p>\n    <strong>School</strong>&nbsp;evocation&nbsp;[light];\n    <strong>Level</strong>&nbsp;bard 2, cleric/oracle 2, inquisitor 2, magus 2, sorcerer/wizard 2;\n    \n    \n    \n    \n  </p>\n  <p>\n    <strong>Casting Time</strong>&nbsp;1 standard<br>\n    <strong>Components</strong>&nbsp;V, S<br>\n  </p>\n  <p>\n    <strong>Range</strong>&nbsp;close (25 ft. + 5 ft./2 levels)<br>\n    \n    <strong>Targets</strong>&nbsp;one creature/2 levels<br>\n    \n    <strong>Duration</strong>&nbsp;1 round/level (D)<br>\n      <strong>Saving Throw</strong>&nbsp;Reflex negates;&nbsp;\n      <strong>Spell Resistance</strong>&nbsp;yes<br>\n  </p>\n  <h2>Description</h2>\n  <p>Rays of light burst forth from your outstretched hand, encircling each target's space with a cage of light. If a target fails its Reflex save, it becomes enclosed in the <i>light prison</i>. A creature enclosed in a <i>light prison</i> can attack, cast spells, and otherwise act normally as long as it stays within the <i>light prison</i>. However, if a creature passes through the walls of a <i>light prison</i> enclosing it, it takes 1d6 points of damage and is blinded for 1 round.</p><p>Creatures do not receive saves to negate these effects. Once a creature passes through the walls of a <i>light prison</i> surrounding it, the effect ends for that creature.</p>\n</div>\n"
    },
    "tags": [],
    "activation": {
      "type": "standard"
    },
    "unchainedAction": {
      "activation": {
        "cost": 2,
        "type": "action"
      }
    },
    "target": {
      "value": "one creature/2 levels"
    },
    "range": {
      "units": "close"
    },
    "uses": {
      "per": ""
    },
    "measureTemplate": {
      "size": "0"
    },
    "actionType": "spellsave",
    "damage": {
      "parts": [],
      "critParts": [],
      "nonCritParts": []
    },
    "attackParts": [],
    "ability": {
      "attack": "",
      "damage": ""
    },
    "save": {
      "dc": "0",
      "type": "ref",
      "description": "Reflex negates"
    },
    "effectNotes": [],
    "attackNotes": [],
    "links": {
      "children": []
    },
    "flags": {
      "boolean": [],
      "dictionary": []
    },
    "scriptCalls": [],
    "learnedAt": {
      "class": [
        [
          "sorcerer/wizard",
          2
        ],
        [
          "cleric/oracle",
          2
        ],
        [
          "bard",
          2
        ],
        [
          "inquisitor",
          2
        ],
        [
          "magus",
          2
        ]
      ],
      "domain": [],
      "subDomain": [],
      "elementalSchool": [],
      "bloodline": []
    },
    "level": 2,
    "school": "evo",
    "types": "light",
    "conditionals": [],
    "components": {
      "verbal": true,
      "somatic": true
    },
    "shortDescription": "<p>Rays of light burst forth from your outstretched hand, encircling each target's space with a cage of light. If a target fails its Reflex save, it becomes enclosed in the <i>light prison</i>. A creature enclosed in a <i>light prison</i> can attack, cast spells, and otherwise act normally as long as it stays within the <i>light prison</i>. However, if a creature passes through the walls of a <i>light prison</i> enclosing it, it takes 1d6 points of damage and is blinded for 1 round.</p><p>Creatures do not receive saves to negate these effects. Once a creature passes through the walls of a <i>light prison</i> surrounding it, the effect ends for that creature.</p>",
    "spellDuration": "1 round/level (D)"
  },
  "effects": [],
  "folder": null,
  "sort": 0,
  "permission": {
    "default": 0
  },
  "flags": {}
}