{
  "_id": "8u47mrsvdw4ssinw",
  "name": "Lost Locale",
  "type": "spell",
  "img": "systems/pf1/icons/misc/magic-swirl.png",
  "data": {
    "description": {
      "value": "<div class=\"spell-description\">\n  <p>\n    <strong>School</strong>&nbsp;enchantment&nbsp;(compulsion)&nbsp;[mind-affecting];\n    <strong>Level</strong>&nbsp;psychic 9, sorcerer/wizard 9;\n    \n    \n    \n    \n  </p>\n  <p>\n    <strong>Casting Time</strong>&nbsp;24 hours<br>\n    <strong>Components</strong>&nbsp;V, S<br>\n  </p>\n  <p>\n    <strong>Range</strong>&nbsp;1 miles<br>\n    <strong>Area</strong>&nbsp;one 1-mile cube/level<br>\n    \n    \n    <strong>Duration</strong>&nbsp;2 hours/level (D)<br>\n      <strong>Saving Throw</strong>&nbsp;Will partial;&nbsp;\n      <strong>Spell Resistance</strong>&nbsp;yes<br>\n  </p>\n  <h2>Description</h2>\n  <p>This spell functions as <i>lost passage</i> (see below), except that it affects a larger area. <i>Lost locale</i> can be made permanent with <i>permanency</i> at a cost of 90,000 gp.</p>\n</div>\n"
    },
    "tags": [],
    "activation": {
      "cost": 24,
      "type": "hour"
    },
    "unchainedAction": {
      "activation": {
        "cost": 24,
        "type": "hour"
      }
    },
    "range": {
      "value": 1,
      "units": "mi"
    },
    "uses": {
      "per": ""
    },
    "measureTemplate": {
      "size": "0"
    },
    "actionType": "spellsave",
    "damage": {
      "parts": [],
      "critParts": [],
      "nonCritParts": []
    },
    "attackParts": [],
    "ability": {
      "attack": "",
      "damage": ""
    },
    "save": {
      "dc": "0",
      "type": "will",
      "description": "Will partial"
    },
    "effectNotes": [],
    "attackNotes": [],
    "links": {
      "children": []
    },
    "flags": {
      "boolean": [],
      "dictionary": []
    },
    "scriptCalls": [],
    "learnedAt": {
      "class": [
        [
          "sorcerer/wizard",
          9
        ],
        [
          "psychic",
          9
        ]
      ],
      "domain": [],
      "subDomain": [],
      "elementalSchool": [],
      "bloodline": []
    },
    "level": 9,
    "school": "enc",
    "subschool": "compulsion",
    "types": "mind-affecting",
    "conditionals": [],
    "components": {
      "verbal": true,
      "somatic": true
    },
    "shortDescription": "<p>This spell functions as <i>lost passage</i> (see below), except that it affects a larger area. <i>Lost locale</i> can be made permanent with <i>permanency</i> at a cost of 90,000 gp.</p>",
    "spellDuration": "2 hours/level (D)",
    "spellArea": "one 1-mile cube/level"
  },
  "effects": [],
  "folder": null,
  "sort": 0,
  "permission": {
    "default": 0
  },
  "flags": {}
}