{
  "_id": "26x41q3v0vhz8va0",
  "name": "Lucky Number",
  "type": "spell",
  "img": "systems/pf1/icons/misc/magic-swirl.png",
  "data": {
    "description": {
      "value": "<div class=\"spell-description\">\n  <p>\n    <strong>School</strong>&nbsp;transmutation;\n    <strong>Level</strong>&nbsp;bard 1, cleric/oracle 1, druid 1, hunter 1, inquisitor 1, paladin 1, sorcerer/wizard 1, summoner 1, unchained Summoner 1, witch 1;\n    \n    \n    \n    \n  </p>\n  <p>\n    <strong>Casting Time</strong>&nbsp;1 standard<br>\n    <strong>Components</strong>&nbsp;V, S<br>\n  </p>\n  <p>\n    <strong>Range</strong>&nbsp;touch<br>\n    \n    <strong>Targets</strong>&nbsp;one willing creature<br>\n    \n    <strong>Duration</strong>&nbsp;24 hours or until discharged<br>\n      <strong>Saving Throw</strong>&nbsp;none;&nbsp;\n      <strong>Spell Resistance</strong>&nbsp;no<br>\n  </p>\n  <h2>Description</h2>\n  <p>You are able to tweak tiny variables affecting a creature's immediate future in order to grant the target a Bit of Luck at the right time. Roll a d20; once during the duration of <i>lucky number</i>, when the target creature rolls that result (regardless of what type of dice the target rolls), the creature has the option to either reroll the result or add a +2 luck bonus to the result. The creature must decide to use this ability before the success or failure of the original roll is known. A creature can have only one <i>lucky number</i> at a time. If <i>lucky number</i> is cast on a creature already affected by that spell, the new number replaces the previous one.</p>\n</div>\n"
    },
    "tags": [],
    "activation": {
      "type": "standard"
    },
    "unchainedAction": {
      "activation": {
        "cost": 2,
        "type": "action"
      }
    },
    "target": {
      "value": "one willing creature"
    },
    "range": {
      "units": "touch"
    },
    "uses": {
      "per": ""
    },
    "measureTemplate": {
      "size": "0"
    },
    "actionType": "",
    "damage": {
      "parts": [],
      "critParts": [],
      "nonCritParts": []
    },
    "attackParts": [],
    "ability": {
      "attack": "",
      "damage": ""
    },
    "save": {
      "dc": "0"
    },
    "effectNotes": [],
    "attackNotes": [],
    "links": {
      "children": []
    },
    "flags": {
      "boolean": [],
      "dictionary": []
    },
    "scriptCalls": [],
    "learnedAt": {
      "class": [
        [
          "sorcerer/wizard",
          1
        ],
        [
          "cleric/oracle",
          1
        ],
        [
          "druid",
          1
        ],
        [
          "bard",
          1
        ],
        [
          "paladin",
          1
        ],
        [
          "summoner",
          1
        ],
        [
          "witch",
          1
        ],
        [
          "inquisitor",
          1
        ],
        [
          "hunter",
          1
        ],
        [
          "unchained Summoner",
          1
        ]
      ],
      "domain": [],
      "subDomain": [],
      "elementalSchool": [],
      "bloodline": []
    },
    "school": "trs",
    "conditionals": [],
    "components": {
      "verbal": true,
      "somatic": true
    },
    "sr": false,
    "shortDescription": "<p>You are able to tweak tiny variables affecting a creature's immediate future in order to grant the target a Bit of Luck at the right time. Roll a d20; once during the duration of <i>lucky number</i>, when the target creature rolls that result (regardless of what type of dice the target rolls), the creature has the option to either reroll the result or add a +2 luck bonus to the result. The creature must decide to use this ability before the success or failure of the original roll is known. A creature can have only one <i>lucky number</i> at a time. If <i>lucky number</i> is cast on a creature already affected by that spell, the new number replaces the previous one.</p>",
    "spellDuration": "24 hours or until discharged"
  },
  "effects": [],
  "folder": null,
  "sort": 0,
  "permission": {
    "default": 0
  },
  "flags": {}
}