{
  "_id": "ip70uslfhmjl0vo0",
  "name": "Mage's Crawl Space",
  "type": "spell",
  "img": "systems/pf1/icons/misc/magic-swirl.png",
  "data": {
    "description": {
      "value": "<div class=\"spell-description\">\n  <p>\n    <strong>School</strong>&nbsp;transmutation;\n    <strong>Level</strong>&nbsp;bard 2, shaman 2, sorcerer/wizard 2, witch 2;\n    \n    \n    \n    \n  </p>\n  <p>\n    <strong>Casting Time</strong>&nbsp;1 standard<br>\n    <strong>Components</strong>&nbsp;V, S, M (a piece of clay)<br>\n  </p>\n  <p>\n    <strong>Range</strong>&nbsp;personal<br>\n    \n    \n    <strong>Effect</strong>&nbsp;5-foot sphere centered on yourself<br>\n    <strong>Duration</strong>&nbsp;1 hour/level (D)<br>\n  </p>\n  <h2>Description</h2>\n  <p>When you cast this spell, you merge with an adjacent natural stone surface, forming a 5-foot pocket within. If the stone surface does not have enough volume to safely contain a 5-foot sphere of empty space, the spell fails. When created, there is sufficient air within the pocket for up to one Medium creature to survive for the spell's duration, including one additional Tiny or smaller creature, such as a familiar. At the end of the spell's duration, you are immediately expelled into the nearest available open space adjacent to the surface you merged with.</p>\n</div>\n"
    },
    "tags": [],
    "activation": {
      "type": "standard"
    },
    "unchainedAction": {
      "activation": {
        "cost": 2,
        "type": "action"
      }
    },
    "range": {
      "units": "personal"
    },
    "uses": {
      "per": ""
    },
    "measureTemplate": {
      "size": "0"
    },
    "actionType": "other",
    "damage": {
      "parts": [],
      "critParts": [],
      "nonCritParts": []
    },
    "attackParts": [],
    "ability": {
      "attack": "",
      "damage": ""
    },
    "save": {
      "dc": "0"
    },
    "effectNotes": [],
    "attackNotes": [],
    "links": {
      "children": []
    },
    "flags": {
      "boolean": [],
      "dictionary": []
    },
    "scriptCalls": [],
    "learnedAt": {
      "class": [
        [
          "sorcerer/wizard",
          2
        ],
        [
          "bard",
          2
        ],
        [
          "witch",
          2
        ],
        [
          "shaman",
          2
        ]
      ],
      "domain": [],
      "subDomain": [],
      "elementalSchool": [],
      "bloodline": []
    },
    "level": 2,
    "school": "trs",
    "conditionals": [],
    "components": {
      "verbal": true,
      "somatic": true,
      "material": true
    },
    "materials": {
      "value": "a piece of clay"
    },
    "sr": false,
    "shortDescription": "<p>When you cast this spell, you merge with an adjacent natural stone surface, forming a 5-foot pocket within. If the stone surface does not have enough volume to safely contain a 5-foot sphere of empty space, the spell fails. When created, there is sufficient air within the pocket for up to one Medium creature to survive for the spell's duration, including one additional Tiny or smaller creature, such as a familiar. At the end of the spell's duration, you are immediately expelled into the nearest available open space adjacent to the surface you merged with.</p>",
    "spellDuration": "1 hour/level (D)",
    "spellEffect": "5-foot sphere centered on yourself"
  },
  "effects": [],
  "folder": null,
  "sort": 0,
  "permission": {
    "default": 0
  },
  "flags": {}
}