{
  "_id": "qy6sn5a4wrsa36yb",
  "name": "Majestic Image",
  "type": "spell",
  "img": "systems/pf1/icons/misc/magic-swirl.png",
  "data": {
    "description": {
      "value": "<div class=\"spell-description\">\n  <p>\n    <strong>School</strong>&nbsp;transmutation;\n    <strong>Level</strong>&nbsp;bard 4, cleric/oracle 4, medium 4, mesmerist 4, occultist 4, sorcerer/wizard 4, spiritualist 4;\n    \n    \n    \n    \n  </p>\n  <p>\n    <strong>Casting Time</strong>&nbsp;1 standard<br>\n    <strong>Components</strong>&nbsp;V, S, M (a drop of paint and a ball of clay)<br>\n  </p>\n  <p>\n    <strong>Range</strong>&nbsp;200 feet<br>\n    \n    \n    <strong>Effect</strong>&nbsp;transfer consciousness to an object bearing your likeness<br>\n    <strong>Duration</strong>&nbsp;concentration<br>\n      <strong>Saving Throw</strong>&nbsp;Will negates (see text);&nbsp;\n      <strong>Spell Resistance</strong>&nbsp;yes<br>\n  </p>\n  <h2>Description</h2>\n  <p>You cast your consciousness into a single object within range that bears your likeness, as if choosing a specific image with the spell <i>enter</i> imageAPG. In addition to observing your surroundings, speaking, and manipulating the image you inhabit, however, you can converse with nearby creatures and use your normal social skills.  You gain a +5 bonus on Bluff checks to tell lies and Diplomacy checks to make a request. You gain a +2 bonus on Intimidate checks and use the object's size to determine whether you gain a bonus or penalty on Intimidate checks for size.</p>\n</div>\n"
    },
    "tags": [],
    "activation": {
      "type": "standard"
    },
    "unchainedAction": {
      "activation": {
        "cost": 2,
        "type": "action"
      }
    },
    "range": {
      "value": 200,
      "units": "ft"
    },
    "uses": {
      "per": ""
    },
    "measureTemplate": {
      "size": "0"
    },
    "actionType": "spellsave",
    "damage": {
      "parts": [],
      "critParts": [],
      "nonCritParts": []
    },
    "attackParts": [],
    "ability": {
      "attack": "",
      "damage": ""
    },
    "save": {
      "dc": "0",
      "type": "will",
      "description": "Will negates (see text)"
    },
    "effectNotes": [],
    "attackNotes": [],
    "links": {
      "children": []
    },
    "flags": {
      "boolean": [],
      "dictionary": []
    },
    "scriptCalls": [],
    "learnedAt": {
      "class": [
        [
          "sorcerer/wizard",
          4
        ],
        [
          "cleric/oracle",
          4
        ],
        [
          "bard",
          4
        ],
        [
          "medium",
          4
        ],
        [
          "mesmerist",
          4
        ],
        [
          "occultist",
          4
        ],
        [
          "spiritualist",
          4
        ]
      ],
      "domain": [],
      "subDomain": [],
      "elementalSchool": [],
      "bloodline": []
    },
    "level": 4,
    "school": "trs",
    "conditionals": [],
    "components": {
      "verbal": true,
      "somatic": true,
      "material": true
    },
    "materials": {
      "value": "a drop of paint and a ball of clay"
    },
    "shortDescription": "<p>You cast your consciousness into a single object within range that bears your likeness, as if choosing a specific image with the spell <i>enter</i> imageAPG. In addition to observing your surroundings, speaking, and manipulating the image you inhabit, however, you can converse with nearby creatures and use your normal social skills.  You gain a +5 bonus on Bluff checks to tell lies and Diplomacy checks to make a request. You gain a +2 bonus on Intimidate checks and use the object's size to determine whether you gain a bonus or penalty on Intimidate checks for size.</p>",
    "spellDuration": "concentration",
    "spellEffect": "transfer consciousness to an object bearing your likeness"
  },
  "effects": [],
  "folder": null,
  "sort": 0,
  "permission": {
    "default": 0
  },
  "flags": {}
}