{
  "_id": "b8lt1275mz4ez4d8",
  "name": "Major Creation",
  "type": "spell",
  "img": "systems/pf1/icons/misc/magic-swirl.png",
  "data": {
    "description": {
      "value": "<div class=\"spell-description\">\n  <p>\n    <strong>School</strong>&nbsp;conjuration&nbsp;(creation);\n    <strong>Level</strong>&nbsp;adept 5, occultist 4, psychic 5, sorcerer/wizard 5, summoner 4, unchained Summoner 4, witch 5;\n    <strong>Domain</strong>&nbsp;Artifice 6;\n    <strong>Subdomain</strong>&nbsp;Flotsam 5;\n    \n    <strong>Bloodline</strong>&nbsp;Protean 5;\n  </p>\n  <p>\n    <strong>Casting Time</strong>&nbsp;10 minutes<br>\n    <strong>Components</strong>&nbsp;V, S, M (a tiny piece of matter of the same sort of item you plan to create with minor creation)<br>\n  </p>\n  <p>\n    <strong>Range</strong>&nbsp;close (25 ft. + 5 ft./2 levels)<br>\n    \n    \n    <strong>Effect</strong>&nbsp;unattended, nonmagical object of nonliving plant matter, up to 1 cu. ft./level<br>\n    <strong>Duration</strong>&nbsp;see text<br>\n      <strong>Saving Throw</strong>&nbsp;none;&nbsp;\n      <strong>Spell Resistance</strong>&nbsp;no<br>\n  </p>\n  <h2>Description</h2>\n  <p>This spell functions like <i>minor creation,</i> except that you can also create an object of mineral nature: stone, crystal, metal, or the like. The duration of the created item varies with its relative hardness and rarity, as indicated on the following table.</p><p> <table><tr><th>Hardness and Rarity Examples</th><th>Duration</th></tr><tr><td>Vegetable matter</td><td>2 hr./level</td></tr><tr><td>Stone, crystal, base metals</td><td>1 hr./level</td></tr><tr><td>Precious metals</td><td>20 min./level</td></tr><tr><td>Gems</td><td>10 min./level</td></tr><tr><td>Rare metal*</td><td>1 round/level</td></tr><tr><td colspan=\"2\">*Includes adamantine, alchemical silver, and mithral. You can't use major creation to create a cold iron item.</td></tr></table> </p>\n</div>\n"
    },
    "tags": [],
    "activation": {
      "cost": 10,
      "type": "minute"
    },
    "unchainedAction": {
      "activation": {
        "cost": 10,
        "type": "minute"
      }
    },
    "range": {
      "units": "close"
    },
    "uses": {
      "per": ""
    },
    "measureTemplate": {
      "size": "0"
    },
    "actionType": "other",
    "damage": {
      "parts": [],
      "critParts": [],
      "nonCritParts": []
    },
    "attackParts": [],
    "ability": {
      "attack": "",
      "damage": ""
    },
    "save": {
      "dc": "0"
    },
    "effectNotes": [],
    "attackNotes": [],
    "links": {
      "children": []
    },
    "flags": {
      "boolean": [],
      "dictionary": []
    },
    "scriptCalls": [],
    "learnedAt": {
      "class": [
        [
          "sorcerer/wizard",
          5
        ],
        [
          "summoner",
          4
        ],
        [
          "witch",
          5
        ],
        [
          "adept",
          5
        ],
        [
          "psychic",
          5
        ],
        [
          "occultist",
          4
        ],
        [
          "unchained Summoner",
          4
        ]
      ],
      "domain": [
        [
          "Artifice",
          6
        ]
      ],
      "subDomain": [
        [
          "Flotsam",
          5
        ]
      ],
      "elementalSchool": [],
      "bloodline": [
        [
          "Protean",
          5
        ]
      ]
    },
    "level": 5,
    "school": "con",
    "subschool": "creation",
    "conditionals": [],
    "components": {
      "verbal": true,
      "somatic": true,
      "material": true
    },
    "materials": {
      "value": "a tiny piece of matter of the same sort of item you plan to create with minor creation"
    },
    "sr": false,
    "shortDescription": "<p>This spell functions like <i>minor creation,</i> except that you can also create an object of mineral nature: stone, crystal, metal, or the like. The duration of the created item varies with its relative hardness and rarity, as indicated on the following table.</p><p> <table><tr><th>Hardness and Rarity Examples</th><th>Duration</th></tr><tr><td>Vegetable matter</td><td>2 hr./level</td></tr><tr><td>Stone, crystal, base metals</td><td>1 hr./level</td></tr><tr><td>Precious metals</td><td>20 min./level</td></tr><tr><td>Gems</td><td>10 min./level</td></tr><tr><td>Rare metal*</td><td>1 round/level</td></tr><tr><td colspan=\"2\">*Includes adamantine, alchemical silver, and mithral. You can't use major creation to create a cold iron item.</td></tr></table> </p>",
    "spellDuration": "see text",
    "spellEffect": "unattended, nonmagical object of nonliving plant matter, up to 1 cu. ft./level"
  },
  "effects": [],
  "folder": null,
  "sort": 0,
  "permission": {
    "default": 0
  },
  "flags": {}
}