{
  "_id": "7no45vnykqt1azc8",
  "name": "Mantle of Calm",
  "type": "spell",
  "img": "systems/pf1/icons/misc/magic-swirl.png",
  "data": {
    "description": {
      "value": "<div class=\"spell-description\">\n  <p>\n    <strong>School</strong>&nbsp;enchantment&nbsp;(compulsion)&nbsp;[emotion, mind-affecting];\n    <strong>Level</strong>&nbsp;cleric/oracle 3, inquisitor 3, mesmerist 2, paladin 3, psychic 3, shaman 3;\n    \n    \n    \n    \n  </p>\n  <p>\n    <strong>Casting Time</strong>&nbsp;1 standard<br>\n    <strong>Components</strong>&nbsp;V, S, DF<br>\n  </p>\n  <p>\n    <strong>Range</strong>&nbsp;personal<br>\n    \n    <strong>Targets</strong>&nbsp;you<br>\n    \n    <strong>Duration</strong>&nbsp;1 round/level (D)<br>\n  </p>\n  <h2>Description</h2>\n  <p>You surround yourself with a Mantle of Calm serenity. You take a -2 penalty on attack rolls, and opponents gain a +2 bonus on saving throws against spells you cast. Any creature affected by a <i>rage</i> effect (barbarian's <i>rage</i>,  blood<i>rage</i>r's blood<i>rage</i>, blood <i>rage</i> monster ability, <i>rage</i> spell, skald's inspired <i>rage</i> raging song, and so on) that strikes you with a melee attack must attempt a Will saving throw, without the <i>rage</i> effect's bonus to Will; failure means the <i>rage</i> effect ends (as if it were dispelled or the creature voluntarily ended it, as appropriate).  If you become affected by a <i>rage</i> effect while this spell is active, this spell immediately ends. If your <i>rage</i> effect comes from a skald's raging song, then it ends only for you, and you cannot regain the effects of the song.</p>\n</div>\n"
    },
    "tags": [],
    "activation": {
      "type": "standard"
    },
    "unchainedAction": {
      "activation": {
        "cost": 2,
        "type": "action"
      }
    },
    "target": {
      "value": "you"
    },
    "range": {
      "units": "personal"
    },
    "uses": {
      "per": ""
    },
    "measureTemplate": {
      "size": "0"
    },
    "actionType": "spellsave",
    "damage": {
      "parts": [],
      "critParts": [],
      "nonCritParts": []
    },
    "attackParts": [],
    "ability": {
      "attack": "",
      "damage": ""
    },
    "save": {
      "dc": "0",
      "type": "will",
      "description": "none and Will negates (see text)"
    },
    "effectNotes": [],
    "attackNotes": [],
    "links": {
      "children": []
    },
    "flags": {
      "boolean": [],
      "dictionary": []
    },
    "scriptCalls": [],
    "learnedAt": {
      "class": [
        [
          "cleric/oracle",
          3
        ],
        [
          "paladin",
          3
        ],
        [
          "inquisitor",
          3
        ],
        [
          "shaman",
          3
        ],
        [
          "psychic",
          3
        ],
        [
          "mesmerist",
          2
        ]
      ],
      "domain": [],
      "subDomain": [],
      "elementalSchool": [],
      "bloodline": []
    },
    "level": 3,
    "school": "enc",
    "subschool": "compulsion",
    "types": "emotion, mind-affecting",
    "conditionals": [],
    "components": {
      "verbal": true,
      "somatic": true,
      "divineFocus": 1
    },
    "sr": false,
    "shortDescription": "<p>You surround yourself with a Mantle of Calm serenity. You take a -2 penalty on attack rolls, and opponents gain a +2 bonus on saving throws against spells you cast. Any creature affected by a <i>rage</i> effect (barbarian's <i>rage</i>,  blood<i>rage</i>r's blood<i>rage</i>, blood <i>rage</i> monster ability, <i>rage</i> spell, skald's inspired <i>rage</i> raging song, and so on) that strikes you with a melee attack must attempt a Will saving throw, without the <i>rage</i> effect's bonus to Will; failure means the <i>rage</i> effect ends (as if it were dispelled or the creature voluntarily ended it, as appropriate).  If you become affected by a <i>rage</i> effect while this spell is active, this spell immediately ends. If your <i>rage</i> effect comes from a skald's raging song, then it ends only for you, and you cannot regain the effects of the song.</p>",
    "spellDuration": "1 round/level (D)"
  },
  "effects": [],
  "folder": null,
  "sort": 0,
  "permission": {
    "default": 0
  },
  "flags": {}
}