{
  "_id": "iq8qfne8fij8vo40",
  "name": "Martyr's Last Blessing",
  "type": "spell",
  "img": "systems/pf1/icons/misc/magic-swirl.png",
  "data": {
    "description": {
      "value": "<div class=\"spell-description\">\n  <p>\n    <strong>School</strong>&nbsp;conjuration&nbsp;(healing);\n    <strong>Level</strong>&nbsp;cleric/oracle 3, hunter 3, ranger 3;\n    \n    \n    \n    \n  </p>\n  <p>\n    <strong>Casting Time</strong>&nbsp;1 minute<br>\n    <strong>Components</strong>&nbsp;V, S, DF<br>\n  </p>\n  <p>\n    <strong>Range</strong>&nbsp;personal<br>\n    \n    <strong>Targets</strong>&nbsp;you and one ally/level, no two of which can be more than 30 ft. apart (see text)<br>\n    \n    <strong>Duration</strong>&nbsp;1 hour/level or instantaneous (see text)<br>\n  </p>\n  <h2>Description</h2>\n  <p>You charge your body with healing energy, which erupts from you if you are dying or are killed before 1 hour per level has passed. If you're brought below 0 hit points or killed (including by effects that kill without dealing damage, such as <i>phantasmal killer</i> and <i>power word</i> kill), the eruption of healing energy acts as <i>mass cure light wounds</i> on allies (other than you). Allies with the fewest Hit Dice are affected first. Among allies with equal HD, those closest to you are affected first. If the duration ends, the stored healing energy dissipates with no effect.</p>\n</div>\n"
    },
    "tags": [],
    "activation": {
      "type": "minute"
    },
    "unchainedAction": {
      "activation": {
        "type": "minute"
      }
    },
    "target": {
      "value": "you and one ally/level, no two of which can be more than 30 ft. apart (see text)"
    },
    "range": {
      "units": "personal"
    },
    "uses": {
      "per": ""
    },
    "measureTemplate": {
      "size": "0"
    },
    "actionType": "heal",
    "damage": {
      "parts": [],
      "critParts": [],
      "nonCritParts": []
    },
    "attackParts": [],
    "ability": {
      "attack": "",
      "damage": ""
    },
    "save": {
      "dc": "0",
      "type": "will",
      "description": "Will half (harmless, see text)"
    },
    "effectNotes": [],
    "attackNotes": [],
    "links": {
      "children": []
    },
    "flags": {
      "boolean": [],
      "dictionary": []
    },
    "scriptCalls": [],
    "learnedAt": {
      "class": [
        [
          "cleric/oracle",
          3
        ],
        [
          "ranger",
          3
        ],
        [
          "hunter",
          3
        ]
      ],
      "domain": [],
      "subDomain": [],
      "elementalSchool": [],
      "bloodline": []
    },
    "level": 3,
    "school": "con",
    "subschool": "healing",
    "conditionals": [],
    "components": {
      "verbal": true,
      "somatic": true,
      "divineFocus": 1
    },
    "shortDescription": "<p>You charge your body with healing energy, which erupts from you if you are dying or are killed before 1 hour per level has passed. If you're brought below 0 hit points or killed (including by effects that kill without dealing damage, such as <i>phantasmal killer</i> and <i>power word</i> kill), the eruption of healing energy acts as <i>mass cure light wounds</i> on allies (other than you). Allies with the fewest Hit Dice are affected first. Among allies with equal HD, those closest to you are affected first. If the duration ends, the stored healing energy dissipates with no effect.</p>",
    "spellDuration": "1 hour/level or instantaneous (see text)"
  },
  "effects": [],
  "folder": null,
  "sort": 0,
  "permission": {
    "default": 0
  },
  "flags": {}
}