{
  "_id": "rr4mp09juca1s5we",
  "name": "Mindlocked Messenger",
  "type": "spell",
  "img": "systems/pf1/icons/misc/magic-swirl.png",
  "data": {
    "description": {
      "value": "<div class=\"spell-description\">\n  <p>\n    <strong>School</strong>&nbsp;enchantment&nbsp;(compulsion)&nbsp;[language-dependent, mind-affecting];\n    <strong>Level</strong>&nbsp;bard 2, mesmerist 2, psychic 3, shaman 3, sorcerer/wizard 3, spiritualist 3, witch 3;\n    \n    \n    \n    \n  </p>\n  <p>\n    <strong>Casting Time</strong>&nbsp;10 minutes<br>\n    <strong>Components</strong>&nbsp;V, S<br>\n  </p>\n  <p>\n    <strong>Range</strong>&nbsp;close (25 ft. + 5 ft./2 levels)<br>\n    \n    <strong>Targets</strong>&nbsp;one willing living creature<br>\n    \n    <strong>Duration</strong>&nbsp;permanent until discharged (see text)<br>\n      <strong>Saving Throw</strong>&nbsp;Will negates (harmless);&nbsp;\n      <strong>Spell Resistance</strong>&nbsp;yes<br>\n  </p>\n  <h2>Description</h2>\n  <p>You speak a short message (up to 10 words per caster level), implanting both it and the identity of the message's intended recipient in the mind of a willing creature. The creature is aware of the message and who the recipient is.</p><p>Any attempt to speak, write, or otherwise communicate the message to anyone other than its intended recipient causes the target to forget the message for 1d6 minutes. Attempts to read the target's mind (such as with <i>detect</i> thoughts) or to force the target to reveal the message (such as with torture or magical compulsion) likewise cause temporary amnesia regarding the message.</p><p>The target can communicate the message only to someone it believes is the intended recipient, which means that disguises, illusions, and polymorph effects might fool the target into delivering the message. Once the target communicates the message, the message is permanently erased from the target's memory.</p>\n</div>\n"
    },
    "tags": [],
    "activation": {
      "cost": 10,
      "type": "minute"
    },
    "unchainedAction": {
      "activation": {
        "cost": 10,
        "type": "minute"
      }
    },
    "target": {
      "value": "one willing living creature"
    },
    "range": {
      "units": "close"
    },
    "uses": {
      "per": ""
    },
    "measureTemplate": {
      "size": "0"
    },
    "actionType": "spellsave",
    "damage": {
      "parts": [],
      "critParts": [],
      "nonCritParts": []
    },
    "attackParts": [],
    "ability": {
      "attack": "",
      "damage": ""
    },
    "save": {
      "dc": "0",
      "type": "will",
      "description": "Will negates (harmless)"
    },
    "effectNotes": [],
    "attackNotes": [],
    "links": {
      "children": []
    },
    "flags": {
      "boolean": [],
      "dictionary": []
    },
    "scriptCalls": [],
    "learnedAt": {
      "class": [
        [
          "sorcerer/wizard",
          3
        ],
        [
          "bard",
          2
        ],
        [
          "witch",
          3
        ],
        [
          "shaman",
          3
        ],
        [
          "psychic",
          3
        ],
        [
          "mesmerist",
          2
        ],
        [
          "spiritualist",
          3
        ]
      ],
      "domain": [],
      "subDomain": [],
      "elementalSchool": [],
      "bloodline": []
    },
    "level": 3,
    "school": "enc",
    "subschool": "compulsion",
    "types": "language-dependent, mind-affecting",
    "conditionals": [],
    "components": {
      "verbal": true,
      "somatic": true
    },
    "shortDescription": "<p>You speak a short message (up to 10 words per caster level), implanting both it and the identity of the message's intended recipient in the mind of a willing creature. The creature is aware of the message and who the recipient is.</p><p>Any attempt to speak, write, or otherwise communicate the message to anyone other than its intended recipient causes the target to forget the message for 1d6 minutes. Attempts to read the target's mind (such as with <i>detect</i> thoughts) or to force the target to reveal the message (such as with torture or magical compulsion) likewise cause temporary amnesia regarding the message.</p><p>The target can communicate the message only to someone it believes is the intended recipient, which means that disguises, illusions, and polymorph effects might fool the target into delivering the message. Once the target communicates the message, the message is permanently erased from the target's memory.</p>",
    "spellDuration": "permanent until discharged (see text)"
  },
  "effects": [],
  "folder": null,
  "sort": 0,
  "permission": {
    "default": 0
  },
  "flags": {}
}