{
  "_id": "fz4uvu2ajibbzx10",
  "name": "Mirage",
  "type": "spell",
  "img": "systems/pf1/icons/misc/magic-swirl.png",
  "data": {
    "description": {
      "value": "<div class=\"spell-description\">\n  <p>\n    <strong>School</strong>&nbsp;illusion&nbsp;(figment);\n    <strong>Level</strong>&nbsp;bard 3, druid 3, hunter 3, mesmerist 3, occultist 3, psychic 3, ranger 3;\n    \n    \n    \n    \n  </p>\n  <p>\n    <strong>Casting Time</strong>&nbsp;10 minutes<br>\n    <strong>Components</strong>&nbsp;V, S, M (a pinch of sand and a drop of water)<br>\n  </p>\n  <p>\n    <strong>Range</strong>&nbsp;long (400 ft. + 40 ft./level)<br>\n    <strong>Area</strong>&nbsp;one 40-ft. cube/level (S)<br>\n    \n    \n    <strong>Duration</strong>&nbsp;2 hours/level (D)<br>\n      <strong>Saving Throw</strong>&nbsp;Will disbelief (see below);&nbsp;\n      <strong>Spell Resistance</strong>&nbsp;yes<br>\n  </p>\n  <h2>Description</h2>\n  <p>You create an image of a pool of water, a group of standing stones, a cove, an island, or another simple land formation over a stretch of flat land or water. The image is purely visual, and structures, equipment, and creatures within the area are not hidden or changed in appearance.</p><p>Anyone interacting with the illusion can attempt to disbelieve it, and a creature trained in Survival can make a special attempt to disbelieve the illusion. The creature must be within 120 feet of the illusion's area and can attempt a Survival check instead of a Will saving throw. If the result is equal to or greater than the spell's save DC, the creature realizes the mirage is an illusion as if it disbelieved the spell.</p>\n</div>\n"
    },
    "tags": [],
    "activation": {
      "cost": 10,
      "type": "minute"
    },
    "unchainedAction": {
      "activation": {
        "cost": 10,
        "type": "minute"
      }
    },
    "range": {
      "units": "long"
    },
    "uses": {
      "per": ""
    },
    "measureTemplate": {
      "size": "0"
    },
    "actionType": "spellsave",
    "damage": {
      "parts": [],
      "critParts": [],
      "nonCritParts": []
    },
    "attackParts": [],
    "ability": {
      "attack": "",
      "damage": ""
    },
    "save": {
      "dc": "0",
      "type": "will",
      "description": "Will disbelief (see below)"
    },
    "effectNotes": [],
    "attackNotes": [],
    "links": {
      "children": []
    },
    "flags": {
      "boolean": [],
      "dictionary": []
    },
    "scriptCalls": [],
    "learnedAt": {
      "class": [
        [
          "druid",
          3
        ],
        [
          "ranger",
          3
        ],
        [
          "bard",
          3
        ],
        [
          "psychic",
          3
        ],
        [
          "mesmerist",
          3
        ],
        [
          "occultist",
          3
        ],
        [
          "hunter",
          3
        ]
      ],
      "domain": [],
      "subDomain": [],
      "elementalSchool": [],
      "bloodline": []
    },
    "level": 3,
    "school": "ill",
    "subschool": "figment",
    "conditionals": [],
    "components": {
      "verbal": true,
      "somatic": true,
      "material": true
    },
    "materials": {
      "value": "a pinch of sand and a drop of water"
    },
    "shortDescription": "<p>You create an image of a pool of water, a group of standing stones, a cove, an island, or another simple land formation over a stretch of flat land or water. The image is purely visual, and structures, equipment, and creatures within the area are not hidden or changed in appearance.</p><p>Anyone interacting with the illusion can attempt to disbelieve it, and a creature trained in Survival can make a special attempt to disbelieve the illusion. The creature must be within 120 feet of the illusion's area and can attempt a Survival check instead of a Will saving throw. If the result is equal to or greater than the spell's save DC, the creature realizes the mirage is an illusion as if it disbelieved the spell.</p>",
    "spellDuration": "2 hours/level (D)",
    "spellArea": "one 40-ft. cube/level (S)"
  },
  "effects": [],
  "folder": null,
  "sort": 0,
  "permission": {
    "default": 0
  },
  "flags": {}
}