{
  "_id": "m231syx7oiqnxsec",
  "name": "Mirror Mantis",
  "type": "spell",
  "img": "systems/pf1/icons/misc/magic-swirl.png",
  "data": {
    "description": {
      "value": "<div class=\"spell-description\">\n  <p>\n    <strong>School</strong>&nbsp;illusion&nbsp;(phantasm)&nbsp;[mind-affecting];\n    <strong>Level</strong>&nbsp;bard 1, cleric/oracle 1, mesmerist 1, occultist 1, psychic 1, sorcerer/wizard 1;\n    \n    \n    \n    \n  </p>\n  <p>\n    <strong>Casting Time</strong>&nbsp;1 standard<br>\n    <strong>Components</strong>&nbsp;S, F (a hand mirror stained with a dried drop of blood)<br>\n  </p>\n  <p>\n    <strong>Range</strong>&nbsp;medium (100 ft. + 10 ft./level)<br>\n    \n    <strong>Targets</strong>&nbsp;one living creature<br>\n    \n    <strong>Duration</strong>&nbsp;1 hour/level<br>\n      <strong>Saving Throw</strong>&nbsp;Will negates;&nbsp;\n      <strong>Spell Resistance</strong>&nbsp;yes<br>\n  </p>\n  <h2>Description</h2>\n  <p>Whenever the target of this spell looks into a mirror or other reflective surface where it can see its own visage clearly, it sees a Red Mantis assassin (in full armor, face hidden by a mantis mask) looking back at it. The reflection is harmless and mimics the target's motions perfectly; no one else can see this illusion. The first time the target sees the Red Mantis reflection, it must succeed at a Will save be or shaken and take a -2 penalty on saves against fear effects for as long as it can see the altered image and for 3 rounds thereafter. A new save must be attempted each time the creature views its reflection during the spell's duration. Once a creature successfully saves, it becomes immune to being shaken by the caster's <i>mirror mantis</i> spell for 24 hours, though it will still see the Red Mantis reflection until the spell ends.</p>\n</div>\n"
    },
    "tags": [],
    "activation": {
      "type": "standard"
    },
    "unchainedAction": {
      "activation": {
        "cost": 2,
        "type": "action"
      }
    },
    "target": {
      "value": "one living creature"
    },
    "range": {
      "units": "medium"
    },
    "uses": {
      "per": ""
    },
    "measureTemplate": {
      "size": "0"
    },
    "actionType": "spellsave",
    "damage": {
      "parts": [],
      "critParts": [],
      "nonCritParts": []
    },
    "attackParts": [],
    "ability": {
      "attack": "",
      "damage": ""
    },
    "save": {
      "dc": "0",
      "type": "will",
      "description": "Will negates"
    },
    "effectNotes": [],
    "attackNotes": [],
    "links": {
      "children": []
    },
    "flags": {
      "boolean": [],
      "dictionary": []
    },
    "scriptCalls": [],
    "learnedAt": {
      "class": [
        [
          "sorcerer/wizard",
          1
        ],
        [
          "cleric/oracle",
          1
        ],
        [
          "bard",
          1
        ],
        [
          "psychic",
          1
        ],
        [
          "mesmerist",
          1
        ],
        [
          "occultist",
          1
        ]
      ],
      "domain": [],
      "subDomain": [],
      "elementalSchool": [],
      "bloodline": []
    },
    "school": "ill",
    "subschool": "phantasm",
    "types": "mind-affecting",
    "conditionals": [],
    "components": {
      "somatic": true,
      "focus": true
    },
    "materials": {
      "focus": "a hand mirror stained with a dried drop of blood"
    },
    "shortDescription": "<p>Whenever the target of this spell looks into a mirror or other reflective surface where it can see its own visage clearly, it sees a Red Mantis assassin (in full armor, face hidden by a mantis mask) looking back at it. The reflection is harmless and mimics the target's motions perfectly; no one else can see this illusion. The first time the target sees the Red Mantis reflection, it must succeed at a Will save be or shaken and take a -2 penalty on saves against fear effects for as long as it can see the altered image and for 3 rounds thereafter. A new save must be attempted each time the creature views its reflection during the spell's duration. Once a creature successfully saves, it becomes immune to being shaken by the caster's <i>mirror mantis</i> spell for 24 hours, though it will still see the Red Mantis reflection until the spell ends.</p>",
    "spellDuration": "1 hour/level"
  },
  "effects": [],
  "folder": null,
  "sort": 0,
  "permission": {
    "default": 0
  },
  "flags": {}
}