{
  "_id": "t0g9ue2fq4iwtpkq",
  "name": "Mischievous Shadow",
  "type": "spell",
  "img": "systems/pf1/icons/misc/magic-swirl.png",
  "data": {
    "description": {
      "value": "<div class=\"spell-description\">\n  <p>\n    <strong>School</strong>&nbsp;necromancy&nbsp;(haunted)&nbsp;[emotion, fear, mind-affecting];\n    <strong>Level</strong>&nbsp;bard 4, magus 4, medium 3, shaman 4, sorcerer/wizard 4, spiritualist 4, summoner 4, unchained Summoner 4, witch 4;\n    \n    \n    \n    \n  </p>\n  <p>\n    <strong>Casting Time</strong>&nbsp;1 standard<br>\n    <strong>Components</strong>&nbsp;V, S, M (a black candle)<br>\n  </p>\n  <p>\n    <strong>Range</strong>&nbsp;close (25 ft. + 5 ft./2 levels)<br>\n    <strong>Area</strong>&nbsp;one 5-ft. cube/level (S)<br>\n    \n    \n    <strong>Duration</strong>&nbsp;1 day/level (D)<br>\n      <strong>Saving Throw</strong>&nbsp;Will negates;&nbsp;\n      <strong>Spell Resistance</strong>&nbsp;yes<br>\n  </p>\n  <h2>Description</h2>\n  <p>You direct spirits into the shadows of creatures. The shadows of creatures that fail their Will saving throws appear slightly different for the duration of the spell, bearing small horns, unusually long and slender arms, or other small discrepancies. This spell does not work on creatures that do not cast shadows or reflections. At will as an immediate action (but no more often than once every 10 minutes), a <i>mischievous shadow</i> can interfere with its host's actions or the actions of adjacent creatures by interacting with their shadows in ways that affect their physical counterparts, such as grabbing the shadow of a crossbow to redirect the physical weapon's aim. Each disruption either imposes a -8 penalty on a single attack roll, combat maneuver check, or Strength- or Dexterity-based skill check, or requires a spellcaster to succeed at a concentration check (DC = 15 + spell level) or lose a spell being cast. If you are within range of the spell effect, you can decide how these shadows interfere; otherwise, their actions are timed and decided by the GM as needed, typically manifesting during important or crucial roles. Each time a <i>mischievous shadow</i> makes such a disruption, the spell's haunt-like manifestation occurs during that round.</p>\n</div>\n"
    },
    "tags": [],
    "activation": {
      "type": "standard"
    },
    "unchainedAction": {
      "activation": {
        "cost": 2,
        "type": "action"
      }
    },
    "range": {
      "units": "close"
    },
    "uses": {
      "per": ""
    },
    "measureTemplate": {
      "size": "0"
    },
    "actionType": "spellsave",
    "damage": {
      "parts": [],
      "critParts": [],
      "nonCritParts": []
    },
    "attackParts": [],
    "ability": {
      "attack": "",
      "damage": ""
    },
    "save": {
      "dc": "0",
      "type": "will",
      "description": "Will negates"
    },
    "effectNotes": [],
    "attackNotes": [],
    "links": {
      "children": []
    },
    "flags": {
      "boolean": [],
      "dictionary": []
    },
    "scriptCalls": [],
    "learnedAt": {
      "class": [
        [
          "sorcerer/wizard",
          4
        ],
        [
          "bard",
          4
        ],
        [
          "summoner",
          4
        ],
        [
          "witch",
          4
        ],
        [
          "magus",
          4
        ],
        [
          "shaman",
          4
        ],
        [
          "medium",
          3
        ],
        [
          "spiritualist",
          4
        ],
        [
          "unchained Summoner",
          4
        ]
      ],
      "domain": [],
      "subDomain": [],
      "elementalSchool": [],
      "bloodline": []
    },
    "level": 4,
    "school": "nec",
    "subschool": "haunted",
    "types": "emotion, fear, mind-affecting",
    "conditionals": [],
    "components": {
      "verbal": true,
      "somatic": true,
      "material": true
    },
    "materials": {
      "value": "a black candle"
    },
    "shortDescription": "<p>You direct spirits into the shadows of creatures. The shadows of creatures that fail their Will saving throws appear slightly different for the duration of the spell, bearing small horns, unusually long and slender arms, or other small discrepancies. This spell does not work on creatures that do not cast shadows or reflections. At will as an immediate action (but no more often than once every 10 minutes), a <i>mischievous shadow</i> can interfere with its host's actions or the actions of adjacent creatures by interacting with their shadows in ways that affect their physical counterparts, such as grabbing the shadow of a crossbow to redirect the physical weapon's aim. Each disruption either imposes a -8 penalty on a single attack roll, combat maneuver check, or Strength- or Dexterity-based skill check, or requires a spellcaster to succeed at a concentration check (DC = 15 + spell level) or lose a spell being cast. If you are within range of the spell effect, you can decide how these shadows interfere; otherwise, their actions are timed and decided by the GM as needed, typically manifesting during important or crucial roles. Each time a <i>mischievous shadow</i> makes such a disruption, the spell's haunt-like manifestation occurs during that round.</p>",
    "spellDuration": "1 day/level (D)",
    "spellArea": "one 5-ft. cube/level (S)"
  },
  "effects": [],
  "folder": null,
  "sort": 0,
  "permission": {
    "default": 0
  },
  "flags": {}
}