{
  "_id": "ehx69vy9d9o5i4w4",
  "name": "Night of Blades",
  "type": "spell",
  "img": "systems/pf1/icons/misc/magic-swirl.png",
  "data": {
    "description": {
      "value": "<div class=\"spell-description\">\n  <p>\n    <strong>School</strong>&nbsp;evocation;\n    <strong>Level</strong>&nbsp;antipaladin 4, hunter 4, inquisitor 3, ranger 4, sorcerer/wizard 3, summoner 3, unchained Summoner 3;\n    \n    \n    \n    \n  </p>\n  <p>\n    <strong>Casting Time</strong>&nbsp;1 standard<br>\n    <strong>Components</strong>&nbsp;V, S<br>\n  </p>\n  <p>\n    <strong>Range</strong>&nbsp;close (25 ft. + 5 ft./2 levels)<br>\n    \n    \n    <strong>Effect</strong>&nbsp;wall of blades up to 10 ft. long/level and 10 ft. tall<br>\n    <strong>Duration</strong>&nbsp;1 minute/level (D)<br>\n      <strong>Saving Throw</strong>&nbsp;Reflex half;&nbsp;\n      <strong>Spell Resistance</strong>&nbsp;yes<br>\n  </p>\n  <h2>Description</h2>\n  <p>Useful primarily to those who skulk in the darkness, this spell is a temporary trap for the unwary. You create an immobile wall of tiny black blades that whirl and tear into creatures like a cyclone.</p><p>Anyone who enters this space takes 1d4 points of damage per caster level (maximum 10d4), though a successful Reflex save halves the damage. The spell cannot be cast so that it appears in a space already occupied by Small or larger creatures.</p>\n</div>\n"
    },
    "tags": [],
    "activation": {
      "type": "standard"
    },
    "unchainedAction": {
      "activation": {
        "cost": 2,
        "type": "action"
      }
    },
    "range": {
      "units": "close"
    },
    "uses": {
      "per": ""
    },
    "measureTemplate": {
      "size": "0"
    },
    "actionType": "spellsave",
    "damage": {
      "parts": [],
      "critParts": [],
      "nonCritParts": []
    },
    "attackParts": [],
    "ability": {
      "attack": "",
      "damage": ""
    },
    "save": {
      "dc": "0",
      "type": "ref",
      "description": "Reflex half"
    },
    "effectNotes": [],
    "attackNotes": [],
    "links": {
      "children": []
    },
    "flags": {
      "boolean": [],
      "dictionary": []
    },
    "scriptCalls": [],
    "learnedAt": {
      "class": [
        [
          "sorcerer/wizard",
          3
        ],
        [
          "ranger",
          4
        ],
        [
          "summoner",
          3
        ],
        [
          "inquisitor",
          3
        ],
        [
          "antipaladin",
          4
        ],
        [
          "hunter",
          4
        ],
        [
          "unchained Summoner",
          3
        ]
      ],
      "domain": [],
      "subDomain": [],
      "elementalSchool": [],
      "bloodline": []
    },
    "level": 3,
    "school": "evo",
    "conditionals": [],
    "components": {
      "verbal": true,
      "somatic": true
    },
    "shortDescription": "<p>Useful primarily to those who skulk in the darkness, this spell is a temporary trap for the unwary. You create an immobile wall of tiny black blades that whirl and tear into creatures like a cyclone.</p><p>Anyone who enters this space takes 1d4 points of damage per caster level (maximum 10d4), though a successful Reflex save halves the damage. The spell cannot be cast so that it appears in a space already occupied by Small or larger creatures.</p>",
    "spellDuration": "1 minute/level (D)",
    "spellEffect": "wall of blades up to 10 ft. long/level and 10 ft. tall"
  },
  "effects": [],
  "folder": null,
  "sort": 0,
  "permission": {
    "default": 0
  },
  "flags": {}
}