{
  "_id": "s02kvggurm8i0o82",
  "name": "Parasitic Soul",
  "type": "spell",
  "img": "systems/pf1/icons/misc/magic-swirl.png",
  "data": {
    "description": {
      "value": "<div class=\"spell-description\">\n  <p>\n    <strong>School</strong>&nbsp;necromancy&nbsp;[death, evil];\n    <strong>Level</strong>&nbsp;cleric/oracle 9, psychic 9, shaman 9, sorcerer/wizard 9, witch 9;\n    \n    \n    \n    \n  </p>\n  <p>\n    <strong>Casting Time</strong>&nbsp;1 standard<br>\n    <strong>Components</strong>&nbsp;V, S, F (a gem or crystal worth at least 100 gp)<br>\n  </p>\n  <p>\n    <strong>Range</strong>&nbsp;medium (100 ft. + 10 ft./level)<br>\n    \n    <strong>Targets</strong>&nbsp;one creature<br>\n    \n    <strong>Duration</strong>&nbsp;permanent (D)<br>\n      <strong>Saving Throw</strong>&nbsp;Will negates;&nbsp;\n      <strong>Spell Resistance</strong>&nbsp;yes<br>\n  </p>\n  <h2>Description</h2>\n  <p>This spell functions like <i>magic jar</i> except as noted above, and instead of your own soul, you can transfer a trapped soul (such as one trapped in a soul gem or trapped with <i>soul bind</i> or <i>trap the</i> soul) from the receptacle into an unwilling target's body. If the target creature fails its saving throw, it dies and the trapped soul in the receptacle permanently inhabits the body as if using <i>magic jar</i>. The trapped soul does not get a saving throw to resist this transfer. To dismiss the spell, you must be within range of the possessed body.</p>\n</div>\n"
    },
    "tags": [],
    "activation": {
      "type": "standard"
    },
    "unchainedAction": {
      "activation": {
        "cost": 2,
        "type": "action"
      }
    },
    "target": {
      "value": "one creature"
    },
    "range": {
      "units": "medium"
    },
    "uses": {
      "per": ""
    },
    "measureTemplate": {
      "size": "0"
    },
    "actionType": "spellsave",
    "damage": {
      "parts": [],
      "critParts": [],
      "nonCritParts": []
    },
    "attackParts": [],
    "ability": {
      "attack": "",
      "damage": ""
    },
    "save": {
      "dc": "0",
      "type": "will",
      "description": "Will negates"
    },
    "effectNotes": [],
    "attackNotes": [],
    "links": {
      "children": []
    },
    "flags": {
      "boolean": [],
      "dictionary": []
    },
    "scriptCalls": [],
    "learnedAt": {
      "class": [
        [
          "sorcerer/wizard",
          9
        ],
        [
          "cleric/oracle",
          9
        ],
        [
          "witch",
          9
        ],
        [
          "shaman",
          9
        ],
        [
          "psychic",
          9
        ]
      ],
      "domain": [],
      "subDomain": [],
      "elementalSchool": [],
      "bloodline": []
    },
    "level": 9,
    "school": "nec",
    "types": "death, evil",
    "conditionals": [],
    "components": {
      "verbal": true,
      "somatic": true,
      "focus": true
    },
    "materials": {
      "focus": "a gem or crystal worth at least 100 gp"
    },
    "shortDescription": "<p>This spell functions like <i>magic jar</i> except as noted above, and instead of your own soul, you can transfer a trapped soul (such as one trapped in a soul gem or trapped with <i>soul bind</i> or <i>trap the</i> soul) from the receptacle into an unwilling target's body. If the target creature fails its saving throw, it dies and the trapped soul in the receptacle permanently inhabits the body as if using <i>magic jar</i>. The trapped soul does not get a saving throw to resist this transfer. To dismiss the spell, you must be within range of the possessed body.</p>",
    "spellDuration": "permanent (D)"
  },
  "effects": [],
  "folder": null,
  "sort": 0,
  "permission": {
    "default": 0
  },
  "flags": {}
}