{
  "_id": "l8mfdvp48i7du08y",
  "name": "Pesh Vigor",
  "type": "spell",
  "img": "systems/pf1/icons/misc/magic-swirl.png",
  "data": {
    "description": {
      "value": "<div class=\"spell-description\">\n  <p>\n    <strong>School</strong>&nbsp;transmutation;\n    <strong>Level</strong>&nbsp;alchemist 1, antipaladin 1, bloodrager 1, cleric/oracle 1, druid 1, hunter 1, magus 1, medium 1, psychic 1, shaman 1, sorcerer/wizard 1, summoner 1, unchained Summoner 1;\n    \n    \n    \n    \n  </p>\n  <p>\n    <strong>Casting Time</strong>&nbsp;1 standard<br>\n    <strong>Components</strong>&nbsp;V, S, M (a dose of pesh worth 15 gp)<br>\n  </p>\n  <p>\n    <strong>Range</strong>&nbsp;touch<br>\n    \n    <strong>Targets</strong>&nbsp;living creature touched<br>\n    \n    <strong>Duration</strong>&nbsp;1 round/level; see text<br>\n      <strong>Saving Throw</strong>&nbsp;Will negates;&nbsp;\n      <strong>Spell Resistance</strong>&nbsp;yes<br>\n  </p>\n  <h2>Description</h2>\n  <p>The target gains a +2 enhancement bonus to its Strength. Once per round as a free action, the target can choose to increase the enhancement bonus by 2 for 1 round; if it does so, it takes 1d6 points of nonlethal damage and the spell's duration decreases by 1 additional round. For every 5 caster levels you have, the target can choose to increase the enhancement bonus by an additional 2, taking an additional 1d6 points of nonlethal damage and decreasing the duration by 1 additional round per increase to the Strength bonus, to a maximum enhancement bonus of +10 and 4d6 points of nonlethal damage at caster level 15th. The subject can't spend more rounds than remain in the duration. When the spell ends, the subject becomes fatigued.</p>\n</div>\n"
    },
    "tags": [],
    "activation": {
      "type": "standard"
    },
    "unchainedAction": {
      "activation": {
        "cost": 2,
        "type": "action"
      }
    },
    "target": {
      "value": "living creature touched"
    },
    "range": {
      "units": "touch"
    },
    "uses": {
      "per": ""
    },
    "measureTemplate": {
      "size": "0"
    },
    "actionType": "spellsave",
    "damage": {
      "parts": [],
      "critParts": [],
      "nonCritParts": []
    },
    "attackParts": [],
    "ability": {
      "attack": "",
      "damage": ""
    },
    "save": {
      "dc": "0",
      "type": "will",
      "description": "Will negates"
    },
    "effectNotes": [],
    "attackNotes": [],
    "links": {
      "children": []
    },
    "flags": {
      "boolean": [],
      "dictionary": []
    },
    "scriptCalls": [],
    "learnedAt": {
      "class": [
        [
          "sorcerer/wizard",
          1
        ],
        [
          "cleric/oracle",
          1
        ],
        [
          "druid",
          1
        ],
        [
          "alchemist",
          1
        ],
        [
          "summoner",
          1
        ],
        [
          "antipaladin",
          1
        ],
        [
          "magus",
          1
        ],
        [
          "bloodrager",
          1
        ],
        [
          "shaman",
          1
        ],
        [
          "psychic",
          1
        ],
        [
          "medium",
          1
        ],
        [
          "hunter",
          1
        ],
        [
          "unchained Summoner",
          1
        ]
      ],
      "domain": [],
      "subDomain": [],
      "elementalSchool": [],
      "bloodline": []
    },
    "school": "trs",
    "conditionals": [],
    "components": {
      "verbal": true,
      "somatic": true,
      "material": true
    },
    "materials": {
      "value": "a dose of pesh worth 15 gp",
      "gpValue": 15
    },
    "spellbook": "",
    "preparation": {
      "autoDeductCharges": false,
      "spontaneousPrepared": false
    },
    "shortDescription": "<p>The target gains a +2 enhancement bonus to its Strength. Once per round as a free action, the target can choose to increase the enhancement bonus by 2 for 1 round; if it does so, it takes 1d6 points of nonlethal damage and the spell's duration decreases by 1 additional round. For every 5 caster levels you have, the target can choose to increase the enhancement bonus by an additional 2, taking an additional 1d6 points of nonlethal damage and decreasing the duration by 1 additional round per increase to the Strength bonus, to a maximum enhancement bonus of +10 and 4d6 points of nonlethal damage at caster level 15th. The subject can't spend more rounds than remain in the duration. When the spell ends, the subject becomes fatigued.</p>",
    "spellDuration": "1 round/level; see text",
    "spellPoints": {
      "cost": ""
    }
  },
  "effects": [],
  "folder": null,
  "sort": 0,
  "permission": {
    "default": 0
  },
  "flags": {}
}