{
  "_id": "9oosw4hf9kxh9b9s",
  "name": "Pick Your Poison",
  "type": "spell",
  "img": "systems/pf1/icons/misc/magic-swirl.png",
  "data": {
    "description": {
      "value": "<div class=\"spell-description\">\n  <p>\n    <strong>School</strong>&nbsp;conjuration&nbsp;(healing)&nbsp;[mind-affecting];\n    <strong>Level</strong>&nbsp;bard 1, cleric/oracle 1, inquisitor 1, witch 1;\n    \n    \n    \n    \n  </p>\n  <p>\n    <strong>Casting Time</strong>&nbsp;1 standard<br>\n    <strong>Components</strong>&nbsp;V, S, DF<br>\n  </p>\n  <p>\n    <strong>Range</strong>&nbsp;touch<br>\n    \n    <strong>Targets</strong>&nbsp;creature touched<br>\n    \n    <strong>Duration</strong>&nbsp;10 minute/level<br>\n      <strong>Saving Throw</strong>&nbsp;Fortitude negates (harmless);&nbsp;\n      <strong>Spell Resistance</strong>&nbsp;yes<br>\n  </p>\n  <h2>Description</h2>\n  <p>This spell temporarily converts even the deadliest poison affecting a creature into an intoxicating alcohol. If the subject is affected by a poison effect while under the effects of this spell, instead of the poison's normal effect, she feels intoxicated as if she'd just had a very strong drink and takes a -2 penalty on attacks, saves, and checks for the duration of the spell.</p><p>When the spell's duration expires, the penalty ends and the poison's normal effects apply. <i>Pick your poison</i> does not affect any poison effects that occurred before the spell was cast.</p>\n</div>\n"
    },
    "tags": [],
    "activation": {
      "type": "standard"
    },
    "unchainedAction": {
      "activation": {
        "cost": 2,
        "type": "action"
      }
    },
    "target": {
      "value": "creature touched"
    },
    "range": {
      "units": "touch"
    },
    "uses": {
      "per": ""
    },
    "measureTemplate": {
      "size": "0"
    },
    "actionType": "heal",
    "damage": {
      "parts": [],
      "critParts": [],
      "nonCritParts": []
    },
    "attackParts": [],
    "ability": {
      "attack": "",
      "damage": ""
    },
    "save": {
      "dc": "0",
      "type": "fort",
      "description": "Fortitude negates (harmless)"
    },
    "effectNotes": [],
    "attackNotes": [],
    "links": {
      "children": []
    },
    "flags": {
      "boolean": [],
      "dictionary": []
    },
    "scriptCalls": [],
    "learnedAt": {
      "class": [
        [
          "cleric/oracle",
          1
        ],
        [
          "bard",
          1
        ],
        [
          "witch",
          1
        ],
        [
          "inquisitor",
          1
        ]
      ],
      "domain": [],
      "subDomain": [],
      "elementalSchool": [],
      "bloodline": []
    },
    "school": "con",
    "subschool": "healing",
    "types": "mind-affecting",
    "conditionals": [],
    "components": {
      "verbal": true,
      "somatic": true,
      "divineFocus": 1
    },
    "shortDescription": "<p>This spell temporarily converts even the deadliest poison affecting a creature into an intoxicating alcohol. If the subject is affected by a poison effect while under the effects of this spell, instead of the poison's normal effect, she feels intoxicated as if she'd just had a very strong drink and takes a -2 penalty on attacks, saves, and checks for the duration of the spell.</p><p>When the spell's duration expires, the penalty ends and the poison's normal effects apply. <i>Pick your poison</i> does not affect any poison effects that occurred before the spell was cast.</p>",
    "spellDuration": "10 minute/level"
  },
  "effects": [],
  "folder": null,
  "sort": 0,
  "permission": {
    "default": 0
  },
  "flags": {}
}