{
  "_id": "bvvjjjidh2duqwta",
  "name": "Positive Pulse",
  "type": "spell",
  "img": "systems/pf1/icons/misc/magic-swirl.png",
  "data": {
    "description": {
      "value": "<div class=\"spell-description\">\n  <p>\n    <strong>School</strong>&nbsp;necromancy;\n    <strong>Level</strong>&nbsp;cleric/oracle 1, inquisitor 1, paladin 1, shaman 1, sorcerer/wizard 1, spiritualist 1, summoner 1, witch 1;\n    \n    \n    \n    \n  </p>\n  <p>\n    <strong>Casting Time</strong>&nbsp;1 standard<br>\n    <strong>Components</strong>&nbsp;V, S<br>\n  </p>\n  <p>\n    <strong>Range</strong>&nbsp;close (25 ft. + 5 ft./2 levels)<br>\n    <strong>Area</strong>&nbsp;5-ft.-radius burst<br>\n    \n    \n    <strong>Duration</strong>&nbsp;instantaneous plus 1 round (see text)<br>\n      <strong>Saving Throw</strong>&nbsp;Will negates or Will negates (harmless); see text;&nbsp;\n      <strong>Spell Resistance</strong>&nbsp;yes<br>\n  </p>\n  <h2>Description</h2>\n  <p>This spell causes a wave of positive energy to spread from a point you designate, damaging foes vulnerable to positive energy and bolstering living creatures. Each creature damaged by positive energy in the area (such as undead) must succeed at a Will save or take 1d6 points of damage, plus 1 point for every 2 caster levels (maximum +5). Haunts manifesting in the spell's area also take this damage.  This spell does not heal creatures healed by positive energy; such creatures instead gain a +2 bonus on saving throws against death effects, energy drain, negative energy, and effects directly caused by haunts. This bonus lasts for 1 round.</p>\n</div>\n"
    },
    "tags": [],
    "activation": {
      "type": "standard"
    },
    "unchainedAction": {
      "activation": {
        "cost": 2,
        "type": "action"
      }
    },
    "range": {
      "units": "close"
    },
    "uses": {
      "per": ""
    },
    "measureTemplate": {
      "size": "0"
    },
    "actionType": "spellsave",
    "damage": {
      "parts": [],
      "critParts": [],
      "nonCritParts": []
    },
    "attackParts": [],
    "ability": {
      "attack": "",
      "damage": ""
    },
    "save": {
      "dc": "0",
      "type": "will",
      "description": "Will negates or Will negates (harmless); see text"
    },
    "effectNotes": [],
    "attackNotes": [],
    "links": {
      "children": []
    },
    "flags": {
      "boolean": [],
      "dictionary": []
    },
    "scriptCalls": [],
    "learnedAt": {
      "class": [
        [
          "sorcerer/wizard",
          1
        ],
        [
          "cleric/oracle",
          1
        ],
        [
          "paladin",
          1
        ],
        [
          "summoner",
          1
        ],
        [
          "witch",
          1
        ],
        [
          "inquisitor",
          1
        ],
        [
          "shaman",
          1
        ],
        [
          "spiritualist",
          1
        ]
      ],
      "domain": [],
      "subDomain": [],
      "elementalSchool": [],
      "bloodline": []
    },
    "school": "nec",
    "conditionals": [],
    "components": {
      "verbal": true,
      "somatic": true
    },
    "shortDescription": "<p>This spell causes a wave of positive energy to spread from a point you designate, damaging foes vulnerable to positive energy and bolstering living creatures. Each creature damaged by positive energy in the area (such as undead) must succeed at a Will save or take 1d6 points of damage, plus 1 point for every 2 caster levels (maximum +5). Haunts manifesting in the spell's area also take this damage.  This spell does not heal creatures healed by positive energy; such creatures instead gain a +2 bonus on saving throws against death effects, energy drain, negative energy, and effects directly caused by haunts. This bonus lasts for 1 round.</p>",
    "spellDuration": "instantaneous plus 1 round (see text)",
    "spellArea": "5-ft.-radius burst"
  },
  "effects": [],
  "folder": null,
  "sort": 0,
  "permission": {
    "default": 0
  },
  "flags": {}
}