{
  "_id": "0d756xyqhinsstas",
  "name": "Pyrotechnics",
  "type": "spell",
  "img": "systems/pf1/icons/misc/magic-swirl.png",
  "data": {
    "description": {
      "value": "<div class=\"spell-description\">\n  <p>\n    <strong>School</strong>&nbsp;transmutation;\n    <strong>Level</strong>&nbsp;bard 2, bloodrager 2, magus 2, mesmerist 2, psychic 2, sorcerer/wizard 2;\n    \n    <strong>Subdomain</strong>&nbsp;Smoke 2;\n    \n    \n  </p>\n  <p>\n    <strong>Casting Time</strong>&nbsp;1 standard<br>\n    <strong>Components</strong>&nbsp;V, S, M (one fire source)<br>\n  </p>\n  <p>\n    <strong>Range</strong>&nbsp;long (400 ft. + 40 ft./level)<br>\n    \n    <strong>Targets</strong>&nbsp;one fire source, up to a 20-ft. cube<br>\n    \n    <strong>Duration</strong>&nbsp;1d4+1 rounds, or 1d4+1 rounds after creatures leave the smoke cloud; see text<br>\n      <strong>Saving Throw</strong>&nbsp;Will negates or Fortitude negates; see text;&nbsp;\n      <strong>Spell Resistance</strong>&nbsp;yes<br>\n  </p>\n  <h2>Description</h2>\n  <p><i>Pyrotechnics</i> turns a fire into a burst of blinding fireworks or a thick cloud of choking smoke, depending on your choice. The spell uses one fire source, which is immediately extinguished. A fire so large that it exceeds a 20-foot cube is only partly extinguished. Magical fires are not extinguished, although a fire-based creature used as a source takes 1 point of damage per caster level.</p><p><i>Fireworks:</i> The fireworks are a flashing, fiery, momentary burst of glowing, colored aerial lights. This effect causes creatures within 120 feet of the fire source to become blinded for 1d4+1 rounds (Will negates). These creatures must have line of sight to the fire to be affected. Spell resistance can prevent blindness.</p><p><i>Smoke Cloud</i>: A stream of smoke billows out from the fire, forming a choking cloud that spreads 20 feet in all directions and lasts for 1 round per caster level. All sight, even darkvision, is ineffective in or through the cloud. All within the cloud take -4 penalties to Strength and Dexterity (Fortitude negates). These effects last for 1d4+1 rounds after the cloud dissipates or after the creature leaves the area of the cloud. Spell resistance does not apply.</p>\n</div>\n"
    },
    "tags": [],
    "activation": {
      "type": "standard"
    },
    "unchainedAction": {
      "activation": {
        "cost": 2,
        "type": "action"
      }
    },
    "target": {
      "value": "one fire source, up to a 20-ft. cube"
    },
    "range": {
      "units": "long"
    },
    "uses": {
      "per": ""
    },
    "measureTemplate": {
      "size": "0"
    },
    "actionType": "spellsave",
    "damage": {
      "parts": [],
      "critParts": [],
      "nonCritParts": []
    },
    "attackParts": [],
    "ability": {
      "attack": "",
      "damage": ""
    },
    "save": {
      "dc": "0",
      "type": "fort",
      "description": "Will negates or Fortitude negates; see text"
    },
    "effectNotes": [],
    "attackNotes": [],
    "links": {
      "children": []
    },
    "flags": {
      "boolean": [],
      "dictionary": []
    },
    "scriptCalls": [],
    "learnedAt": {
      "class": [
        [
          "sorcerer/wizard",
          2
        ],
        [
          "bard",
          2
        ],
        [
          "magus",
          2
        ],
        [
          "bloodrager",
          2
        ],
        [
          "psychic",
          2
        ],
        [
          "mesmerist",
          2
        ]
      ],
      "domain": [],
      "subDomain": [
        [
          "Smoke",
          2
        ]
      ],
      "elementalSchool": [],
      "bloodline": []
    },
    "level": 2,
    "school": "trs",
    "conditionals": [],
    "components": {
      "verbal": true,
      "somatic": true,
      "material": true
    },
    "materials": {
      "value": "one fire source"
    },
    "shortDescription": "<p><i>Pyrotechnics</i> turns a fire into a burst of blinding fireworks or a thick cloud of choking smoke, depending on your choice. The spell uses one fire source, which is immediately extinguished. A fire so large that it exceeds a 20-foot cube is only partly extinguished. Magical fires are not extinguished, although a fire-based creature used as a source takes 1 point of damage per caster level.</p><p><i>Fireworks:</i> The fireworks are a flashing, fiery, momentary burst of glowing, colored aerial lights. This effect causes creatures within 120 feet of the fire source to become blinded for 1d4+1 rounds (Will negates). These creatures must have line of sight to the fire to be affected. Spell resistance can prevent blindness.</p><p><i>Smoke Cloud</i>: A stream of smoke billows out from the fire, forming a choking cloud that spreads 20 feet in all directions and lasts for 1 round per caster level. All sight, even darkvision, is ineffective in or through the cloud. All within the cloud take -4 penalties to Strength and Dexterity (Fortitude negates). These effects last for 1d4+1 rounds after the cloud dissipates or after the creature leaves the area of the cloud. Spell resistance does not apply.</p>",
    "spellDuration": "1d4+1 rounds, or 1d4+1 rounds after creatures leave the smoke cloud; see text"
  },
  "effects": [],
  "folder": null,
  "sort": 0,
  "permission": {
    "default": 0
  },
  "flags": {}
}