{
  "_id": "ixk9cy2ghwd3ew3k",
  "name": "Rags to Riches",
  "type": "spell",
  "img": "systems/pf1/icons/misc/magic-swirl.png",
  "data": {
    "description": {
      "value": "<div class=\"spell-description\">\n  <p>\n    <strong>School</strong>&nbsp;transmutation;\n    <strong>Level</strong>&nbsp;alchemist 3, bard 3, cleric/oracle 4, medium 3, occultist 3, sorcerer/wizard 4, witch 4;\n    \n    \n    \n    \n  </p>\n  <p>\n    <strong>Casting Time</strong>&nbsp;1 standard<br>\n    <strong>Components</strong>&nbsp;V, S, M (a bit of burlap wrapped over a copper coin)<br>\n  </p>\n  <p>\n    <strong>Range</strong>&nbsp;touch<br>\n    \n    <strong>Targets</strong>&nbsp;1 weapon, suit or armor, shield, tool, or skill kit touched/5 levels<br>\n    \n    <strong>Duration</strong>&nbsp;10 minutes/level<br>\n      <strong>Saving Throw</strong>&nbsp;Fortitude negates (object);&nbsp;\n      <strong>Spell Resistance</strong>&nbsp;no<br>\n  </p>\n  <h2>Description</h2>\n  <p>The target object is enhanced to function as a masterwork item. In addition to any bonuses for the masterwork quality, the object gains other bonuses. Skill kits and other equipment add an additional +1 insight bonus for every 4 caster levels you possess to skill checks made with them that already receive a bonus from the skill kit. Armor and weapons gain temporary hit points equal to your caster level. If the object already has an enhancement bonus, this bonus increases by 1. If the object of the spell has hardness, that hardness increases by 5.</p>\n</div>\n"
    },
    "tags": [],
    "activation": {
      "type": "standard"
    },
    "unchainedAction": {
      "activation": {
        "cost": 2,
        "type": "action"
      }
    },
    "target": {
      "value": "1 weapon, suit or armor, shield, tool, or skill kit touched/5 levels"
    },
    "range": {
      "units": "touch"
    },
    "uses": {
      "per": ""
    },
    "measureTemplate": {
      "size": "0"
    },
    "actionType": "spellsave",
    "damage": {
      "parts": [],
      "critParts": [],
      "nonCritParts": []
    },
    "attackParts": [],
    "ability": {
      "attack": "",
      "damage": ""
    },
    "save": {
      "dc": "0",
      "type": "fort",
      "description": "Fortitude negates (object)"
    },
    "effectNotes": [],
    "attackNotes": [],
    "links": {
      "children": []
    },
    "flags": {
      "boolean": [],
      "dictionary": []
    },
    "scriptCalls": [],
    "learnedAt": {
      "class": [
        [
          "sorcerer/wizard",
          4
        ],
        [
          "cleric/oracle",
          4
        ],
        [
          "bard",
          3
        ],
        [
          "alchemist",
          3
        ],
        [
          "witch",
          4
        ],
        [
          "medium",
          3
        ],
        [
          "occultist",
          3
        ]
      ],
      "domain": [],
      "subDomain": [],
      "elementalSchool": [],
      "bloodline": []
    },
    "level": 4,
    "school": "trs",
    "conditionals": [],
    "components": {
      "verbal": true,
      "somatic": true,
      "material": true
    },
    "materials": {
      "value": "a bit of burlap wrapped over a copper coin"
    },
    "sr": false,
    "shortDescription": "<p>The target object is enhanced to function as a masterwork item. In addition to any bonuses for the masterwork quality, the object gains other bonuses. Skill kits and other equipment add an additional +1 insight bonus for every 4 caster levels you possess to skill checks made with them that already receive a bonus from the skill kit. Armor and weapons gain temporary hit points equal to your caster level. If the object already has an enhancement bonus, this bonus increases by 1. If the object of the spell has hardness, that hardness increases by 5.</p>",
    "spellDuration": "10 minutes/level"
  },
  "effects": [],
  "folder": null,
  "sort": 0,
  "permission": {
    "default": 0
  },
  "flags": {}
}