{
  "_id": "xnaypubwvslrof5d",
  "name": "Ride the Lightning",
  "type": "spell",
  "img": "systems/pf1/icons/misc/magic-swirl.png",
  "data": {
    "description": {
      "value": "<div class=\"spell-description\">\n  <p>\n    <strong>School</strong>&nbsp;evocation&nbsp;[electricity];\n    <strong>Level</strong>&nbsp;sorcerer/wizard 9;\n    \n    \n    \n    \n  </p>\n  <p>\n    <strong>Casting Time</strong>&nbsp;1 swift<br>\n    <strong>Components</strong>&nbsp;V, S<br>\n  </p>\n  <p>\n    <strong>Range</strong>&nbsp;personal<br>\n    \n    <strong>Targets</strong>&nbsp;you<br>\n    \n    <strong>Duration</strong>&nbsp;1 round/level (D)<br>\n  </p>\n  <h2>Description</h2>\n  <p>You may transform into lightning as a standard action and instantly travel in a straight line to a distance of up to 120 feet, rematerializing in the new location as a free action. This movement does not provoke attacks of opportunity. Creatures in this line take 10d6 points of electrical damage and are staggered for 1 round (a successful Reflex save halves the damage and negates the staggered condition, spell resistance applies).</p><p>Objects in your path are damaged as well, with combustible objects being set ablaze and metals with low melting points melted. If your path is interrupted by a barrier or otherwise deflected, you materialize short of your final destination in the nearest open space; targets in the line to that point take damage as normal. You are immune to electricity while this spell lasts.</p>\n</div>\n"
    },
    "tags": [],
    "activation": {
      "type": "swift"
    },
    "unchainedAction": {
      "activation": {
        "type": "action"
      }
    },
    "target": {
      "value": "you"
    },
    "range": {
      "units": "personal"
    },
    "uses": {
      "per": ""
    },
    "measureTemplate": {
      "size": "0"
    },
    "actionType": "",
    "damage": {
      "parts": [],
      "critParts": [],
      "nonCritParts": []
    },
    "attackParts": [],
    "ability": {
      "attack": "",
      "damage": ""
    },
    "save": {
      "dc": "0"
    },
    "effectNotes": [],
    "attackNotes": [],
    "links": {
      "children": []
    },
    "flags": {
      "boolean": [],
      "dictionary": []
    },
    "scriptCalls": [],
    "learnedAt": {
      "class": [
        [
          "sorcerer/wizard",
          9
        ]
      ],
      "domain": [],
      "subDomain": [],
      "elementalSchool": [],
      "bloodline": []
    },
    "level": 9,
    "school": "evo",
    "types": "electricity",
    "conditionals": [],
    "components": {
      "verbal": true,
      "somatic": true
    },
    "sr": false,
    "shortDescription": "<p>You may transform into lightning as a standard action and instantly travel in a straight line to a distance of up to 120 feet, rematerializing in the new location as a free action. This movement does not provoke attacks of opportunity. Creatures in this line take 10d6 points of electrical damage and are staggered for 1 round (a successful Reflex save halves the damage and negates the staggered condition, spell resistance applies).</p><p>Objects in your path are damaged as well, with combustible objects being set ablaze and metals with low melting points melted. If your path is interrupted by a barrier or otherwise deflected, you materialize short of your final destination in the nearest open space; targets in the line to that point take damage as normal. You are immune to electricity while this spell lasts.</p>",
    "spellDuration": "1 round/level (D)"
  },
  "effects": [],
  "folder": null,
  "sort": 0,
  "permission": {
    "default": 0
  },
  "flags": {}
}