{
  "_id": "qyhnq9rj4564slzm",
  "name": "Runic Overload",
  "type": "spell",
  "img": "systems/pf1/icons/misc/magic-swirl.png",
  "data": {
    "description": {
      "value": "<div class=\"spell-description\">\n  <p>\n    <strong>School</strong>&nbsp;evocation&nbsp;[sonic];\n    <strong>Level</strong>&nbsp;bloodrager 3, magus 4, sorcerer/wizard 5, witch 6;\n    \n    \n    \n    \n  </p>\n  <p>\n    <strong>Casting Time</strong>&nbsp;1 standard<br>\n    <strong>Components</strong>&nbsp;V, S, M (a small rune carved from stone)<br>\n  </p>\n  <p>\n    <strong>Range</strong>&nbsp;close (25 ft. + 5 ft./2 levels)<br>\n    \n    <strong>Targets</strong>&nbsp;one creature or object<br>\n    \n    <strong>Duration</strong>&nbsp;instantaneous<br>\n      <strong>Saving Throw</strong>&nbsp;see text;&nbsp;\n      <strong>Spell Resistance</strong>&nbsp;no<br>\n  </p>\n  <h2>Description</h2>\n  <p>This spell charges magical runes to an explosive degree. If cast on a creature with magical runes on its body, such as a rune giant or a runescarred creature (<i>Pathfinder Campaign Setting</i>: <i>Lost Cities of Golarion</i> 60), it deals 1d6 points of sonic damage per caster level (maximum 20d6) to the target and stuns the target for 1 round. When the spell is cast in this way, it must overcome the target's spell resistance. A successful Will save halves the damage and negates the stun effect.  The spell can also be cast on other magical runes, such as those from <i>arcane mark</i> or <i>explosive runes</i>. In this case, the resulting explosion deals 1d8 points of sonic damage per  2 caster levels (maximum 10d8) to all creatures within a 5-foot radius. Creatures in the area that succeed at a Reflex save take half damage. This spell doesn't destroy runes; targeted runes continue to function normally. Mundane runes, such as ones in writing or runic tattoos, cannot be affected by this spell.</p>\n</div>\n"
    },
    "tags": [],
    "activation": {
      "type": "standard"
    },
    "unchainedAction": {
      "activation": {
        "cost": 2,
        "type": "action"
      }
    },
    "target": {
      "value": "one creature or object"
    },
    "range": {
      "units": "close"
    },
    "uses": {
      "per": ""
    },
    "measureTemplate": {
      "size": "0"
    },
    "actionType": "spellsave",
    "damage": {
      "parts": [],
      "critParts": [],
      "nonCritParts": []
    },
    "attackParts": [],
    "ability": {
      "attack": "",
      "damage": ""
    },
    "save": {
      "dc": "0",
      "description": "see text"
    },
    "effectNotes": [],
    "attackNotes": [],
    "links": {
      "children": []
    },
    "flags": {
      "boolean": [],
      "dictionary": []
    },
    "scriptCalls": [],
    "learnedAt": {
      "class": [
        [
          "sorcerer/wizard",
          5
        ],
        [
          "witch",
          6
        ],
        [
          "magus",
          4
        ],
        [
          "bloodrager",
          3
        ]
      ],
      "domain": [],
      "subDomain": [],
      "elementalSchool": [],
      "bloodline": []
    },
    "level": 5,
    "school": "evo",
    "types": "sonic",
    "conditionals": [],
    "components": {
      "verbal": true,
      "somatic": true,
      "material": true
    },
    "materials": {
      "value": "a small rune carved from stone"
    },
    "sr": false,
    "shortDescription": "<p>This spell charges magical runes to an explosive degree. If cast on a creature with magical runes on its body, such as a rune giant or a runescarred creature (<i>Pathfinder Campaign Setting</i>: <i>Lost Cities of Golarion</i> 60), it deals 1d6 points of sonic damage per caster level (maximum 20d6) to the target and stuns the target for 1 round. When the spell is cast in this way, it must overcome the target's spell resistance. A successful Will save halves the damage and negates the stun effect.  The spell can also be cast on other magical runes, such as those from <i>arcane mark</i> or <i>explosive runes</i>. In this case, the resulting explosion deals 1d8 points of sonic damage per  2 caster levels (maximum 10d8) to all creatures within a 5-foot radius. Creatures in the area that succeed at a Reflex save take half damage. This spell doesn't destroy runes; targeted runes continue to function normally. Mundane runes, such as ones in writing or runic tattoos, cannot be affected by this spell.</p>",
    "spellDuration": "instantaneous"
  },
  "effects": [],
  "folder": null,
  "sort": 0,
  "permission": {
    "default": 0
  },
  "flags": {}
}