{
  "_id": "p0s57t9kuya6ob2p",
  "name": "Sacramental Seal",
  "type": "spell",
  "img": "systems/pf1/icons/misc/magic-swirl.png",
  "data": {
    "description": {
      "value": "<div class=\"spell-description\">\n  <p>\n    <strong>School</strong>&nbsp;necromancy;\n    <strong>Level</strong>&nbsp;cleric/oracle 8;\n    \n    \n    \n    \n  </p>\n  <p>\n    <strong>Casting Time</strong>&nbsp;1 round<br>\n    <strong>Components</strong>&nbsp;V, S, F (an object worth at least 2,000 gp)<br>\n  </p>\n  <p>\n    <strong>Range</strong>&nbsp;touch<br>\n    \n    <strong>Targets</strong>&nbsp;creature touched<br>\n    \n    <strong>Duration</strong>&nbsp;instantaneous<br>\n      <strong>Saving Throw</strong>&nbsp;Will negates;&nbsp;\n      <strong>Spell Resistance</strong>&nbsp;yes<br>\n  </p>\n  <h2>Description</h2>\n  <p>You trap the target in an object decorated with the holy symbols of your god or faith. While trapped in the object, the creature can't take any actions and is immune to spells and spell-like abilities. The creature remains permanently trapped in the object as long the object remains in your possession. Only a <i>freedom</i>, <i>miracle</i>, or <i>wish</i> spell can dispel the enchantment, though destroying the object frees the creature.  If you relinquish your stewardship of the object (such as giving it away or leaving it in a remote location or extradimensional space), the trapped creature begins to gain control over the object. It immediately gains the ability to communicate telepathically with any creature now in possession of the object. It still can't take any actions besides communicating but can use feats and skills related to speaking (such as Bluff and Diplomacy).  After 1 week of the object being out of your presence, the creature can create a number of haunts with a total CR (that is, the CR of the encounter with all of the haunts at once) equaling 1/4 the creature's Hit Dice. These haunts are centered on the object. The creature can also communicate telepathically up to a range of 100 feet at this point.  After 1 month of the object being out of your presence, the CR total of the haunts the trapped creature can create increases to 1/2 its Hit Dice. In addition to telepathy, it can also impart mental images of its choosing into the mind of any creature holding or carrying the object.  After 1 year of being out of your presence, in addition to the above abilities, the creature can attempt to possess any living  creature with an Intelligence score of 3 or higher that touches the object, as per possessionOA. However, the creature can't personally destroy the object, even while possessing another creature.  Because the binding magic irrevocably weakens the longer you're away from the item, returning it to your ownership doesn't reverse any of the effects. You must free the creature and impose another <i>sacramental seal</i> if you want to restrict its abilities again.  If the object is placed in the stewardship of creatures or a location belonging to your faith, it still counts as being out of your presence but it takes ten times longer for the creature to manifest the above abilities (it would take 10 weeks for it to manifest the ability to create haunts, for example).</p>\n</div>\n"
    },
    "tags": [],
    "activation": {
      "type": "round"
    },
    "unchainedAction": {
      "activation": {
        "cost": 3,
        "type": "action"
      }
    },
    "target": {
      "value": "creature touched"
    },
    "range": {
      "units": "touch"
    },
    "uses": {
      "per": ""
    },
    "measureTemplate": {
      "size": "0"
    },
    "actionType": "spellsave",
    "damage": {
      "parts": [],
      "critParts": [],
      "nonCritParts": []
    },
    "attackParts": [],
    "ability": {
      "attack": "",
      "damage": ""
    },
    "save": {
      "dc": "0",
      "type": "will",
      "description": "Will negates"
    },
    "effectNotes": [],
    "attackNotes": [],
    "links": {
      "children": []
    },
    "flags": {
      "boolean": [],
      "dictionary": []
    },
    "scriptCalls": [],
    "learnedAt": {
      "class": [
        [
          "cleric/oracle",
          8
        ]
      ],
      "domain": [],
      "subDomain": [],
      "elementalSchool": [],
      "bloodline": []
    },
    "level": 8,
    "school": "nec",
    "conditionals": [],
    "components": {
      "verbal": true,
      "somatic": true,
      "focus": true
    },
    "materials": {
      "focus": "an object worth at least 2,000 gp"
    },
    "shortDescription": "<p>You trap the target in an object decorated with the holy symbols of your god or faith. While trapped in the object, the creature can't take any actions and is immune to spells and spell-like abilities. The creature remains permanently trapped in the object as long the object remains in your possession. Only a <i>freedom</i>, <i>miracle</i>, or <i>wish</i> spell can dispel the enchantment, though destroying the object frees the creature.  If you relinquish your stewardship of the object (such as giving it away or leaving it in a remote location or extradimensional space), the trapped creature begins to gain control over the object. It immediately gains the ability to communicate telepathically with any creature now in possession of the object. It still can't take any actions besides communicating but can use feats and skills related to speaking (such as Bluff and Diplomacy).  After 1 week of the object being out of your presence, the creature can create a number of haunts with a total CR (that is, the CR of the encounter with all of the haunts at once) equaling 1/4 the creature's Hit Dice. These haunts are centered on the object. The creature can also communicate telepathically up to a range of 100 feet at this point.  After 1 month of the object being out of your presence, the CR total of the haunts the trapped creature can create increases to 1/2 its Hit Dice. In addition to telepathy, it can also impart mental images of its choosing into the mind of any creature holding or carrying the object.  After 1 year of being out of your presence, in addition to the above abilities, the creature can attempt to possess any living  creature with an Intelligence score of 3 or higher that touches the object, as per possessionOA. However, the creature can't personally destroy the object, even while possessing another creature.  Because the binding magic irrevocably weakens the longer you're away from the item, returning it to your ownership doesn't reverse any of the effects. You must free the creature and impose another <i>sacramental seal</i> if you want to restrict its abilities again.  If the object is placed in the stewardship of creatures or a location belonging to your faith, it still counts as being out of your presence but it takes ten times longer for the creature to manifest the above abilities (it would take 10 weeks for it to manifest the ability to create haunts, for example).</p>",
    "spellDuration": "instantaneous"
  },
  "effects": [],
  "folder": null,
  "sort": 0,
  "permission": {
    "default": 0
  },
  "flags": {}
}