{
  "_id": "69ct5zzucwn62npo",
  "name": "Scorching Ash Form",
  "type": "spell",
  "img": "systems/pf1/icons/misc/magic-swirl.png",
  "data": {
    "description": {
      "value": "<div class=\"spell-description\">\n  <p>\n    <strong>School</strong>&nbsp;transmutation&nbsp;[fire];\n    <strong>Level</strong>&nbsp;alchemist 4, sorcerer/wizard 4;\n    \n    \n    \n    \n  </p>\n  <p>\n    <strong>Casting Time</strong>&nbsp;1 standard<br>\n    <strong>Components</strong>&nbsp;S, M (a bit of gauze and a handful of ashes)<br>\n  </p>\n  <p>\n    <strong>Range</strong>&nbsp;touch<br>\n    \n    <strong>Targets</strong>&nbsp;willing corporeal creature touched<br>\n    \n    <strong>Duration</strong>&nbsp;1 minute/level<br>\n      <strong>Saving Throw</strong>&nbsp;none;&nbsp;\n      <strong>Spell Resistance</strong>&nbsp;no<br>\n  </p>\n  <h2>Description</h2>\n  <p>This spell functions like <i>gaseous form</i>, except the target becomes a visible swirl of hot ash and smoke instead of harmless translucent gas. The target gains the fire subtype. Any creature that begins its turn sharing a space with the target takes 2d6 points of fire damage and must make a Fortitude save (DC 15, + 1 per previous check) or suffer the effects of smoke inhalation (<i>Core Rulebook</i> 444).</p>\n</div>\n"
    },
    "tags": [],
    "activation": {
      "type": "standard"
    },
    "unchainedAction": {
      "activation": {
        "cost": 2,
        "type": "action"
      }
    },
    "target": {
      "value": "willing corporeal creature touched"
    },
    "range": {
      "units": "touch"
    },
    "uses": {
      "per": ""
    },
    "measureTemplate": {
      "size": "0"
    },
    "actionType": "",
    "damage": {
      "parts": [],
      "critParts": [],
      "nonCritParts": []
    },
    "attackParts": [],
    "ability": {
      "attack": "",
      "damage": ""
    },
    "save": {
      "dc": "0"
    },
    "effectNotes": [],
    "attackNotes": [],
    "links": {
      "children": []
    },
    "flags": {
      "boolean": [],
      "dictionary": []
    },
    "scriptCalls": [],
    "learnedAt": {
      "class": [
        [
          "sorcerer/wizard",
          4
        ],
        [
          "alchemist",
          4
        ]
      ],
      "domain": [],
      "subDomain": [],
      "elementalSchool": [],
      "bloodline": []
    },
    "level": 4,
    "school": "trs",
    "types": "fire",
    "conditionals": [],
    "components": {
      "somatic": true,
      "material": true
    },
    "materials": {
      "value": "a bit of gauze and a handful of ashes"
    },
    "sr": false,
    "shortDescription": "<p>This spell functions like <i>gaseous form</i>, except the target becomes a visible swirl of hot ash and smoke instead of harmless translucent gas. The target gains the fire subtype. Any creature that begins its turn sharing a space with the target takes 2d6 points of fire damage and must make a Fortitude save (DC 15, + 1 per previous check) or suffer the effects of smoke inhalation (<i>Core Rulebook</i> 444).</p>",
    "spellDuration": "1 minute/level"
  },
  "effects": [],
  "folder": null,
  "sort": 0,
  "permission": {
    "default": 0
  },
  "flags": {}
}