{
  "_id": "oys2rpkf55cfmly9",
  "name": "Secret Coffer",
  "type": "spell",
  "img": "systems/pf1/icons/misc/magic-swirl.png",
  "data": {
    "description": {
      "value": "<div class=\"spell-description\">\n  <p>\n    <strong>School</strong>&nbsp;conjuration&nbsp;(summoning);\n    <strong>Level</strong>&nbsp;sorcerer/wizard 3, witch 3;\n    \n    \n    \n    \n  </p>\n  <p>\n    <strong>Casting Time</strong>&nbsp;10 minutes<br>\n    <strong>Components</strong>&nbsp;V, S, F (the chest and its replica)<br>\n  </p>\n  <p>\n    \n    \n    <strong>Targets</strong>&nbsp;one small chest or coffer and up to 1 cu. ft. of goods<br>\n    \n    <strong>Duration</strong>&nbsp;60 days or until discharged<br>\n      <strong>Saving Throw</strong>&nbsp;none;&nbsp;\n      <strong>Spell Resistance</strong>&nbsp;no<br>\n  </p>\n  <h2>Description</h2>\n  <p>This spell functions like <i>secret chest</i>, except the coffer is only 1 foot square and can contain only 1 cubic foot of goods, and the container can remain safely hidden on the Ethereal Plane for only 14 days before it risks becoming lost. The spell automatically fails if a living creature enters the coffer. The coffer used as a focus for <i>secret coffer</i> must cost at least 500 gp, and its replica costs 5 gp.</p>\n</div>\n"
    },
    "tags": [],
    "activation": {
      "cost": 10,
      "type": "minute"
    },
    "unchainedAction": {
      "activation": {
        "cost": 10,
        "type": "minute"
      }
    },
    "target": {
      "value": "one small chest or coffer and up to 1 cu. ft. of goods"
    },
    "uses": {
      "per": ""
    },
    "measureTemplate": {
      "size": "0"
    },
    "actionType": "",
    "damage": {
      "parts": [],
      "critParts": [],
      "nonCritParts": []
    },
    "attackParts": [],
    "ability": {
      "attack": "",
      "damage": ""
    },
    "save": {
      "dc": "0"
    },
    "effectNotes": [],
    "attackNotes": [],
    "links": {
      "children": []
    },
    "flags": {
      "boolean": [],
      "dictionary": []
    },
    "scriptCalls": [],
    "learnedAt": {
      "class": [
        [
          "sorcerer/wizard",
          3
        ],
        [
          "witch",
          3
        ]
      ],
      "domain": [],
      "subDomain": [],
      "elementalSchool": [],
      "bloodline": []
    },
    "level": 3,
    "school": "con",
    "subschool": "summoning",
    "conditionals": [],
    "components": {
      "verbal": true,
      "somatic": true,
      "focus": true
    },
    "materials": {
      "focus": "the chest and its replica"
    },
    "sr": false,
    "shortDescription": "<p>This spell functions like <i>secret chest</i>, except the coffer is only 1 foot square and can contain only 1 cubic foot of goods, and the container can remain safely hidden on the Ethereal Plane for only 14 days before it risks becoming lost. The spell automatically fails if a living creature enters the coffer. The coffer used as a focus for <i>secret coffer</i> must cost at least 500 gp, and its replica costs 5 gp.</p>",
    "spellDuration": "60 days or until discharged"
  },
  "effects": [],
  "folder": null,
  "sort": 0,
  "permission": {
    "default": 0
  },
  "flags": {}
}