{
  "_id": "c3qqu6l3vdcfaoh7",
  "name": "Sequester",
  "type": "spell",
  "img": "systems/pf1/icons/misc/magic-swirl.png",
  "data": {
    "description": {
      "value": "<div class=\"spell-description\">\n  <p>\n    <strong>School</strong>&nbsp;abjuration;\n    <strong>Level</strong>&nbsp;psychic 7, sorcerer/wizard 7, summoner 5, unchained Summoner 6;\n    \n    \n    \n    \n  </p>\n  <p>\n    <strong>Casting Time</strong>&nbsp;1 standard<br>\n    <strong>Components</strong>&nbsp;V, S, M (a basilisk eyelash and gum arabic)<br>\n  </p>\n  <p>\n    <strong>Range</strong>&nbsp;touch<br>\n    \n    <strong>Targets</strong>&nbsp;one willing creature or object (up to a 2-ft. cube/level) touched<br>\n    \n    <strong>Duration</strong>&nbsp;1 day/level<br>\n      <strong>Saving Throw</strong>&nbsp;none or Will negates (object);&nbsp;\n      <strong>Spell Resistance</strong>&nbsp;no<br>\n  </p>\n  <h2>Description</h2>\n  <p>When cast, this spell prevents divination spells from detecting or locating the target and also renders the affected target invisible (as the <i>invisibility</i> spell). The spell does not prevent the subject from being discovered through tactile means or through the use of devices. Creatures affected by <i>sequester</i> become comatose and are effectively in a state of suspended animation until the spell ends.</p><p><i>Note:</i> The Will save prevents an attended or magical object from being <i>sequester</i>ed. There is no save to see the <i>sequester</i>ed creature or object or to detect it with a divination spell.</p>\n</div>\n"
    },
    "tags": [],
    "activation": {
      "type": "standard"
    },
    "unchainedAction": {
      "activation": {
        "cost": 2,
        "type": "action"
      }
    },
    "target": {
      "value": "one willing creature or object (up to a 2-ft. cube/level) touched"
    },
    "range": {
      "units": "touch"
    },
    "uses": {
      "per": ""
    },
    "measureTemplate": {
      "size": "0"
    },
    "actionType": "spellsave",
    "damage": {
      "parts": [],
      "critParts": [],
      "nonCritParts": []
    },
    "attackParts": [],
    "ability": {
      "attack": "",
      "damage": ""
    },
    "save": {
      "dc": "0",
      "type": "will",
      "description": "none or Will negates (object)"
    },
    "effectNotes": [],
    "attackNotes": [],
    "links": {
      "children": []
    },
    "flags": {
      "boolean": [],
      "dictionary": []
    },
    "scriptCalls": [],
    "learnedAt": {
      "class": [
        [
          "sorcerer/wizard",
          7
        ],
        [
          "summoner",
          5
        ],
        [
          "psychic",
          7
        ],
        [
          "unchained Summoner",
          6
        ]
      ],
      "domain": [],
      "subDomain": [],
      "elementalSchool": [],
      "bloodline": []
    },
    "level": 7,
    "school": "abj",
    "conditionals": [],
    "components": {
      "verbal": true,
      "somatic": true,
      "material": true
    },
    "materials": {
      "value": "a basilisk eyelash and gum arabic"
    },
    "sr": false,
    "shortDescription": "<p>When cast, this spell prevents divination spells from detecting or locating the target and also renders the affected target invisible (as the <i>invisibility</i> spell). The spell does not prevent the subject from being discovered through tactile means or through the use of devices. Creatures affected by <i>sequester</i> become comatose and are effectively in a state of suspended animation until the spell ends.</p><p><i>Note:</i> The Will save prevents an attended or magical object from being <i>sequester</i>ed. There is no save to see the <i>sequester</i>ed creature or object or to detect it with a divination spell.</p>",
    "spellDuration": "1 day/level"
  },
  "effects": [],
  "folder": null,
  "sort": 0,
  "permission": {
    "default": 0
  },
  "flags": {}
}