{
  "_id": "xxaycxbdsmalf5ov",
  "name": "Shades",
  "type": "spell",
  "img": "systems/pf1/icons/misc/magic-swirl.png",
  "data": {
    "description": {
      "value": "<div class=\"spell-description\">\n  <p>\n    <strong>School</strong>&nbsp;illusion&nbsp;(shadow)&nbsp;[shadow];\n    <strong>Level</strong>&nbsp;sorcerer/wizard 9;\n    <strong>Domain</strong>&nbsp;Darkness 9;\n    \n    \n    <strong>Bloodline</strong>&nbsp;Shadow 9;\n  </p>\n  <p>\n    <strong>Casting Time</strong>&nbsp;1 standard<br>\n    <strong>Components</strong>&nbsp;V, S<br>\n  </p>\n  <p>\n    \n    \n    \n    <strong>Effect</strong>&nbsp;see text<br>\n    <strong>Duration</strong>&nbsp;see text<br>\n      <strong>Saving Throw</strong>&nbsp;Will disbelief (if interacted with); varies; see text;&nbsp;\n      <strong>Spell Resistance</strong>&nbsp;yes<br>\n  </p>\n  <h2>Description</h2>\n  <p>This spell functions like <i>shadow conjuration,</i> except that it mimics conjuration spells of 8th level or lower. The illusory conjurations created deal four-fifths (80%) damage to nonbelievers, and nondamaging effects are 80% likely to work against nonbelievers.</p>\n</div>\n"
    },
    "tags": [],
    "activation": {
      "type": "standard"
    },
    "unchainedAction": {
      "activation": {
        "cost": 2,
        "type": "action"
      }
    },
    "uses": {
      "per": ""
    },
    "measureTemplate": {
      "size": "0"
    },
    "actionType": "spellsave",
    "damage": {
      "parts": [],
      "critParts": [],
      "nonCritParts": []
    },
    "attackParts": [],
    "ability": {
      "attack": "",
      "damage": ""
    },
    "save": {
      "dc": "0",
      "type": "will",
      "description": "Will disbelief (if interacted with); varies; see text"
    },
    "effectNotes": [],
    "attackNotes": [],
    "links": {
      "children": []
    },
    "flags": {
      "boolean": [],
      "dictionary": []
    },
    "scriptCalls": [],
    "learnedAt": {
      "class": [
        [
          "sorcerer/wizard",
          9
        ]
      ],
      "domain": [
        [
          "Darkness",
          9
        ]
      ],
      "subDomain": [],
      "elementalSchool": [],
      "bloodline": [
        [
          "Shadow",
          9
        ]
      ]
    },
    "level": 9,
    "school": "ill",
    "subschool": "shadow",
    "types": "shadow",
    "conditionals": [],
    "components": {
      "verbal": true,
      "somatic": true
    },
    "shortDescription": "<p>This spell functions like <i>shadow conjuration,</i> except that it mimics conjuration spells of 8th level or lower. The illusory conjurations created deal four-fifths (80%) damage to nonbelievers, and nondamaging effects are 80% likely to work against nonbelievers.</p>",
    "spellDuration": "see text",
    "spellEffect": "see text"
  },
  "effects": [],
  "folder": null,
  "sort": 0,
  "permission": {
    "default": 0
  },
  "flags": {}
}