{
  "_id": "rd5s1s2qbzcpag7q",
  "name": "Shield Of Shards",
  "type": "spell",
  "img": "systems/pf1/icons/misc/magic-swirl.png",
  "data": {
    "description": {
      "value": "<div class=\"spell-description\">\n  <p>\n    <strong>School</strong>&nbsp;transmutation;\n    <strong>Level</strong>&nbsp;bloodrager 1, cleric/oracle 2, inquisitor 2, magus 2, medium 2, paladin 1, shaman 2;\n    \n    \n    \n    \n  </p>\n  <p>\n    <strong>Casting Time</strong>&nbsp;1 standard<br>\n    <strong>Components</strong>&nbsp;V, S, F (a shield)<br>\n  </p>\n  <p>\n    <strong>Range</strong>&nbsp;personal<br>\n    \n    <strong>Targets</strong>&nbsp;one shield you wield<br>\n    \n    <strong>Duration</strong>&nbsp;1 round/level<br>\n  </p>\n  <h2>Description</h2>\n  <p>This defensive spell must be cast on a shield you are currently wielding, and fractures the shield into two shards, plus one additional shard per 2 caster levels (to a maximum of 12 shards at 20th level). While <i>shield of shards</i> is active, you lose your shield's bonus to AC as its broken pieces orbit you. On your turn, you can direct the shards to attack an adjacent opponent as a move action. The shards' attack bonus is equal to your caster level + the modifier for the ability score that determines your spell save DCs. The shards deal an amount of slashing and piercing damage equal to 1d4 points + 1 point per shard beyond the first, and have a threat range of 19-20. They are considered magic weapons for the purpose of bypassing damage reduction. Additionally, if your shield is made from a special material (such as adamantine), the shards penetrate damage reduction and hardness as if they were weapons made from the same material.  At the end of this spell's duration, the shards reform into their original shield form. You regain its shield bonus to AC, provided you still have a free hand in which to wield it. Otherwise, the shield falls at your feet in your square.</p>\n</div>\n"
    },
    "tags": [],
    "activation": {
      "type": "standard"
    },
    "unchainedAction": {
      "activation": {
        "cost": 2,
        "type": "action"
      }
    },
    "target": {
      "value": "one shield you wield"
    },
    "range": {
      "units": "personal"
    },
    "uses": {
      "per": ""
    },
    "measureTemplate": {
      "size": "0"
    },
    "actionType": "",
    "damage": {
      "parts": [],
      "critParts": [],
      "nonCritParts": []
    },
    "attackParts": [],
    "ability": {
      "attack": "",
      "damage": ""
    },
    "save": {
      "dc": "0"
    },
    "effectNotes": [],
    "attackNotes": [],
    "links": {
      "children": []
    },
    "flags": {
      "boolean": [],
      "dictionary": []
    },
    "scriptCalls": [],
    "learnedAt": {
      "class": [
        [
          "cleric/oracle",
          2
        ],
        [
          "paladin",
          1
        ],
        [
          "inquisitor",
          2
        ],
        [
          "magus",
          2
        ],
        [
          "bloodrager",
          1
        ],
        [
          "shaman",
          2
        ],
        [
          "medium",
          2
        ]
      ],
      "domain": [],
      "subDomain": [],
      "elementalSchool": [],
      "bloodline": []
    },
    "level": 2,
    "school": "trs",
    "conditionals": [],
    "components": {
      "verbal": true,
      "somatic": true,
      "focus": true
    },
    "materials": {
      "focus": "a shield"
    },
    "sr": false,
    "shortDescription": "<p>This defensive spell must be cast on a shield you are currently wielding, and fractures the shield into two shards, plus one additional shard per 2 caster levels (to a maximum of 12 shards at 20th level). While <i>shield of shards</i> is active, you lose your shield's bonus to AC as its broken pieces orbit you. On your turn, you can direct the shards to attack an adjacent opponent as a move action. The shards' attack bonus is equal to your caster level + the modifier for the ability score that determines your spell save DCs. The shards deal an amount of slashing and piercing damage equal to 1d4 points + 1 point per shard beyond the first, and have a threat range of 19-20. They are considered magic weapons for the purpose of bypassing damage reduction. Additionally, if your shield is made from a special material (such as adamantine), the shards penetrate damage reduction and hardness as if they were weapons made from the same material.  At the end of this spell's duration, the shards reform into their original shield form. You regain its shield bonus to AC, provided you still have a free hand in which to wield it. Otherwise, the shield falls at your feet in your square.</p>",
    "spellDuration": "1 round/level"
  },
  "effects": [],
  "folder": null,
  "sort": 0,
  "permission": {
    "default": 0
  },
  "flags": {}
}