{
  "_id": "tvv8fqfi8i2zwbll",
  "name": "Shield the Banner",
  "type": "spell",
  "img": "systems/pf1/icons/misc/magic-swirl.png",
  "data": {
    "description": {
      "value": "<div class=\"spell-description\">\n  <p>\n    <strong>School</strong>&nbsp;abjuration;\n    <strong>Level</strong>&nbsp;cleric/oracle 1;\n    \n    \n    \n    \n  </p>\n  <p>\n    <strong>Casting Time</strong>&nbsp;1 standard<br>\n    <strong>Components</strong>&nbsp;V, S, DF<br>\n  </p>\n  <p>\n    <strong>Range</strong>&nbsp;touch<br>\n    \n    <strong>Targets</strong>&nbsp;standard touched<br>\n    \n    <strong>Duration</strong>&nbsp;1 minute/level<br>\n      <strong>Saving Throw</strong>&nbsp;Will negates;&nbsp;\n      <strong>Spell Resistance</strong>&nbsp;no<br>\n  </p>\n  <h2>Description</h2>\n  <p>This spell is used to protect one of a tribe's most valuable possessions: its tribal banner. Any creature (other than a member of the tribe which the standard represents) attempting to directly attack or touch the standard must make a Will save. This spell functions as sanctuary, but only protects a standard or banner. In addition, the spell grants a +2 bonus to the standard's hardness, and +10 to the standard's hit points for the duration of the spell.</p>\n</div>\n"
    },
    "tags": [],
    "activation": {
      "type": "standard"
    },
    "unchainedAction": {
      "activation": {
        "cost": 2,
        "type": "action"
      }
    },
    "target": {
      "value": "standard touched"
    },
    "range": {
      "units": "touch"
    },
    "uses": {
      "per": ""
    },
    "measureTemplate": {
      "size": "0"
    },
    "actionType": "spellsave",
    "damage": {
      "parts": [],
      "critParts": [],
      "nonCritParts": []
    },
    "attackParts": [],
    "ability": {
      "attack": "",
      "damage": ""
    },
    "save": {
      "dc": "0",
      "type": "will",
      "description": "Will negates"
    },
    "effectNotes": [],
    "attackNotes": [],
    "links": {
      "children": []
    },
    "flags": {
      "boolean": [],
      "dictionary": []
    },
    "scriptCalls": [],
    "learnedAt": {
      "class": [
        [
          "cleric/oracle",
          1
        ]
      ],
      "domain": [],
      "subDomain": [],
      "elementalSchool": [],
      "bloodline": []
    },
    "school": "abj",
    "conditionals": [],
    "components": {
      "verbal": true,
      "somatic": true,
      "divineFocus": 1
    },
    "sr": false,
    "shortDescription": "<p>This spell is used to protect one of a tribe's most valuable possessions: its tribal banner. Any creature (other than a member of the tribe which the standard represents) attempting to directly attack or touch the standard must make a Will save. This spell functions as sanctuary, but only protects a standard or banner. In addition, the spell grants a +2 bonus to the standard's hardness, and +10 to the standard's hit points for the duration of the spell.</p>",
    "spellDuration": "1 minute/level"
  },
  "effects": [],
  "folder": null,
  "sort": 0,
  "permission": {
    "default": 0
  },
  "flags": {}
}