{
  "_id": "gq9jm14btpluyn35",
  "name": "Skin Tag",
  "type": "spell",
  "img": "systems/pf1/icons/misc/magic-swirl.png",
  "data": {
    "description": {
      "value": "<div class=\"spell-description\">\n  <p>\n    <strong>School</strong>&nbsp;necromancy&nbsp;(haunted)&nbsp;[emotion, fear, mind-affecting];\n    <strong>Level</strong>&nbsp;alchemist 1, medium 1, occultist 1, shaman 1, sorcerer/wizard 1, witch 1;\n    \n    \n    \n    \n  </p>\n  <p>\n    <strong>Casting Time</strong>&nbsp;1 minute<br>\n    <strong>Components</strong>&nbsp;V, S, M (beverage or food item, plus special reagents worth 25 gp)<br>\n  </p>\n  <p>\n    <strong>Range</strong>&nbsp;touch<br>\n    \n    <strong>Targets</strong>&nbsp;1 beverage or piece of food touched<br>\n    \n    <strong>Duration</strong>&nbsp;1 day plus 1 day/level (D)<br>\n      <strong>Saving Throw</strong>&nbsp;none (object), Fortitude negates; see text;&nbsp;\n      <strong>Spell Resistance</strong>&nbsp;no<br>\n  </p>\n  <h2>Description</h2>\n  <p>You mix a malign spirit into a piece of food, a drink, or some other item to be consumed (including alchemical items, potions, elixirs, or similar items). The <i>skin tag</i> spell discharges when the item is consumed, affecting the creature that used the item unless it succeeds at a Fortitude save. The spirit embeds itself somewhere in the affected creature's skin, forming a painless set of wrinkles and tags of skin that looks vaguely like a face when the haunt activates. You are considered to have a body part from the affected creature for the purpose of <i>scrying</i> and similar divination spells. Once per day as a standard action, you can remotely cause the spirit to make the affected creature's skin crawl, causing the creature to become sickened for 1d4 rounds + 1 round per 2 caster levels you have (to a maximum of 5 extra rounds at 10th level) unless it succeeds at a Fortitude save. Alternatively, once per day you can remotely use a hex, a mind-affecting spell, or a necromancy spell that causes disease or possession on the affected creature. Each time you use the  remote sickening or spell or hex effect, the spell's haunt-like manifestation occurs during that round.</p>\n</div>\n"
    },
    "tags": [],
    "activation": {
      "type": "minute"
    },
    "unchainedAction": {
      "activation": {
        "type": "minute"
      }
    },
    "target": {
      "value": "1 beverage or piece of food touched"
    },
    "range": {
      "units": "touch"
    },
    "uses": {
      "per": ""
    },
    "measureTemplate": {
      "size": "0"
    },
    "actionType": "spellsave",
    "damage": {
      "parts": [],
      "critParts": [],
      "nonCritParts": []
    },
    "attackParts": [],
    "ability": {
      "attack": "",
      "damage": ""
    },
    "save": {
      "dc": "0",
      "type": "fort",
      "description": "none (object), Fortitude negates; see text"
    },
    "effectNotes": [],
    "attackNotes": [],
    "links": {
      "children": []
    },
    "flags": {
      "boolean": [],
      "dictionary": []
    },
    "scriptCalls": [],
    "learnedAt": {
      "class": [
        [
          "sorcerer/wizard",
          1
        ],
        [
          "alchemist",
          1
        ],
        [
          "witch",
          1
        ],
        [
          "shaman",
          1
        ],
        [
          "medium",
          1
        ],
        [
          "occultist",
          1
        ]
      ],
      "domain": [],
      "subDomain": [],
      "elementalSchool": [],
      "bloodline": []
    },
    "school": "nec",
    "subschool": "haunted",
    "types": "emotion, fear, mind-affecting",
    "conditionals": [],
    "components": {
      "verbal": true,
      "somatic": true,
      "material": true
    },
    "materials": {
      "value": "beverage or food item, plus special reagents worth 25 gp",
      "gpValue": 25
    },
    "spellbook": "",
    "preparation": {
      "autoDeductCharges": false,
      "spontaneousPrepared": false
    },
    "sr": false,
    "shortDescription": "<p>You mix a malign spirit into a piece of food, a drink, or some other item to be consumed (including alchemical items, potions, elixirs, or similar items). The <i>skin tag</i> spell discharges when the item is consumed, affecting the creature that used the item unless it succeeds at a Fortitude save. The spirit embeds itself somewhere in the affected creature's skin, forming a painless set of wrinkles and tags of skin that looks vaguely like a face when the haunt activates. You are considered to have a body part from the affected creature for the purpose of <i>scrying</i> and similar divination spells. Once per day as a standard action, you can remotely cause the spirit to make the affected creature's skin crawl, causing the creature to become sickened for 1d4 rounds + 1 round per 2 caster levels you have (to a maximum of 5 extra rounds at 10th level) unless it succeeds at a Fortitude save. Alternatively, once per day you can remotely use a hex, a mind-affecting spell, or a necromancy spell that causes disease or possession on the affected creature. Each time you use the  remote sickening or spell or hex effect, the spell's haunt-like manifestation occurs during that round.</p>",
    "spellDuration": "1 day plus 1 day/level (D)",
    "spellPoints": {
      "cost": ""
    }
  },
  "effects": [],
  "folder": null,
  "sort": 0,
  "permission": {
    "default": 0
  },
  "flags": {}
}