{
  "_id": "eu6ex500obl17t6h",
  "name": "Slowing Mud",
  "type": "spell",
  "img": "systems/pf1/icons/misc/magic-swirl.png",
  "data": {
    "description": {
      "value": "<div class=\"spell-description\">\n  <p>\n    <strong>School</strong>&nbsp;conjuration&nbsp;(creation);\n    <strong>Level</strong>&nbsp;druid 4, hunter 4, shaman 4;\n    \n    \n    \n    \n  </p>\n  <p>\n    <strong>Casting Time</strong>&nbsp;1 standard<br>\n    <strong>Components</strong>&nbsp;V, S, M (earth and water)<br>\n  </p>\n  <p>\n    <strong>Range</strong>&nbsp;close (25 ft. + 5 ft./2 levels)<br>\n    \n    <strong>Targets</strong>&nbsp;one creature/level, no two of which can be more than 30 ft. apart<br>\n    \n    <strong>Duration</strong>&nbsp;1 round/level (see text)<br>\n      <strong>Saving Throw</strong>&nbsp;Fortitude negates;&nbsp;\n      <strong>Spell Resistance</strong>&nbsp;yes<br>\n  </p>\n  <h2>Description</h2>\n  <p>You coat the targets in thick, sticky mud. The mud acts as a <i>slow</i> spell and also blinds the targets. A creature can use a standard action to remove the mud from its eyes or the eyes of an adjacent creature, ending the blinded condition for that individual. Removing enough mud to end the <i>slow</i> effect is a full-round action. Jumping into a lake or being subject to an effect that creates a lot of water (such as <i>create water</i> or <i>hydraulic</i> pushAPG) removes all the mud in 1 round.</p><p>A <i>haste</i> effect cast on a creature <i>slow</i>ed by the mud allows it to act normally for the duration of the <i>haste</i>. <i>Slow</i> does not stack with the effects of <i>slow</i>ing mud. This spell cannot counter or dispel <i>haste</i>.</p>\n</div>\n"
    },
    "tags": [],
    "activation": {
      "type": "standard"
    },
    "unchainedAction": {
      "activation": {
        "cost": 2,
        "type": "action"
      }
    },
    "target": {
      "value": "one creature/level, no two of which can be more than 30 ft. apart"
    },
    "range": {
      "units": "close"
    },
    "uses": {
      "per": ""
    },
    "measureTemplate": {
      "size": "0"
    },
    "actionType": "spellsave",
    "damage": {
      "parts": [],
      "critParts": [],
      "nonCritParts": []
    },
    "attackParts": [],
    "ability": {
      "attack": "",
      "damage": ""
    },
    "save": {
      "dc": "0",
      "type": "fort",
      "description": "Fortitude negates"
    },
    "effectNotes": [],
    "attackNotes": [],
    "links": {
      "children": []
    },
    "flags": {
      "boolean": [],
      "dictionary": []
    },
    "scriptCalls": [],
    "learnedAt": {
      "class": [
        [
          "druid",
          4
        ],
        [
          "shaman",
          4
        ],
        [
          "hunter",
          4
        ]
      ],
      "domain": [],
      "subDomain": [],
      "elementalSchool": [],
      "bloodline": []
    },
    "level": 4,
    "school": "con",
    "subschool": "creation",
    "conditionals": [],
    "components": {
      "verbal": true,
      "somatic": true,
      "material": true
    },
    "materials": {
      "value": "earth and water"
    },
    "shortDescription": "<p>You coat the targets in thick, sticky mud. The mud acts as a <i>slow</i> spell and also blinds the targets. A creature can use a standard action to remove the mud from its eyes or the eyes of an adjacent creature, ending the blinded condition for that individual. Removing enough mud to end the <i>slow</i> effect is a full-round action. Jumping into a lake or being subject to an effect that creates a lot of water (such as <i>create water</i> or <i>hydraulic</i> pushAPG) removes all the mud in 1 round.</p><p>A <i>haste</i> effect cast on a creature <i>slow</i>ed by the mud allows it to act normally for the duration of the <i>haste</i>. <i>Slow</i> does not stack with the effects of <i>slow</i>ing mud. This spell cannot counter or dispel <i>haste</i>.</p>",
    "spellDuration": "1 round/level (see text)"
  },
  "effects": [],
  "folder": null,
  "sort": 0,
  "permission": {
    "default": 0
  },
  "flags": {}
}