{
  "_id": "gqtl4codfogg2u33",
  "name": "Steal Book",
  "type": "spell",
  "img": "systems/pf1/icons/misc/magic-swirl.png",
  "data": {
    "description": {
      "value": "<div class=\"spell-description\">\n  <p>\n    <strong>School</strong>&nbsp;divination;\n    <strong>Level</strong>&nbsp;bard 3, inquisitor 3, sorcerer/wizard 3, witch 3;\n    \n    \n    \n    \n  </p>\n  <p>\n    <strong>Casting Time</strong>&nbsp;1 standard<br>\n    <strong>Components</strong>&nbsp;V, S<br>\n  </p>\n  <p>\n    <strong>Range</strong>&nbsp;touch<br>\n    \n    <strong>Targets</strong>&nbsp;one book touched<br>\n    \n    <strong>Duration</strong>&nbsp;permanent<br>\n      <strong>Saving Throw</strong>&nbsp;Fortitude negates (object);&nbsp;\n      <strong>Spell Resistance</strong>&nbsp;yes<br>\n  </p>\n  <h2>Description</h2>\n  <p>Often used by bards, spies, and arcane scholars to steal important texts without alerting their owners, <i>steal book</i> allows you to copy the contents of one book, folio, scroll, or other text to a blank one of sufficient size. In doing so, the original pages are wiped blank, though any covers or binding remain unchanged. Differences in size between the original and the blank folio don't matter, though the blank folio that the information is being transferred to must have an equal or greater amount of space (in number of pages or inches of scroll), or else any text that overflows the document is lost forever.</p><p>This spell cannot transfer magical writing (such as a wizard's spellbook or a magical scroll). At GM's discretion, the spell can restore lost information, such as a page obscured by spill wine, text erased by magic or mundane means, or even pages lost to fire or another type of damage.</p><p>When <i>steal book</i> is cast from a scroll, the beginning of the stolen text appears on the <i>steal book</i> scroll until you select a target book for the text to appear in. The stolen text glitters and sparkles while it remains on the scroll.</p>\n</div>\n"
    },
    "tags": [],
    "activation": {
      "type": "standard"
    },
    "unchainedAction": {
      "activation": {
        "cost": 2,
        "type": "action"
      }
    },
    "target": {
      "value": "one book touched"
    },
    "range": {
      "units": "touch"
    },
    "uses": {
      "per": ""
    },
    "measureTemplate": {
      "size": "0"
    },
    "actionType": "spellsave",
    "damage": {
      "parts": [],
      "critParts": [],
      "nonCritParts": []
    },
    "attackParts": [],
    "ability": {
      "attack": "",
      "damage": ""
    },
    "save": {
      "dc": "0",
      "type": "fort",
      "description": "Fortitude negates (object)"
    },
    "effectNotes": [],
    "attackNotes": [],
    "links": {
      "children": []
    },
    "flags": {
      "boolean": [],
      "dictionary": []
    },
    "scriptCalls": [],
    "learnedAt": {
      "class": [
        [
          "sorcerer/wizard",
          3
        ],
        [
          "bard",
          3
        ],
        [
          "witch",
          3
        ],
        [
          "inquisitor",
          3
        ]
      ],
      "domain": [],
      "subDomain": [],
      "elementalSchool": [],
      "bloodline": []
    },
    "level": 3,
    "school": "div",
    "conditionals": [],
    "components": {
      "verbal": true,
      "somatic": true
    },
    "shortDescription": "<p>Often used by bards, spies, and arcane scholars to steal important texts without alerting their owners, <i>steal book</i> allows you to copy the contents of one book, folio, scroll, or other text to a blank one of sufficient size. In doing so, the original pages are wiped blank, though any covers or binding remain unchanged. Differences in size between the original and the blank folio don't matter, though the blank folio that the information is being transferred to must have an equal or greater amount of space (in number of pages or inches of scroll), or else any text that overflows the document is lost forever.</p><p>This spell cannot transfer magical writing (such as a wizard's spellbook or a magical scroll). At GM's discretion, the spell can restore lost information, such as a page obscured by spill wine, text erased by magic or mundane means, or even pages lost to fire or another type of damage.</p><p>When <i>steal book</i> is cast from a scroll, the beginning of the stolen text appears on the <i>steal book</i> scroll until you select a target book for the text to appear in. The stolen text glitters and sparkles while it remains on the scroll.</p>",
    "spellDuration": "permanent"
  },
  "effects": [],
  "folder": null,
  "sort": 0,
  "permission": {
    "default": 0
  },
  "flags": {}
}