{
  "_id": "ksuwipzgj5956b7p",
  "name": "Summon Flight of Eagles",
  "type": "spell",
  "img": "systems/pf1/icons/misc/magic-swirl.png",
  "data": {
    "description": {
      "value": "<div class=\"spell-description\">\n  <p>\n    <strong>School</strong>&nbsp;conjuration&nbsp;(summoning);\n    <strong>Level</strong>&nbsp;bloodrager 4, druid 6, hunter 4, ranger 4, shaman 6, sorcerer/wizard 6, summoner 6, unchained Summoner 6, witch 6;\n    \n    \n    \n    \n  </p>\n  <p>\n    <strong>Casting Time</strong>&nbsp;1 round<br>\n    <strong>Components</strong>&nbsp;V, S, F (a gold feather worth 100 gp)<br>\n  </p>\n  <p>\n    <strong>Range</strong>&nbsp;close (25 ft. + 5 ft./2 levels)<br>\n    \n    \n    <strong>Effect</strong>&nbsp;1d4+1 summoned creatures<br>\n    <strong>Duration</strong>&nbsp;10 minutes/level<br>\n      <strong>Saving Throw</strong>&nbsp;none;&nbsp;\n      <strong>Spell Resistance</strong>&nbsp;no<br>\n  </p>\n  <h2>Description</h2>\n  <p>You summon 1d4+1 giant eagles to serve as you designate. The summoned birds can fight if you wish, but can also serve as mounts.</p>\n</div>\n"
    },
    "tags": [],
    "activation": {
      "type": "round"
    },
    "unchainedAction": {
      "activation": {
        "cost": 3,
        "type": "action"
      }
    },
    "range": {
      "units": "close"
    },
    "uses": {
      "per": ""
    },
    "measureTemplate": {
      "size": "0"
    },
    "actionType": "other",
    "damage": {
      "parts": [],
      "critParts": [],
      "nonCritParts": []
    },
    "attackParts": [],
    "ability": {
      "attack": "",
      "damage": ""
    },
    "save": {
      "dc": "0"
    },
    "effectNotes": [],
    "attackNotes": [],
    "links": {
      "children": []
    },
    "flags": {
      "boolean": [],
      "dictionary": []
    },
    "scriptCalls": [],
    "learnedAt": {
      "class": [
        [
          "sorcerer/wizard",
          6
        ],
        [
          "druid",
          6
        ],
        [
          "ranger",
          4
        ],
        [
          "summoner",
          6
        ],
        [
          "witch",
          6
        ],
        [
          "bloodrager",
          4
        ],
        [
          "shaman",
          6
        ],
        [
          "hunter",
          4
        ],
        [
          "unchained Summoner",
          6
        ]
      ],
      "domain": [],
      "subDomain": [],
      "elementalSchool": [],
      "bloodline": []
    },
    "level": 6,
    "school": "con",
    "subschool": "summoning",
    "conditionals": [],
    "components": {
      "verbal": true,
      "somatic": true,
      "focus": true
    },
    "materials": {
      "focus": "a gold feather worth 100 gp"
    },
    "sr": false,
    "shortDescription": "<p>You summon 1d4+1 giant eagles to serve as you designate. The summoned birds can fight if you wish, but can also serve as mounts.</p>",
    "spellDuration": "10 minutes/level",
    "spellEffect": "1d4+1 summoned creatures"
  },
  "effects": [],
  "folder": null,
  "sort": 0,
  "permission": {
    "default": 0
  },
  "flags": {}
}