{
  "_id": "k6nfhf1wvik082wu",
  "name": "Symbol of Pain",
  "type": "spell",
  "img": "systems/pf1/icons/misc/magic-swirl.png",
  "data": {
    "description": {
      "value": "<div class=\"spell-description\">\n  <p>\n    <strong>School</strong>&nbsp;necromancy&nbsp;[evil, pain];\n    <strong>Level</strong>&nbsp;cleric/oracle 5, mesmerist 5, occultist 4, sorcerer/wizard 5, witch 5;\n    \n    <strong>Subdomain</strong>&nbsp;Kyton 5, Torture 5;\n    \n    \n  </p>\n  <p>\n    <strong>Casting Time</strong>&nbsp;10 minutes<br>\n    <strong>Components</strong>&nbsp;V, S, M (mercury and phosphorus, plus powdered diamond and opal worth a total of 1,000 gp)<br>\n  </p>\n  <p>\n    <strong>Range</strong>&nbsp;0 feet<br>\n    \n    \n    <strong>Effect</strong>&nbsp;one symbol<br>\n    <strong>Duration</strong>&nbsp;see text<br>\n      <strong>Saving Throw</strong>&nbsp;Fortitude negates;&nbsp;\n      <strong>Spell Resistance</strong>&nbsp;yes<br>\n  </p>\n  <h2>Description</h2>\n  <p>This spell functions like <i><i>symbol of</i> death</i>, except that each creature within the radius of a <i><i>symbol of</i> <i>pain</i></i> instead suffers wracking <i>pain</i>s that impose a -4 penalty on attack rolls, skill checks, and ability checks. These effects last for 1 hour after the creature moves farther than 60 feet from the symbol.</p><p>Unlike <i><i>symbol of</i> death</i>, <i><i>symbol of</i> <i>pain</i></i> has no hit point limit; once triggered, a <i><i>symbol of</i> <i>pain</i></i> simply remains active for 10 minutes per caster level.</p><p><i>Note:</i> Magic traps such as <i><i>symbol of</i> <i>pain</i></i> are hard to detect and disable. A rogue (only) can use the Perception skill to find a <i><i>symbol of</i> <i>pain</i></i> and Disable Device to thwart it. The DC in each case is 25 + spell level, or 30 for <i><i>symbol of</i> <i>pain</i></i>.</p>\n</div>\n"
    },
    "tags": [],
    "activation": {
      "cost": 10,
      "type": "minute"
    },
    "unchainedAction": {
      "activation": {
        "cost": 10,
        "type": "minute"
      }
    },
    "range": {
      "value": "0",
      "units": "ft"
    },
    "uses": {
      "per": ""
    },
    "measureTemplate": {
      "size": "0"
    },
    "actionType": "spellsave",
    "damage": {
      "parts": [],
      "critParts": [],
      "nonCritParts": []
    },
    "attackParts": [],
    "ability": {
      "attack": "",
      "damage": ""
    },
    "save": {
      "dc": "0",
      "type": "fort",
      "description": "Fortitude negates"
    },
    "effectNotes": [],
    "attackNotes": [],
    "links": {
      "children": []
    },
    "flags": {
      "boolean": [],
      "dictionary": []
    },
    "scriptCalls": [],
    "learnedAt": {
      "class": [
        [
          "sorcerer/wizard",
          5
        ],
        [
          "cleric/oracle",
          5
        ],
        [
          "witch",
          5
        ],
        [
          "mesmerist",
          5
        ],
        [
          "occultist",
          4
        ]
      ],
      "domain": [],
      "subDomain": [
        [
          "Torture",
          5
        ],
        [
          "Kyton",
          5
        ]
      ],
      "elementalSchool": [],
      "bloodline": []
    },
    "level": 5,
    "school": "nec",
    "types": "evil, pain",
    "conditionals": [],
    "components": {
      "verbal": true,
      "somatic": true,
      "material": true
    },
    "materials": {
      "value": "mercury and phosphorus, plus powdered diamond and opal worth a total of 1,000 gp",
      "gpValue": 1000
    },
    "spellbook": "",
    "preparation": {
      "autoDeductCharges": false,
      "spontaneousPrepared": false
    },
    "shortDescription": "<p>This spell functions like <i><i>symbol of</i> death</i>, except that each creature within the radius of a <i><i>symbol of</i> <i>pain</i></i> instead suffers wracking <i>pain</i>s that impose a -4 penalty on attack rolls, skill checks, and ability checks. These effects last for 1 hour after the creature moves farther than 60 feet from the symbol.</p><p>Unlike <i><i>symbol of</i> death</i>, <i><i>symbol of</i> <i>pain</i></i> has no hit point limit; once triggered, a <i><i>symbol of</i> <i>pain</i></i> simply remains active for 10 minutes per caster level.</p><p><i>Note:</i> Magic traps such as <i><i>symbol of</i> <i>pain</i></i> are hard to detect and disable. A rogue (only) can use the Perception skill to find a <i><i>symbol of</i> <i>pain</i></i> and Disable Device to thwart it. The DC in each case is 25 + spell level, or 30 for <i><i>symbol of</i> <i>pain</i></i>.</p>",
    "spellDuration": "see text",
    "spellEffect": "one symbol",
    "spellPoints": {
      "cost": ""
    }
  },
  "effects": [],
  "folder": null,
  "sort": 0,
  "permission": {
    "default": 0
  },
  "flags": {}
}