{
  "_id": "xrolhxi6j3oksz0s",
  "name": "Symbol of Debauchery",
  "type": "spell",
  "img": "systems/pf1/icons/misc/magic-swirl.png",
  "data": {
    "description": {
      "value": "<div class=\"spell-description\">\n  <p>\n    <strong>School</strong>&nbsp;enchantment&nbsp;(compulsion)&nbsp;[emotion, mind-affecting];\n    <strong>Level</strong>&nbsp;bard 6, cleric/oracle 8, sorcerer/wizard 8, witch 8;\n    \n    \n    \n    \n  </p>\n  <p>\n    <strong>Casting Time</strong>&nbsp;10 minutes<br>\n    <strong>Components</strong>&nbsp;V, S, M (a set of bull genitals and powdered ruby worth 5,000 gp)<br>\n  </p>\n  <p>\n    <strong>Range</strong>&nbsp;0 feet<br>\n    \n    \n    <strong>Effect</strong>&nbsp;one symbol<br>\n    <strong>Duration</strong>&nbsp;see text<br>\n      <strong>Saving Throw</strong>&nbsp;Will negates;&nbsp;\n      <strong>Spell Resistance</strong>&nbsp;yes<br>\n  </p>\n  <h2>Description</h2>\n  <p>You conjure a sizable symbol into being, a rune suggestive of bloated bodies, flung food, and flowing wine. This spell functions as <i>symbol of death</i>, except that all creatures within 60 feet of the <i>Symbol of Debauchery</i> are instead filled with lust for the nearest conscious creature. This effect lasts for 1 round per caster level, even after creatures leave the symbol's area of effect. Affected creatures are compelled to rush to the nearest creature in order to caress and kiss it, and may take no other actions. Each creature receives a single Will save when the <i>Symbol of Debauchery</i> is triggered to negate the effect. If no other creatures are visible, an affected creature may act normally.</p>\n</div>\n"
    },
    "tags": [],
    "activation": {
      "cost": 10,
      "type": "minute"
    },
    "unchainedAction": {
      "activation": {
        "cost": 10,
        "type": "minute"
      }
    },
    "range": {
      "value": "0",
      "units": "ft"
    },
    "uses": {
      "per": ""
    },
    "measureTemplate": {
      "size": "0"
    },
    "actionType": "spellsave",
    "damage": {
      "parts": [],
      "critParts": [],
      "nonCritParts": []
    },
    "attackParts": [],
    "ability": {
      "attack": "",
      "damage": ""
    },
    "save": {
      "dc": "0",
      "type": "will",
      "description": "Will negates"
    },
    "effectNotes": [],
    "attackNotes": [],
    "links": {
      "children": []
    },
    "flags": {
      "boolean": [],
      "dictionary": []
    },
    "scriptCalls": [],
    "learnedAt": {
      "class": [
        [
          "sorcerer/wizard",
          8
        ],
        [
          "cleric/oracle",
          8
        ],
        [
          "bard",
          6
        ],
        [
          "witch",
          8
        ]
      ],
      "domain": [],
      "subDomain": [],
      "elementalSchool": [],
      "bloodline": []
    },
    "level": 8,
    "school": "enc",
    "subschool": "compulsion",
    "types": "emotion, mind-affecting",
    "conditionals": [],
    "components": {
      "verbal": true,
      "somatic": true,
      "material": true
    },
    "materials": {
      "value": "a set of bull genitals and powdered ruby worth 5,000 gp",
      "gpValue": 5000
    },
    "spellbook": "",
    "preparation": {
      "autoDeductCharges": false,
      "spontaneousPrepared": false
    },
    "shortDescription": "<p>You conjure a sizable symbol into being, a rune suggestive of bloated bodies, flung food, and flowing wine. This spell functions as <i>symbol of death</i>, except that all creatures within 60 feet of the <i>Symbol of Debauchery</i> are instead filled with lust for the nearest conscious creature. This effect lasts for 1 round per caster level, even after creatures leave the symbol's area of effect. Affected creatures are compelled to rush to the nearest creature in order to caress and kiss it, and may take no other actions. Each creature receives a single Will save when the <i>Symbol of Debauchery</i> is triggered to negate the effect. If no other creatures are visible, an affected creature may act normally.</p>",
    "spellDuration": "see text",
    "spellEffect": "one symbol",
    "spellPoints": {
      "cost": ""
    }
  },
  "effects": [],
  "folder": null,
  "sort": 0,
  "permission": {
    "default": 0
  },
  "flags": {}
}