{
  "_id": "0gg4uir1psakz59e",
  "name": "Sympathetic Vibration",
  "type": "spell",
  "img": "systems/pf1/icons/misc/magic-swirl.png",
  "data": {
    "description": {
      "value": "<div class=\"spell-description\">\n  <p>\n    <strong>School</strong>&nbsp;evocation&nbsp;[sonic];\n    <strong>Level</strong>&nbsp;bard 6;\n    \n    \n    \n    \n  </p>\n  <p>\n    <strong>Casting Time</strong>&nbsp;10 minutes<br>\n    <strong>Components</strong>&nbsp;V, S, F (a tuning fork)<br>\n  </p>\n  <p>\n    <strong>Range</strong>&nbsp;touch<br>\n    \n    <strong>Targets</strong>&nbsp;one freestanding structure<br>\n    \n    <strong>Duration</strong>&nbsp;up to 1 round/level<br>\n      <strong>Saving Throw</strong>&nbsp;none; see text;&nbsp;\n      <strong>Spell Resistance</strong>&nbsp;yes<br>\n  </p>\n  <h2>Description</h2>\n  <p>By attuning yourself to a freestanding structure, you can create a damaging vibration within it. Once it begins, the vibration deals 2d10 points of damage per round to the target structure, bypassing hardness. You can choose at the time of casting to limit the duration of the spell; otherwise it lasts for 1 round per level. If the spell is cast upon a target that is not freestanding, the surrounding stone dissipates the effect and no damage occurs.</p><p><i>Sympathetic vibration</i> cannot affect creatures (including constructs). Since a structure is an unattended object, it gets no saving throw to resist the effect.</p>\n</div>\n"
    },
    "tags": [],
    "activation": {
      "cost": 10,
      "type": "minute"
    },
    "unchainedAction": {
      "activation": {
        "cost": 10,
        "type": "minute"
      }
    },
    "target": {
      "value": "one freestanding structure"
    },
    "range": {
      "units": "touch"
    },
    "uses": {
      "per": ""
    },
    "measureTemplate": {
      "size": "0"
    },
    "actionType": "spellsave",
    "damage": {
      "parts": [],
      "critParts": [],
      "nonCritParts": []
    },
    "attackParts": [],
    "ability": {
      "attack": "",
      "damage": ""
    },
    "save": {
      "dc": "0",
      "description": "none; see text"
    },
    "effectNotes": [],
    "attackNotes": [],
    "links": {
      "children": []
    },
    "flags": {
      "boolean": [],
      "dictionary": []
    },
    "scriptCalls": [],
    "learnedAt": {
      "class": [
        [
          "bard",
          6
        ]
      ],
      "domain": [],
      "subDomain": [],
      "elementalSchool": [],
      "bloodline": []
    },
    "level": 6,
    "school": "evo",
    "types": "sonic",
    "conditionals": [],
    "components": {
      "verbal": true,
      "somatic": true,
      "focus": true
    },
    "materials": {
      "focus": "a tuning fork"
    },
    "shortDescription": "<p>By attuning yourself to a freestanding structure, you can create a damaging vibration within it. Once it begins, the vibration deals 2d10 points of damage per round to the target structure, bypassing hardness. You can choose at the time of casting to limit the duration of the spell; otherwise it lasts for 1 round per level. If the spell is cast upon a target that is not freestanding, the surrounding stone dissipates the effect and no damage occurs.</p><p><i>Sympathetic vibration</i> cannot affect creatures (including constructs). Since a structure is an unattended object, it gets no saving throw to resist the effect.</p>",
    "spellDuration": "up to 1 round/level"
  },
  "effects": [],
  "folder": null,
  "sort": 0,
  "permission": {
    "default": 0
  },
  "flags": {}
}