{
  "_id": "v58v451n6dj73wvc",
  "name": "Teleport Trap",
  "type": "spell",
  "img": "systems/pf1/icons/misc/magic-swirl.png",
  "data": {
    "description": {
      "value": "<div class=\"spell-description\">\n  <p>\n    <strong>School</strong>&nbsp;abjuration;\n    <strong>Level</strong>&nbsp;sorcerer/wizard 7;\n    \n    <strong>Subdomain</strong>&nbsp;Trap 7;\n    \n    \n  </p>\n  <p>\n    <strong>Casting Time</strong>&nbsp;10 minutes<br>\n    <strong>Components</strong>&nbsp;V, S, M (powdered lodestone and silver worth 100 gp per 40-ft. cube)<br>\n  </p>\n  <p>\n    <strong>Range</strong>&nbsp;medium (100 ft. + 10 ft./level)<br>\n    <strong>Area</strong>&nbsp;one 40-ft. cube/level (S)<br>\n    \n    \n    <strong>Duration</strong>&nbsp;1 day/level<br>\n      <strong>Saving Throw</strong>&nbsp;Will negates;&nbsp;\n      <strong>Spell Resistance</strong>&nbsp;yes<br>\n  </p>\n  <h2>Description</h2>\n  <p><i>Teleport trap</i> wards an area, redirecting all <i>teleport</i>ation into or out of the area to a specific point within the area determined by you at the time of casting. The destination must be an open space on a solid surface. The spell's area overlaps walls and other solid and liquid objects (preventing intruders from bypassing the ward by <i>teleport</i>ing into a wall or through similar means). A <i>teleport</i>ing creature that is affected by a <i><i>teleport</i> trap</i> can resist the effect with a Will save-if the save is successful, the creature simply doesn't <i>teleport</i> at all (but the use of the <i>teleport</i> effect is still consumed)-either to the intended location or the <i><i>teleport</i> trap</i>'s actual destination. A DC 27 Knowledge (arcana) allows such a creature to recognize the <i><i>teleport</i> trap</i>'s presence, but does not reveal the trap's linked destination.</p><p>At your discretion, the <i><i>teleport</i> trap</i> can exclude a category of creatures, such as an alignment, a type of creature, or creatures that carry a specific item or know a password (though this only works if the creature is <i>teleport</i>ing out of the area, not into it). You select this option and the conditions at the time you cast the spell. Overly complicated conditions may cause the spell to fail entirely. Multiple castings of <i><i>teleport</i> trap</i> can be linked to cover a larger area, allowing <i>teleport</i>ed creatures to be directed to a single point within the combined area of the spells.</p><p><i>Teleport trap</i> can be made permanent at the cost of 7,000 gp. A single <i>permanency</i> spell can be used on all <i><i>teleport</i> trap</i>s that share a linked destination, but the gold piece cost must be paid for each individual spell.</p><p>The Pathfinders of the Grand Lodge make use of permanent <i><i>teleport</i> trap</i>s in several key locations, trapping would-be intruders in a small wing of jail cells. At least one crypt of the Whispering Tyrant makes use of the spell as well, trapping grave robbers in coffin-sized stone cysts, there to die a slow and agonizing death from thirst and starvation.</p>\n</div>\n"
    },
    "tags": [],
    "activation": {
      "cost": 10,
      "type": "minute"
    },
    "unchainedAction": {
      "activation": {
        "cost": 10,
        "type": "minute"
      }
    },
    "range": {
      "units": "medium"
    },
    "uses": {
      "per": ""
    },
    "measureTemplate": {
      "size": "0"
    },
    "actionType": "spellsave",
    "damage": {
      "parts": [],
      "critParts": [],
      "nonCritParts": []
    },
    "attackParts": [],
    "ability": {
      "attack": "",
      "damage": ""
    },
    "save": {
      "dc": "0",
      "type": "will",
      "description": "Will negates"
    },
    "effectNotes": [],
    "attackNotes": [],
    "links": {
      "children": []
    },
    "flags": {
      "boolean": [],
      "dictionary": []
    },
    "scriptCalls": [],
    "learnedAt": {
      "class": [
        [
          "sorcerer/wizard",
          7
        ]
      ],
      "domain": [],
      "subDomain": [
        [
          "Trap",
          7
        ]
      ],
      "elementalSchool": [],
      "bloodline": []
    },
    "level": 7,
    "school": "abj",
    "conditionals": [],
    "components": {
      "verbal": true,
      "somatic": true,
      "material": true
    },
    "materials": {
      "value": "powdered lodestone and silver worth 100 gp per 40-ft. cube",
      "gpValue": 100
    },
    "spellbook": "",
    "preparation": {
      "autoDeductCharges": false,
      "spontaneousPrepared": false
    },
    "shortDescription": "<p><i>Teleport trap</i> wards an area, redirecting all <i>teleport</i>ation into or out of the area to a specific point within the area determined by you at the time of casting. The destination must be an open space on a solid surface. The spell's area overlaps walls and other solid and liquid objects (preventing intruders from bypassing the ward by <i>teleport</i>ing into a wall or through similar means). A <i>teleport</i>ing creature that is affected by a <i><i>teleport</i> trap</i> can resist the effect with a Will save-if the save is successful, the creature simply doesn't <i>teleport</i> at all (but the use of the <i>teleport</i> effect is still consumed)-either to the intended location or the <i><i>teleport</i> trap</i>'s actual destination. A DC 27 Knowledge (arcana) allows such a creature to recognize the <i><i>teleport</i> trap</i>'s presence, but does not reveal the trap's linked destination.</p><p>At your discretion, the <i><i>teleport</i> trap</i> can exclude a category of creatures, such as an alignment, a type of creature, or creatures that carry a specific item or know a password (though this only works if the creature is <i>teleport</i>ing out of the area, not into it). You select this option and the conditions at the time you cast the spell. Overly complicated conditions may cause the spell to fail entirely. Multiple castings of <i><i>teleport</i> trap</i> can be linked to cover a larger area, allowing <i>teleport</i>ed creatures to be directed to a single point within the combined area of the spells.</p><p><i>Teleport trap</i> can be made permanent at the cost of 7,000 gp. A single <i>permanency</i> spell can be used on all <i><i>teleport</i> trap</i>s that share a linked destination, but the gold piece cost must be paid for each individual spell.</p><p>The Pathfinders of the Grand Lodge make use of permanent <i><i>teleport</i> trap</i>s in several key locations, trapping would-be intruders in a small wing of jail cells. At least one crypt of the Whispering Tyrant makes use of the spell as well, trapping grave robbers in coffin-sized stone cysts, there to die a slow and agonizing death from thirst and starvation.</p>",
    "spellDuration": "1 day/level",
    "spellArea": "one 40-ft. cube/level (S)",
    "spellPoints": {
      "cost": ""
    }
  },
  "effects": [],
  "folder": null,
  "sort": 0,
  "permission": {
    "default": 0
  },
  "flags": {}
}