{
  "_id": "wd41d3i472hmr8ib",
  "name": "Touch of Gracelessness",
  "type": "spell",
  "img": "systems/pf1/icons/misc/magic-swirl.png",
  "data": {
    "description": {
      "value": "<div class=\"spell-description\">\n  <p>\n    <strong>School</strong>&nbsp;transmutation;\n    <strong>Level</strong>&nbsp;bard 1, bloodrager 1, mesmerist 1, sorcerer/wizard 1, spiritualist 1;\n    \n    \n    \n    \n  </p>\n  <p>\n    <strong>Casting Time</strong>&nbsp;1 standard<br>\n    <strong>Components</strong>&nbsp;V, S<br>\n  </p>\n  <p>\n    <strong>Range</strong>&nbsp;touch<br>\n    \n    <strong>Targets</strong>&nbsp;creature touched<br>\n    \n    <strong>Duration</strong>&nbsp;1 round/level<br>\n      <strong>Saving Throw</strong>&nbsp;Fortitude partial;&nbsp;\n      <strong>Spell Resistance</strong>&nbsp;yes<br>\n  </p>\n  <h2>Description</h2>\n  <p>With a single touch, you reduce a creature to a fumbling clown.</p><p>The target takes a penalty to its Dexterity equal to 1d6+1 per two caster levels (maximum 1d6+5). This penalty cannot drop the target's Dexterity score below 1.</p><p>In addition, if the subject moves more than half its speed, it falls prone. If the subject flies, its maneuverability is reduced by one step (perfect maneuverability becomes good, good becomes average, and so on).</p><p>A successful Fortitude save halves the penalty to Dexterity and negates the possibility of falling prone or the reduction to fly maneuverabilities.</p>\n</div>\n"
    },
    "tags": [],
    "activation": {
      "type": "standard"
    },
    "unchainedAction": {
      "activation": {
        "cost": 2,
        "type": "action"
      }
    },
    "target": {
      "value": "creature touched"
    },
    "range": {
      "units": "touch"
    },
    "uses": {
      "per": ""
    },
    "measureTemplate": {
      "size": "0"
    },
    "actionType": "spellsave",
    "damage": {
      "parts": [],
      "critParts": [],
      "nonCritParts": []
    },
    "attackParts": [],
    "ability": {
      "attack": "",
      "damage": ""
    },
    "save": {
      "dc": "0",
      "type": "fort",
      "description": "Fortitude partial"
    },
    "effectNotes": [],
    "attackNotes": [],
    "links": {
      "children": []
    },
    "flags": {
      "boolean": [],
      "dictionary": []
    },
    "scriptCalls": [],
    "learnedAt": {
      "class": [
        [
          "sorcerer/wizard",
          1
        ],
        [
          "bard",
          1
        ],
        [
          "bloodrager",
          1
        ],
        [
          "mesmerist",
          1
        ],
        [
          "spiritualist",
          1
        ]
      ],
      "domain": [],
      "subDomain": [],
      "elementalSchool": [],
      "bloodline": []
    },
    "school": "trs",
    "conditionals": [],
    "components": {
      "verbal": true,
      "somatic": true
    },
    "shortDescription": "<p>With a single touch, you reduce a creature to a fumbling clown.</p><p>The target takes a penalty to its Dexterity equal to 1d6+1 per two caster levels (maximum 1d6+5). This penalty cannot drop the target's Dexterity score below 1.</p><p>In addition, if the subject moves more than half its speed, it falls prone. If the subject flies, its maneuverability is reduced by one step (perfect maneuverability becomes good, good becomes average, and so on).</p><p>A successful Fortitude save halves the penalty to Dexterity and negates the possibility of falling prone or the reduction to fly maneuverabilities.</p>",
    "spellDuration": "1 round/level"
  },
  "effects": [],
  "folder": null,
  "sort": 0,
  "permission": {
    "default": 0
  },
  "flags": {}
}