{
  "_id": "fok7mlsri0kdkqu5",
  "name": "Touch of Blindness",
  "type": "spell",
  "img": "systems/pf1/icons/misc/magic-swirl.png",
  "data": {
    "description": {
      "value": "<div class=\"spell-description\">\n  <p>\n    <strong>School</strong>&nbsp;necromancy&nbsp;[darkness, shadow];\n    <strong>Level</strong>&nbsp;antipaladin 1, bard 1, cleric/oracle 1, shaman 1, sorcerer/wizard 1, witch 1;\n    \n    \n    \n    \n  </p>\n  <p>\n    <strong>Casting Time</strong>&nbsp;1 standard<br>\n    <strong>Components</strong>&nbsp;V<br>\n  </p>\n  <p>\n    <strong>Range</strong>&nbsp;touch<br>\n    \n    <strong>Targets</strong>&nbsp;creature or creatures touched (up to one/level)<br>\n    \n    <strong>Duration</strong>&nbsp;1 round/level (see text)<br>\n      <strong>Saving Throw</strong>&nbsp;Fortitude negates;&nbsp;\n      <strong>Spell Resistance</strong>&nbsp;no<br>\n  </p>\n  <h2>Description</h2>\n  <p>A touch from your hand, which is engulfed in darkness, disrupts a creature's vision by coating its eyes in supernatural darkness. Each touch causes the target to become blinded for 1 round unless it makes a successful Fortitude saving throw. You can use this melee touch attack up to one time per caster level. Any touch attack not used after 1 round per caster level is lost.</p>\n</div>\n"
    },
    "tags": [],
    "activation": {
      "type": "standard"
    },
    "unchainedAction": {
      "activation": {
        "cost": 2,
        "type": "action"
      }
    },
    "target": {
      "value": "creature or creatures touched (up to one/level)"
    },
    "range": {
      "units": "touch"
    },
    "uses": {
      "per": ""
    },
    "measureTemplate": {
      "size": "0"
    },
    "actionType": "spellsave",
    "damage": {
      "parts": [],
      "critParts": [],
      "nonCritParts": []
    },
    "attackParts": [],
    "ability": {
      "attack": "",
      "damage": ""
    },
    "save": {
      "dc": "0",
      "type": "fort",
      "description": "Fortitude negates"
    },
    "effectNotes": [],
    "attackNotes": [],
    "links": {
      "children": []
    },
    "flags": {
      "boolean": [],
      "dictionary": []
    },
    "scriptCalls": [],
    "learnedAt": {
      "class": [
        [
          "sorcerer/wizard",
          1
        ],
        [
          "cleric/oracle",
          1
        ],
        [
          "bard",
          1
        ],
        [
          "witch",
          1
        ],
        [
          "antipaladin",
          1
        ],
        [
          "shaman",
          1
        ]
      ],
      "domain": [],
      "subDomain": [],
      "elementalSchool": [],
      "bloodline": []
    },
    "school": "nec",
    "types": "darkness, shadow",
    "conditionals": [],
    "components": {
      "verbal": true
    },
    "sr": false,
    "shortDescription": "<p>A touch from your hand, which is engulfed in darkness, disrupts a creature's vision by coating its eyes in supernatural darkness. Each touch causes the target to become blinded for 1 round unless it makes a successful Fortitude saving throw. You can use this melee touch attack up to one time per caster level. Any touch attack not used after 1 round per caster level is lost.</p>",
    "spellDuration": "1 round/level (see text)"
  },
  "effects": [],
  "folder": null,
  "sort": 0,
  "permission": {
    "default": 0
  },
  "flags": {}
}