{
  "_id": "xmkvpl56appk20cl",
  "name": "Trap the Soul",
  "type": "spell",
  "img": "systems/pf1/icons/misc/magic-swirl.png",
  "data": {
    "description": {
      "value": "<div class=\"spell-description\">\n  <p>\n    <strong>School</strong>&nbsp;conjuration&nbsp;(summoning);\n    <strong>Level</strong>&nbsp;psychic 8, sorcerer/wizard 8, witch 8;\n    \n    <strong>Subdomain</strong>&nbsp;Psychopomp 8, Souls 9;\n    \n    <strong>Bloodline</strong>&nbsp;Oni 8;\n  </p>\n  <p>\n    <strong>Casting Time</strong>&nbsp;1 standard<br>\n    <strong>Components</strong>&nbsp;V, S, M (gem worth 1,000 gp per HD of the trapped creature)<br>\n  </p>\n  <p>\n    <strong>Range</strong>&nbsp;close (25 ft. + 5 ft./2 levels)<br>\n    \n    <strong>Targets</strong>&nbsp;one creature<br>\n    \n    <strong>Duration</strong>&nbsp;permanent; see text<br>\n      <strong>Saving Throw</strong>&nbsp;see text;&nbsp;\n      <strong>Spell Resistance</strong>&nbsp;yes<br>\n  </p>\n  <h2>Description</h2>\n  <p><i>Trap the soul</i> forces a creature's life force (and its material body) into a gem. The gem holds the trapped entity indefinitely or until the gem is broken and the life force is released, which allows the material body to reform. If the trapped creature is a powerful creature from another plane, it can be required to perform a service immediately upon being freed. Otherwise, the creature can go free once the gem imprisoning it is broken.</p><p>Depending on the version selected, the spell can be triggered in one of two ways.</p><p><i>Spell Completion</i>: First, the spell can be completed by speaking its final word as a standard action as if you were casting a regular spell at the subject. This allows spell resistance (if any) and a Will save to avoid the effect. If the creature's name is spoken as well, any spell resistance is ignored and the save DC increases by 2. If the save or spell resistance is successful, the gem shatters.</p><p><i>Trigger Object</i>: The second method is far more insidious, for it tricks the subject into accepting a trigger object inscribed with the final spell word, automatically placing the creature's soul in the trap.</p><p>To use this method, both the creature's name and the trigger word must be inscribed on the trigger object when the gem is enspelled.</p><p>A <i>sympathy</i> spell can also be placed on the trigger object. As soon as the subject picks up or accepts the trigger object, its life force is automatically transferred to the gem without the benefit of spell resistance or a save.</p>\n</div>\n"
    },
    "tags": [],
    "activation": {
      "type": "standard"
    },
    "unchainedAction": {
      "activation": {
        "cost": 2,
        "type": "action"
      }
    },
    "target": {
      "value": "one creature"
    },
    "range": {
      "units": "close"
    },
    "uses": {
      "per": ""
    },
    "measureTemplate": {
      "size": "0"
    },
    "actionType": "spellsave",
    "damage": {
      "parts": [],
      "critParts": [],
      "nonCritParts": []
    },
    "attackParts": [],
    "ability": {
      "attack": "",
      "damage": ""
    },
    "save": {
      "dc": "0",
      "description": "see text"
    },
    "effectNotes": [],
    "attackNotes": [],
    "links": {
      "children": []
    },
    "flags": {
      "boolean": [],
      "dictionary": []
    },
    "scriptCalls": [],
    "learnedAt": {
      "class": [
        [
          "sorcerer/wizard",
          8
        ],
        [
          "witch",
          8
        ],
        [
          "psychic",
          8
        ]
      ],
      "domain": [],
      "subDomain": [
        [
          "Souls",
          9
        ],
        [
          "Psychopomp",
          8
        ]
      ],
      "elementalSchool": [],
      "bloodline": [
        [
          "Oni",
          8
        ]
      ]
    },
    "level": 8,
    "school": "con",
    "subschool": "summoning",
    "conditionals": [],
    "components": {
      "verbal": true,
      "somatic": true,
      "material": true
    },
    "materials": {
      "value": "gem worth 1,000 gp per HD of the trapped creature"
    },
    "shortDescription": "<p><i>Trap the soul</i> forces a creature's life force (and its material body) into a gem. The gem holds the trapped entity indefinitely or until the gem is broken and the life force is released, which allows the material body to reform. If the trapped creature is a powerful creature from another plane, it can be required to perform a service immediately upon being freed. Otherwise, the creature can go free once the gem imprisoning it is broken.</p><p>Depending on the version selected, the spell can be triggered in one of two ways.</p><p><i>Spell Completion</i>: First, the spell can be completed by speaking its final word as a standard action as if you were casting a regular spell at the subject. This allows spell resistance (if any) and a Will save to avoid the effect. If the creature's name is spoken as well, any spell resistance is ignored and the save DC increases by 2. If the save or spell resistance is successful, the gem shatters.</p><p><i>Trigger Object</i>: The second method is far more insidious, for it tricks the subject into accepting a trigger object inscribed with the final spell word, automatically placing the creature's soul in the trap.</p><p>To use this method, both the creature's name and the trigger word must be inscribed on the trigger object when the gem is enspelled.</p><p>A <i>sympathy</i> spell can also be placed on the trigger object. As soon as the subject picks up or accepts the trigger object, its life force is automatically transferred to the gem without the benefit of spell resistance or a save.</p>",
    "spellDuration": "permanent; see text"
  },
  "effects": [],
  "folder": null,
  "sort": 0,
  "permission": {
    "default": 0
  },
  "flags": {}
}