{
  "_id": "09juighnblqlqwro",
  "name": "Unerring Weapon",
  "type": "spell",
  "img": "systems/pf1/icons/misc/magic-swirl.png",
  "data": {
    "description": {
      "value": "<div class=\"spell-description\">\n  <p>\n    <strong>School</strong>&nbsp;transmutation;\n    <strong>Level</strong>&nbsp;bloodrager 1, inquisitor 1, magus 1, medium 1, occultist 2, psychic 1, sorcerer/wizard 1, witch 1;\n    \n    \n    \n    \n  </p>\n  <p>\n    <strong>Casting Time</strong>&nbsp;1 standard<br>\n    <strong>Components</strong>&nbsp;V, S<br>\n  </p>\n  <p>\n    <strong>Range</strong>&nbsp;close (25 ft. + 5 ft./2 levels)<br>\n    \n    <strong>Targets</strong>&nbsp;one weapon or 20 projectiles, all of which must be together at the time of casting<br>\n    \n    <strong>Duration</strong>&nbsp;1 round/level<br>\n      <strong>Saving Throw</strong>&nbsp;Will negates (harmless, object);&nbsp;\n      <strong>Spell Resistance</strong>&nbsp;yes<br>\n  </p>\n  <h2>Description</h2>\n  <p>This spell causes a weapon to veer closer to vital areas, improving the result of a critical threat. This transmutation grants a +2 bonus on attack rolls to confirm critical hits plus 1 additional bonus point per four caster levels (maximum total bonus +7). If the spell is cast on projectiles, the effect ends on a specific projectile whenever that projectile is used to make an attack, regardless of whether the attack hits. For this spell, shuriken are considered projectiles.</p>\n</div>\n"
    },
    "tags": [],
    "activation": {
      "type": "standard"
    },
    "unchainedAction": {
      "activation": {
        "cost": 2,
        "type": "action"
      }
    },
    "target": {
      "value": "one weapon or 20 projectiles, all of which must be together at the time of casting"
    },
    "range": {
      "units": "close"
    },
    "uses": {
      "per": ""
    },
    "measureTemplate": {
      "size": "0"
    },
    "actionType": "spellsave",
    "damage": {
      "parts": [],
      "critParts": [],
      "nonCritParts": []
    },
    "attackParts": [],
    "ability": {
      "attack": "",
      "damage": ""
    },
    "save": {
      "dc": "0",
      "type": "will",
      "description": "Will negates (harmless, object)"
    },
    "effectNotes": [],
    "attackNotes": [],
    "links": {
      "children": []
    },
    "flags": {
      "boolean": [],
      "dictionary": []
    },
    "scriptCalls": [],
    "learnedAt": {
      "class": [
        [
          "sorcerer/wizard",
          1
        ],
        [
          "witch",
          1
        ],
        [
          "inquisitor",
          1
        ],
        [
          "magus",
          1
        ],
        [
          "bloodrager",
          1
        ],
        [
          "psychic",
          1
        ],
        [
          "medium",
          1
        ],
        [
          "occultist",
          2
        ]
      ],
      "domain": [],
      "subDomain": [],
      "elementalSchool": [],
      "bloodline": []
    },
    "school": "trs",
    "conditionals": [],
    "components": {
      "verbal": true,
      "somatic": true
    },
    "shortDescription": "<p>This spell causes a weapon to veer closer to vital areas, improving the result of a critical threat. This transmutation grants a +2 bonus on attack rolls to confirm critical hits plus 1 additional bonus point per four caster levels (maximum total bonus +7). If the spell is cast on projectiles, the effect ends on a specific projectile whenever that projectile is used to make an attack, regardless of whether the attack hits. For this spell, shuriken are considered projectiles.</p>",
    "spellDuration": "1 round/level"
  },
  "effects": [],
  "folder": null,
  "sort": 0,
  "permission": {
    "default": 0
  },
  "flags": {}
}