{
  "_id": "v1nropy1tvj0476l",
  "name": "Urban Step",
  "type": "spell",
  "img": "systems/pf1/icons/misc/magic-swirl.png",
  "data": {
    "description": {
      "value": "<div class=\"spell-description\">\n  <p>\n    <strong>School</strong>&nbsp;conjuration&nbsp;(teleportation);\n    <strong>Level</strong>&nbsp;bard 2, magus 3, occultist 3, sorcerer/wizard 3, summoner 3, unchained Summoner 3;\n    \n    \n    \n    \n  </p>\n  <p>\n    <strong>Casting Time</strong>&nbsp;1 standard<br>\n    <strong>Components</strong>&nbsp;V, S, M (scrap of cobweb)<br>\n  </p>\n  <p>\n    <strong>Range</strong>&nbsp;medium (100 ft. + 10 ft./level)<br>\n    \n    <strong>Targets</strong>&nbsp;two doors or other portals in range<br>\n    \n    <strong>Duration</strong>&nbsp;1 round<br>\n      <strong>Saving Throw</strong>&nbsp;none;&nbsp;\n      <strong>Spell Resistance</strong>&nbsp;no<br>\n  </p>\n  <h2>Description</h2>\n  <p>You set up a magical connection between two doors (or other physical portals, such as windows) that both must be within range, line of sight, and line of effect. During the spell's duration, you can move through one of the two portals. When you do, you teleport to the other portal, emerging in either direction. Both portals must be open and unobstructed when you cast the spell and enter the first portal, and they both must be large enough for you to fit through, otherwise the spell ends and the teleportation fails. You can bring along objects as long as their combined weight doesn't exceed your maximum load. You can't bring other creatures with you, and other creatures that go through the portals don't teleport. Once you step through, the spell ends and you can't take any other actions until your next turn.</p>\n</div>\n"
    },
    "tags": [],
    "activation": {
      "type": "standard"
    },
    "unchainedAction": {
      "activation": {
        "cost": 2,
        "type": "action"
      }
    },
    "target": {
      "value": "two doors or other portals in range"
    },
    "range": {
      "units": "medium"
    },
    "uses": {
      "per": ""
    },
    "measureTemplate": {
      "size": "0"
    },
    "actionType": "",
    "damage": {
      "parts": [],
      "critParts": [],
      "nonCritParts": []
    },
    "attackParts": [],
    "ability": {
      "attack": "",
      "damage": ""
    },
    "save": {
      "dc": "0"
    },
    "effectNotes": [],
    "attackNotes": [],
    "links": {
      "children": []
    },
    "flags": {
      "boolean": [],
      "dictionary": []
    },
    "scriptCalls": [],
    "learnedAt": {
      "class": [
        [
          "sorcerer/wizard",
          3
        ],
        [
          "bard",
          2
        ],
        [
          "summoner",
          3
        ],
        [
          "magus",
          3
        ],
        [
          "occultist",
          3
        ],
        [
          "unchained Summoner",
          3
        ]
      ],
      "domain": [],
      "subDomain": [],
      "elementalSchool": [],
      "bloodline": []
    },
    "level": 3,
    "school": "con",
    "subschool": "teleportation",
    "conditionals": [],
    "components": {
      "verbal": true,
      "somatic": true,
      "material": true
    },
    "materials": {
      "value": "scrap of cobweb"
    },
    "sr": false,
    "shortDescription": "<p>You set up a magical connection between two doors (or other physical portals, such as windows) that both must be within range, line of sight, and line of effect. During the spell's duration, you can move through one of the two portals. When you do, you teleport to the other portal, emerging in either direction. Both portals must be open and unobstructed when you cast the spell and enter the first portal, and they both must be large enough for you to fit through, otherwise the spell ends and the teleportation fails. You can bring along objects as long as their combined weight doesn't exceed your maximum load. You can't bring other creatures with you, and other creatures that go through the portals don't teleport. Once you step through, the spell ends and you can't take any other actions until your next turn.</p>",
    "spellDuration": "1 round"
  },
  "effects": [],
  "folder": null,
  "sort": 0,
  "permission": {
    "default": 0
  },
  "flags": {}
}