{
  "_id": "rgrq94b6mte5b024",
  "name": "Wandering Weather",
  "type": "spell",
  "img": "systems/pf1/icons/misc/magic-swirl.png",
  "data": {
    "description": {
      "value": "<div class=\"spell-description\">\n  <p>\n    <strong>School</strong>&nbsp;transmutation;\n    <strong>Level</strong>&nbsp;cleric/oracle 8, druid 8, shaman 8, sorcerer/wizard 8, witch 8;\n    \n    \n    \n    \n  </p>\n  <p>\n    <strong>Casting Time</strong>&nbsp;10 minutes<br>\n    <strong>Components</strong>&nbsp;V, S<br>\n  </p>\n  <p>\n    <strong>Range</strong>&nbsp;2 miles<br>\n    <strong>Area</strong>&nbsp;2-mile-radius circle, centered on you; see text<br>\n    \n    \n    <strong>Duration</strong>&nbsp;4d12 hours; see text<br>\n      <strong>Saving Throw</strong>&nbsp;none;&nbsp;\n      <strong>Spell Resistance</strong>&nbsp;no<br>\n  </p>\n  <h2>Description</h2>\n  <p>This spell functions as <i>control weather</i> except you can opt for the weather to remain centered on you as you move.</p>\n</div>\n"
    },
    "tags": [],
    "activation": {
      "cost": 10,
      "type": "minute"
    },
    "unchainedAction": {
      "activation": {
        "cost": 10,
        "type": "minute"
      }
    },
    "range": {
      "value": 2,
      "units": "mi"
    },
    "uses": {
      "per": ""
    },
    "measureTemplate": {
      "size": "0"
    },
    "actionType": "",
    "damage": {
      "parts": [],
      "critParts": [],
      "nonCritParts": []
    },
    "attackParts": [],
    "ability": {
      "attack": "",
      "damage": ""
    },
    "save": {
      "dc": "0"
    },
    "effectNotes": [],
    "attackNotes": [],
    "links": {
      "children": []
    },
    "flags": {
      "boolean": [],
      "dictionary": []
    },
    "scriptCalls": [],
    "learnedAt": {
      "class": [
        [
          "sorcerer/wizard",
          8
        ],
        [
          "cleric/oracle",
          8
        ],
        [
          "druid",
          8
        ],
        [
          "witch",
          8
        ],
        [
          "shaman",
          8
        ]
      ],
      "domain": [],
      "subDomain": [],
      "elementalSchool": [],
      "bloodline": []
    },
    "level": 8,
    "school": "trs",
    "conditionals": [],
    "components": {
      "verbal": true,
      "somatic": true
    },
    "sr": false,
    "shortDescription": "<p>This spell functions as <i>control weather</i> except you can opt for the weather to remain centered on you as you move.</p>",
    "spellDuration": "4d12 hours; see text",
    "spellArea": "2-mile-radius circle, centered on you; see text"
  },
  "effects": [],
  "folder": null,
  "sort": 0,
  "permission": {
    "default": 0
  },
  "flags": {}
}