{
  "_id": "3wyqlqtiyx5c1fcf",
  "name": "Weaponwand",
  "type": "spell",
  "img": "systems/pf1/icons/misc/magic-swirl.png",
  "data": {
    "description": {
      "value": "<div class=\"spell-description\">\n  <p>\n    <strong>School</strong>&nbsp;transmutation;\n    <strong>Level</strong>&nbsp;bard 1, cleric/oracle 1, inquisitor 1, magus 1;\n    \n    \n    \n    \n  </p>\n  <p>\n    <strong>Casting Time</strong>&nbsp;1 round<br>\n    <strong>Components</strong>&nbsp;V, S, F (a magic wand)<br>\n  </p>\n  <p>\n    <strong>Range</strong>&nbsp;touch<br>\n    \n    <strong>Targets</strong>&nbsp;one weapon<br>\n    \n    <strong>Duration</strong>&nbsp;1 minute/level<br>\n      <strong>Saving Throw</strong>&nbsp;Will negates (harmless, object);&nbsp;\n      <strong>Spell Resistance</strong>&nbsp;yes<br>\n  </p>\n  <h2>Description</h2>\n  <p>When you cast this spell on a weapon, you cause a portion of the weapon to open like the skin of a partially peeled apple, revealing a space large enough to insert a single wand within.</p><p>As part of the spell's casting, you can insert a single wand into the weapon, at which point the weapon returns to its original form with the wand held inside of it without negatively impacting the weapon's integrity. For the spell's duration, a character who wields the transmuted weapon is also considered to be wielding the wand as well. You can attack normally with the weapon or use the weapon as if it were the encased wand. If the effect created by the wand requires an attack roll to successfully strike a foe, you may make the attack roll as if you were making an attack with the weapon at its highest bonus (including any bonuses the weapon would normally receive) rather than just a normal attack with the wand-doing so does not allow you to add the weapon's damage to the wand's attack roll, but instead allows you to use your skill with the weapon to boost your chance of hitting with the spell.</p><p>At the end of the spell's duration, the encased wand is ejected from the weapon. If you have a free hand, you may catch the weapon as a free action; otherwise, the wand drops to the ground. If the weapon housing the wand is broken or destroyed during the duration of <i>weaponwand</i>, the encased wand is similarly broken or destroyed.</p>\n</div>\n"
    },
    "tags": [],
    "activation": {
      "type": "round"
    },
    "unchainedAction": {
      "activation": {
        "cost": 3,
        "type": "action"
      }
    },
    "target": {
      "value": "one weapon"
    },
    "range": {
      "units": "touch"
    },
    "uses": {
      "per": ""
    },
    "measureTemplate": {
      "size": "0"
    },
    "actionType": "spellsave",
    "damage": {
      "parts": [],
      "critParts": [],
      "nonCritParts": []
    },
    "attackParts": [],
    "ability": {
      "attack": "",
      "damage": ""
    },
    "save": {
      "dc": "0",
      "type": "will",
      "description": "Will negates (harmless, object)"
    },
    "effectNotes": [],
    "attackNotes": [],
    "links": {
      "children": []
    },
    "flags": {
      "boolean": [],
      "dictionary": []
    },
    "scriptCalls": [],
    "learnedAt": {
      "class": [
        [
          "cleric/oracle",
          1
        ],
        [
          "bard",
          1
        ],
        [
          "inquisitor",
          1
        ],
        [
          "magus",
          1
        ]
      ],
      "domain": [],
      "subDomain": [],
      "elementalSchool": [],
      "bloodline": []
    },
    "school": "trs",
    "conditionals": [],
    "components": {
      "verbal": true,
      "somatic": true,
      "focus": true
    },
    "materials": {
      "focus": "a magic wand"
    },
    "shortDescription": "<p>When you cast this spell on a weapon, you cause a portion of the weapon to open like the skin of a partially peeled apple, revealing a space large enough to insert a single wand within.</p><p>As part of the spell's casting, you can insert a single wand into the weapon, at which point the weapon returns to its original form with the wand held inside of it without negatively impacting the weapon's integrity. For the spell's duration, a character who wields the transmuted weapon is also considered to be wielding the wand as well. You can attack normally with the weapon or use the weapon as if it were the encased wand. If the effect created by the wand requires an attack roll to successfully strike a foe, you may make the attack roll as if you were making an attack with the weapon at its highest bonus (including any bonuses the weapon would normally receive) rather than just a normal attack with the wand-doing so does not allow you to add the weapon's damage to the wand's attack roll, but instead allows you to use your skill with the weapon to boost your chance of hitting with the spell.</p><p>At the end of the spell's duration, the encased wand is ejected from the weapon. If you have a free hand, you may catch the weapon as a free action; otherwise, the wand drops to the ground. If the weapon housing the wand is broken or destroyed during the duration of <i>weaponwand</i>, the encased wand is similarly broken or destroyed.</p>",
    "spellDuration": "1 minute/level"
  },
  "effects": [],
  "folder": null,
  "sort": 0,
  "permission": {
    "default": 0
  },
  "flags": {}
}