{
  "_id": "xsabwpuqlc8li9fu",
  "name": "Web Bolt",
  "type": "spell",
  "img": "systems/pf1/icons/misc/magic-swirl.png",
  "data": {
    "description": {
      "value": "<div class=\"spell-description\">\n  <p>\n    <strong>School</strong>&nbsp;conjuration&nbsp;(creation);\n    <strong>Level</strong>&nbsp;bloodrager 1, magus 1, sorcerer/wizard 1, witch 1;\n    \n    \n    \n    \n  </p>\n  <p>\n    <strong>Casting Time</strong>&nbsp;1 standard<br>\n    <strong>Components</strong>&nbsp;V, S<br>\n  </p>\n  <p>\n    <strong>Range</strong>&nbsp;close (25 ft. + 5 ft./2 levels)<br>\n    \n    \n    <strong>Effect</strong>&nbsp;fist-sized blob of webbing<br>\n    <strong>Duration</strong>&nbsp;1 min./level<br>\n      <strong>Saving Throw</strong>&nbsp;Reflex negates; see text;&nbsp;\n      <strong>Spell Resistance</strong>&nbsp;no<br>\n  </p>\n  <h2>Description</h2>\n  <p>You launch a ball of <i>web</i>bing at a target, which must make a save or be affected as if by a <i>web</i> spell occupying only the creature's space. If the creature saves or breaks free of the <i>web</i>bing, the remaining <i>web</i>s dissolve and the square is not considered difficult terrain. The spell has no effect if the target is not on or adjacent to a solid surface that can support the <i>web</i>bing.</p>\n</div>\n"
    },
    "tags": [],
    "activation": {
      "type": "standard"
    },
    "unchainedAction": {
      "activation": {
        "cost": 2,
        "type": "action"
      }
    },
    "range": {
      "units": "close"
    },
    "uses": {
      "per": ""
    },
    "measureTemplate": {
      "size": "0"
    },
    "actionType": "spellsave",
    "damage": {
      "parts": [],
      "critParts": [],
      "nonCritParts": []
    },
    "attackParts": [],
    "ability": {
      "attack": "",
      "damage": ""
    },
    "save": {
      "dc": "0",
      "type": "ref",
      "description": "Reflex negates; see text"
    },
    "effectNotes": [],
    "attackNotes": [],
    "links": {
      "children": []
    },
    "flags": {
      "boolean": [],
      "dictionary": []
    },
    "scriptCalls": [],
    "learnedAt": {
      "class": [
        [
          "sorcerer/wizard",
          1
        ],
        [
          "witch",
          1
        ],
        [
          "magus",
          1
        ],
        [
          "bloodrager",
          1
        ]
      ],
      "domain": [],
      "subDomain": [],
      "elementalSchool": [],
      "bloodline": []
    },
    "school": "con",
    "subschool": "creation",
    "conditionals": [],
    "components": {
      "verbal": true,
      "somatic": true
    },
    "sr": false,
    "shortDescription": "<p>You launch a ball of <i>web</i>bing at a target, which must make a save or be affected as if by a <i>web</i> spell occupying only the creature's space. If the creature saves or breaks free of the <i>web</i>bing, the remaining <i>web</i>s dissolve and the square is not considered difficult terrain. The spell has no effect if the target is not on or adjacent to a solid surface that can support the <i>web</i>bing.</p>",
    "spellDuration": "1 min./level",
    "spellEffect": "fist-sized blob of webbing"
  },
  "effects": [],
  "folder": null,
  "sort": 0,
  "permission": {
    "default": 0
  },
  "flags": {}
}