{
  "_id": "ul22siduwtj2nzpo",
  "name": "Whip of Centipedes",
  "type": "spell",
  "img": "systems/pf1/icons/misc/magic-swirl.png",
  "data": {
    "description": {
      "value": "<div class=\"spell-description\">\n  <p>\n    <strong>School</strong>&nbsp;conjuration&nbsp;(summoning);\n    <strong>Level</strong>&nbsp;bard 5, druid 5, hunter 5, sorcerer/wizard 5, summoner 5, unchained Summoner 5, witch 5;\n    \n    \n    \n    \n  </p>\n  <p>\n    <strong>Casting Time</strong>&nbsp;1 standard<br>\n    <strong>Components</strong>&nbsp;V, S, M/DF (a square of red cloth)<br>\n  </p>\n  <p>\n    \n    \n    \n    <strong>Effect</strong>&nbsp;whiplike swarm<br>\n    <strong>Duration</strong>&nbsp;1 round/level (D (see text)<br>\n      <strong>Saving Throw</strong>&nbsp;none;&nbsp;\n      <strong>Spell Resistance</strong>&nbsp;yes<br>\n  </p>\n  <h2>Description</h2>\n  <p>This spell functions as <i>Whip of Spiders</i>, except it summons centipedes, and any creature you strike with the whip takes swarm damage as if it were attacked by a centipede swarm (2d6 points of damage plus poison and distraction, <i>Bestiary</i> 43). If you transform the whip into a centipede swarm, it has 10 hit points.</p>\n</div>\n"
    },
    "tags": [],
    "activation": {
      "type": "standard"
    },
    "unchainedAction": {
      "activation": {
        "cost": 2,
        "type": "action"
      }
    },
    "range": {
      "value": 0,
      "units": "ft"
    },
    "uses": {
      "per": ""
    },
    "measureTemplate": {
      "size": "0"
    },
    "actionType": "other",
    "damage": {
      "parts": [],
      "critParts": [],
      "nonCritParts": []
    },
    "attackParts": [],
    "ability": {
      "attack": "",
      "damage": ""
    },
    "save": {
      "dc": "0"
    },
    "effectNotes": [],
    "attackNotes": [],
    "links": {
      "children": []
    },
    "flags": {
      "boolean": [],
      "dictionary": []
    },
    "scriptCalls": [],
    "learnedAt": {
      "class": [
        [
          "sorcerer/wizard",
          5
        ],
        [
          "druid",
          5
        ],
        [
          "bard",
          5
        ],
        [
          "summoner",
          5
        ],
        [
          "witch",
          5
        ],
        [
          "hunter",
          5
        ],
        [
          "unchained Summoner",
          5
        ]
      ],
      "domain": [],
      "subDomain": [],
      "elementalSchool": [],
      "bloodline": []
    },
    "level": 5,
    "school": "con",
    "subschool": "summoning",
    "conditionals": [],
    "components": {
      "verbal": true,
      "somatic": true,
      "material": true,
      "divineFocus": 2
    },
    "materials": {
      "value": "a square of red cloth"
    },
    "shortDescription": "<p>This spell functions as <i>Whip of Spiders</i>, except it summons centipedes, and any creature you strike with the whip takes swarm damage as if it were attacked by a centipede swarm (2d6 points of damage plus poison and distraction, <i>Bestiary</i> 43). If you transform the whip into a centipede swarm, it has 10 hit points.</p>",
    "spellDuration": "1 round/level (D (see text)",
    "spellEffect": "whiplike swarm"
  },
  "effects": [],
  "folder": null,
  "sort": 0,
  "permission": {
    "default": 0
  },
  "flags": {}
}