{
  "_id": "i9greyz3c0ap32vi",
  "name": "Whirlwind",
  "type": "spell",
  "img": "systems/pf1/icons/misc/magic-swirl.png",
  "data": {
    "description": {
      "value": "<div class=\"spell-description\">\n  <p>\n    <strong>School</strong>&nbsp;evocation&nbsp;[air];\n    <strong>Level</strong>&nbsp;druid 8, shaman 8;\n    <strong>Domain</strong>&nbsp;Air 8, Weather 8;\n    \n    \n    <strong>Bloodline</strong>&nbsp;Stormborn 8;\n  </p>\n  <p>\n    <strong>Casting Time</strong>&nbsp;1 standard<br>\n    <strong>Components</strong>&nbsp;V, S, DF<br>\n  </p>\n  <p>\n    <strong>Range</strong>&nbsp;long (400 ft. + 40 ft./level)<br>\n    \n    \n    <strong>Effect</strong>&nbsp;cyclone 10 ft. wide at base, 30 ft. wide at top, and 30 ft. tall<br>\n    <strong>Duration</strong>&nbsp;1 round/level<br>\n      <strong>Saving Throw</strong>&nbsp;Reflex negates; see text;&nbsp;\n      <strong>Spell Resistance</strong>&nbsp;yes<br>\n  </p>\n  <h2>Description</h2>\n  <p>This spell creates a powerful cyclone of raging wind that moves through the air, along the ground, or over water at a speed of 60 feet per round. You can concentrate on controlling the cyclone's every movement or specify a simple program. Directing the cyclone's movement or changing its programmed movement is a standard action for you. The cyclone always moves during your turn. If the cyclone exceeds the spell's range, it moves in a random, uncontrolled fashion for 1d3 rounds and then dissipates. (You can't regain control of the cyclone, even if it comes back within range.) Any Large or smaller creature that comes in contact with the spell effect must succeed on a Reflex save or take 3d6 points of damage. A Medium or smaller creature that fails its first save must succeed on a second one or be picked up bodily by the cyclone and held suspended in its powerful winds, taking 1d8 points of damage each round on your turn with no save allowed. You may direct the cyclone to eject any carried creatures whenever you wish, depositing the hapless souls wherever the cyclone happens to be when they are released.</p>\n</div>\n"
    },
    "tags": [],
    "activation": {
      "type": "standard"
    },
    "unchainedAction": {
      "activation": {
        "cost": 2,
        "type": "action"
      }
    },
    "range": {
      "units": "long"
    },
    "uses": {
      "per": ""
    },
    "measureTemplate": {
      "size": "0"
    },
    "actionType": "spellsave",
    "damage": {
      "parts": [],
      "critParts": [],
      "nonCritParts": []
    },
    "attackParts": [],
    "ability": {
      "attack": "",
      "damage": ""
    },
    "save": {
      "dc": "0",
      "type": "ref",
      "description": "Reflex negates; see text"
    },
    "effectNotes": [],
    "attackNotes": [],
    "links": {
      "children": []
    },
    "flags": {
      "boolean": [],
      "dictionary": []
    },
    "scriptCalls": [],
    "learnedAt": {
      "class": [
        [
          "druid",
          8
        ],
        [
          "shaman",
          8
        ]
      ],
      "domain": [
        [
          "Air",
          8
        ],
        [
          "Weather",
          8
        ]
      ],
      "subDomain": [],
      "elementalSchool": [],
      "bloodline": [
        [
          "Stormborn",
          8
        ]
      ]
    },
    "level": 8,
    "school": "evo",
    "types": "air",
    "conditionals": [],
    "components": {
      "verbal": true,
      "somatic": true,
      "divineFocus": 1
    },
    "shortDescription": "<p>This spell creates a powerful cyclone of raging wind that moves through the air, along the ground, or over water at a speed of 60 feet per round. You can concentrate on controlling the cyclone's every movement or specify a simple program. Directing the cyclone's movement or changing its programmed movement is a standard action for you. The cyclone always moves during your turn. If the cyclone exceeds the spell's range, it moves in a random, uncontrolled fashion for 1d3 rounds and then dissipates. (You can't regain control of the cyclone, even if it comes back within range.) Any Large or smaller creature that comes in contact with the spell effect must succeed on a Reflex save or take 3d6 points of damage. A Medium or smaller creature that fails its first save must succeed on a second one or be picked up bodily by the cyclone and held suspended in its powerful winds, taking 1d8 points of damage each round on your turn with no save allowed. You may direct the cyclone to eject any carried creatures whenever you wish, depositing the hapless souls wherever the cyclone happens to be when they are released.</p>",
    "spellDuration": "1 round/level",
    "spellEffect": "cyclone 10 ft. wide at base, 30 ft. wide at top, and 30 ft. tall"
  },
  "effects": [],
  "folder": null,
  "sort": 0,
  "permission": {
    "default": 0
  },
  "flags": {}
}