{
  "_id": "93ufp6thcni304jh",
  "name": "Wicker Horse",
  "type": "spell",
  "img": "systems/pf1/icons/misc/magic-swirl.png",
  "data": {
    "description": {
      "value": "<div class=\"spell-description\">\n  <p>\n    <strong>School</strong>&nbsp;conjuration&nbsp;(creation);\n    <strong>Level</strong>&nbsp;occultist 2, shaman 2, summoner 2, unchained Summoner 2, witch 2;\n    \n    \n    \n    \n  </p>\n  <p>\n    <strong>Casting Time</strong>&nbsp;10 minutes<br>\n    <strong>Components</strong>&nbsp;V, S, M/DF (a reed or twig)<br>\n  </p>\n  <p>\n    <strong>Range</strong>&nbsp;touch<br>\n    \n    \n    <strong>Effect</strong>&nbsp;a horselike wicker construct<br>\n    <strong>Duration</strong>&nbsp;1 hour/level (D)<br>\n      <strong>Saving Throw</strong>&nbsp;none;&nbsp;\n      <strong>Spell Resistance</strong>&nbsp;no<br>\n  </p>\n  <h2>Description</h2>\n  <p>Reeds, grasses, creepers, or thin tree branches (your choice) that you touch animate, twisting and bending to form a wicker horse complete with a riding saddle. The object is animated, but retains a wickerlike appearance.  A wicker horse has the statistics of a light horse or a pony, except it gains construct traits and counts as both an animal and a construct for the purposes of spells and effects. It gains a number of extra hit points equal to your caster level. It has no skills or feats except as noted below.  A horse made of reeds gains a number of Swim ranks equal to your caster level. A horse made of grasses gains the Run feat and a number of Acrobatics ranks equal to your caster level. A horse made of creepers gains a number of ranks in Climb and Stealth equal to your caster level. A horse made of tree branches is continually affected by <i>barkskin</i>, as cast by a magic-user with a caster level equal to yours.  The wicker horse does not follow any commands given with the Handle Animal skill, and only you can ride it. You can cast this spell only in an environment where suitable plant material is available. When the spell ends or the horse loses all its hit points, the horse falls apart.</p>\n</div>\n"
    },
    "tags": [],
    "activation": {
      "cost": 10,
      "type": "minute"
    },
    "unchainedAction": {
      "activation": {
        "cost": 10,
        "type": "minute"
      }
    },
    "range": {
      "units": "touch"
    },
    "uses": {
      "per": ""
    },
    "measureTemplate": {
      "size": "0"
    },
    "actionType": "other",
    "damage": {
      "parts": [],
      "critParts": [],
      "nonCritParts": []
    },
    "attackParts": [],
    "ability": {
      "attack": "",
      "damage": ""
    },
    "save": {
      "dc": "0"
    },
    "effectNotes": [],
    "attackNotes": [],
    "links": {
      "children": []
    },
    "flags": {
      "boolean": [],
      "dictionary": []
    },
    "scriptCalls": [],
    "learnedAt": {
      "class": [
        [
          "summoner",
          2
        ],
        [
          "witch",
          2
        ],
        [
          "shaman",
          2
        ],
        [
          "occultist",
          2
        ],
        [
          "unchained Summoner",
          2
        ]
      ],
      "domain": [],
      "subDomain": [],
      "elementalSchool": [],
      "bloodline": []
    },
    "level": 2,
    "school": "con",
    "subschool": "creation",
    "conditionals": [],
    "components": {
      "verbal": true,
      "somatic": true,
      "material": true,
      "divineFocus": 2
    },
    "materials": {
      "value": "a reed or twig"
    },
    "sr": false,
    "shortDescription": "<p>Reeds, grasses, creepers, or thin tree branches (your choice) that you touch animate, twisting and bending to form a wicker horse complete with a riding saddle. The object is animated, but retains a wickerlike appearance.  A wicker horse has the statistics of a light horse or a pony, except it gains construct traits and counts as both an animal and a construct for the purposes of spells and effects. It gains a number of extra hit points equal to your caster level. It has no skills or feats except as noted below.  A horse made of reeds gains a number of Swim ranks equal to your caster level. A horse made of grasses gains the Run feat and a number of Acrobatics ranks equal to your caster level. A horse made of creepers gains a number of ranks in Climb and Stealth equal to your caster level. A horse made of tree branches is continually affected by <i>barkskin</i>, as cast by a magic-user with a caster level equal to yours.  The wicker horse does not follow any commands given with the Handle Animal skill, and only you can ride it. You can cast this spell only in an environment where suitable plant material is available. When the spell ends or the horse loses all its hit points, the horse falls apart.</p>",
    "spellDuration": "1 hour/level (D)",
    "spellEffect": "a horselike wicker construct"
  },
  "effects": [],
  "folder": null,
  "sort": 0,
  "permission": {
    "default": 0
  },
  "flags": {}
}