{
  "_id": "uyjgepc66i4alvwe",
  "name": "Wild Instinct",
  "type": "spell",
  "img": "systems/pf1/icons/misc/magic-swirl.png",
  "data": {
    "description": {
      "value": "<div class=\"spell-description\">\n  <p>\n    <strong>School</strong>&nbsp;divination;\n    <strong>Level</strong>&nbsp;bloodrager 2, druid 2, hunter 2, ranger 2, shaman 2;\n    \n    \n    \n    \n  </p>\n  <p>\n    <strong>Casting Time</strong>&nbsp;1 standard<br>\n    <strong>Components</strong>&nbsp;V, S, DF<br>\n  </p>\n  <p>\n    <strong>Range</strong>&nbsp;personal<br>\n    \n    <strong>Targets</strong>&nbsp;you<br>\n    \n    <strong>Duration</strong>&nbsp;8 hours<br>\n  </p>\n  <h2>Description</h2>\n  <p>This spell sharpens your senses, allowing you to perceive threats you would otherwise miss. You become aware of sounds and smells you would normally overlook, and even retain the ability to detect threats when soundly asleep. For the duration of the spell, you gain a +5 bonus on Perception checks to act in a surprise round. Additionally, you don't take a penalty on Perception checks while sleeping, and can choose to wake if you notice a threat while asleep.</p>\n</div>\n"
    },
    "tags": [],
    "activation": {
      "type": "standard"
    },
    "unchainedAction": {
      "activation": {
        "cost": 2,
        "type": "action"
      }
    },
    "target": {
      "value": "you"
    },
    "range": {
      "units": "personal"
    },
    "uses": {
      "per": ""
    },
    "measureTemplate": {
      "size": "0"
    },
    "actionType": "",
    "damage": {
      "parts": [],
      "critParts": [],
      "nonCritParts": []
    },
    "attackParts": [],
    "ability": {
      "attack": "",
      "damage": ""
    },
    "save": {
      "dc": "0"
    },
    "effectNotes": [],
    "attackNotes": [],
    "links": {
      "children": []
    },
    "flags": {
      "boolean": [],
      "dictionary": []
    },
    "scriptCalls": [],
    "learnedAt": {
      "class": [
        [
          "druid",
          2
        ],
        [
          "ranger",
          2
        ],
        [
          "bloodrager",
          2
        ],
        [
          "shaman",
          2
        ],
        [
          "hunter",
          2
        ]
      ],
      "domain": [],
      "subDomain": [],
      "elementalSchool": [],
      "bloodline": []
    },
    "level": 2,
    "school": "div",
    "conditionals": [],
    "components": {
      "verbal": true,
      "somatic": true,
      "divineFocus": 1
    },
    "sr": false,
    "shortDescription": "<p>This spell sharpens your senses, allowing you to perceive threats you would otherwise miss. You become aware of sounds and smells you would normally overlook, and even retain the ability to detect threats when soundly asleep. For the duration of the spell, you gain a +5 bonus on Perception checks to act in a surprise round. Additionally, you don't take a penalty on Perception checks while sleeping, and can choose to wake if you notice a threat while asleep.</p>",
    "spellDuration": "8 hours"
  },
  "effects": [],
  "folder": null,
  "sort": 0,
  "permission": {
    "default": 0
  },
  "flags": {}
}