{
  "_id": "r37k9siiazcdqkc7",
  "name": "Word of Recall",
  "type": "spell",
  "img": "systems/pf1/icons/misc/magic-swirl.png",
  "data": {
    "description": {
      "value": "<div class=\"spell-description\">\n  <p>\n    <strong>School</strong>&nbsp;conjuration&nbsp;(teleportation);\n    <strong>Level</strong>&nbsp;cleric/oracle 6, druid 8, psychic 7;\n    \n    \n    \n    \n  </p>\n  <p>\n    <strong>Casting Time</strong>&nbsp;1 standard<br>\n    <strong>Components</strong>&nbsp;V<br>\n  </p>\n  <p>\n    \n    \n    <strong>Targets</strong>&nbsp;you and touched objects or other willing creatures<br>\n    \n    <strong>Duration</strong>&nbsp;instantaneous<br>\n      <strong>Saving Throw</strong>&nbsp;none or Will negates (harmless, object);&nbsp;\n      <strong>Spell Resistance</strong>&nbsp;no<br>\n  </p>\n  <h2>Description</h2>\n  <p><i>Word of recall</i> teleports you instantly back to your sanctuary when the word is uttered. You must designate the sanctuary when you prepare the spell, and it must be a very familiar place. The actual point of arrival is a designated area no larger than 10 feet by 10 feet. You can be transported any distance within a plane but cannot travel between planes. You can transport, in addition to yourself, any objects you carry, as long as their weight doesn't exceed your maximum load. You may also bring one additional willing Medium or smaller creature (carrying gear or objects up to its maximum load) or its equivalent per three caster levels. A Large creature counts as two Medium creatures, a Huge creature counts as two Large creatures, and so forth. All creatures to be transported must be in contact with one another, and at least one of those creatures must be in contact with you. Exceeding this limit causes the spell to fail.</p><p>An unwilling creature can't be teleported by <i>word of recall.</i></p><p>Likewise, a creature's Will save (or spell resistance) prevents items in its possession from being teleported. Unattended, nonmagical objects receive no saving throw.</p>\n</div>\n"
    },
    "tags": [],
    "activation": {
      "type": "standard"
    },
    "unchainedAction": {
      "activation": {
        "cost": 2,
        "type": "action"
      }
    },
    "target": {
      "value": "you and touched objects or other willing creatures"
    },
    "uses": {
      "per": ""
    },
    "measureTemplate": {
      "size": "0"
    },
    "actionType": "spellsave",
    "damage": {
      "parts": [],
      "critParts": [],
      "nonCritParts": []
    },
    "attackParts": [],
    "ability": {
      "attack": "",
      "damage": ""
    },
    "save": {
      "dc": "0",
      "type": "will",
      "description": "none or Will negates (harmless, object)"
    },
    "effectNotes": [],
    "attackNotes": [],
    "links": {
      "children": []
    },
    "flags": {
      "boolean": [],
      "dictionary": []
    },
    "scriptCalls": [],
    "learnedAt": {
      "class": [
        [
          "cleric/oracle",
          6
        ],
        [
          "druid",
          8
        ],
        [
          "psychic",
          7
        ]
      ],
      "domain": [],
      "subDomain": [],
      "elementalSchool": [],
      "bloodline": []
    },
    "level": 6,
    "school": "con",
    "subschool": "teleportation",
    "conditionals": [],
    "components": {
      "verbal": true
    },
    "sr": false,
    "shortDescription": "<p><i>Word of recall</i> teleports you instantly back to your sanctuary when the word is uttered. You must designate the sanctuary when you prepare the spell, and it must be a very familiar place. The actual point of arrival is a designated area no larger than 10 feet by 10 feet. You can be transported any distance within a plane but cannot travel between planes. You can transport, in addition to yourself, any objects you carry, as long as their weight doesn't exceed your maximum load. You may also bring one additional willing Medium or smaller creature (carrying gear or objects up to its maximum load) or its equivalent per three caster levels. A Large creature counts as two Medium creatures, a Huge creature counts as two Large creatures, and so forth. All creatures to be transported must be in contact with one another, and at least one of those creatures must be in contact with you. Exceeding this limit causes the spell to fail.</p><p>An unwilling creature can't be teleported by <i>word of recall.</i></p><p>Likewise, a creature's Will save (or spell resistance) prevents items in its possession from being teleported. Unattended, nonmagical objects receive no saving throw.</p>",
    "spellDuration": "instantaneous"
  },
  "effects": [],
  "folder": null,
  "sort": 0,
  "permission": {
    "default": 0
  },
  "flags": {}
}