{
  "name": "Award XP",
  "permission": {
    "default": 0
  },
  "type": "script",
  "flags": {},
  "scope": "global",
  "command": "// CONFIGURATION\r\n// If one or more tokens are selected, those will be used instead of the listed actors\r\n// Leave the actorNames array empty to guess the players\r\n// Example actorNames: `actorNames: [\"Bob\", \"John\"],`\r\nconst c = {\r\n  actorNames: [],\r\n};\r\n// END CONFIGURATION\r\n\r\nconst tokens = canvas.tokens.controlled;\r\nlet actors = tokens.map(o => o.actor);\r\nif (!actors.length && c.actorNames.length) actors = game.actors.entities.filter(o => c.actorNames.includes(o.name));\r\nif (!actors.length) actors = game.actors.entities.filter(o => o.isPC);\r\nactors = actors.filter(o => o.testUserPermission(game.user, \"OWNER\"));\r\n\r\nif (!actors.length) ui.notifications.warn(\"No applicable actor(s) found\");\r\nelse {\r\n  const _action = function(xp) {\r\n    if (!isNaN(xp)) {\r\n      actors.forEach(o => {\r\n        let curXP = getProperty(o.data, \"data.details.xp.value\") || 0;\r\n        if (typeof curXP === \"string\") curXP = parseInt(curXP);\r\n        o.update({ \"data.details.xp.value\": curXP + xp });\r\n      });\r\n    }\r\n  };\r\n\r\n  const msg = `Award XP to the following actors: <strong>${actors.map(o => o.name).join(\"</strong>, <strong>\")}</strong>`;\r\n  const field = `<input type=\"text\" name=\"xp\" value=\"0\" placeholder=\"XP amount\" style=\"margin-bottom: 8px;\" />`;\r\n\r\n  new Dialog({\r\n    title: \"Roll saving throw\",\r\n    content: `<p>${msg}</p>${field}`,\r\n    buttons: {\r\n      ok: {\r\n        label: \"Give All\",\r\n        callback: html => {\r\n          let xp = parseInt(html.find('input[name=\"xp\"]').val());\r\n          _action(xp);\r\n        },\r\n      },\r\n      distribute: {\r\n        label: \"Distribute\",\r\n        callback: html => {\r\n          let xp = parseInt(html.find('input[name=\"xp\"]').val());\r\n          xp = Math.floor(xp / actors.length);\r\n          _action(xp);\r\n        }\r\n      }\r\n    },\r\n  }).render(true);\r\n}",
  "author": "T9i9xVjdkHeFZC72",
  "img": "icons/svg/book.svg",
  "actorIds": [],
  "_id": "8VcUUx7d4TX4WTkt"
}